%YAML 1.1
%TAG !u! tag:unity3d.com,2011:
--- !u!64 &711173044
MeshCollider:
  m_ObjectHideFlags: 0
  m_CorrespondingSourceObject: {fileID: 0}
  m_PrefabInstance: {fileID: 0}
  m_PrefabAsset: {fileID: 0}
  m_GameObject: {fileID: 4667050125438232183}
  m_Material: {fileID: 0}
  m_IsTrigger: 0
  m_Enabled: 1
  serializedVersion: 4
  m_Convex: 0
  m_CookingOptions: 30
  m_Mesh: {fileID: 4300000, guid: 2397a4829f3474e8e915261f01fda47d, type: 3}
--- !u!64 &342695439
MeshCollider:
  m_ObjectHideFlags: 0
  m_CorrespondingSourceObject: {fileID: 0}
  m_PrefabInstance: {fileID: 0}
  m_PrefabAsset: {fileID: 0}
  m_GameObject: {fileID: 5758640245163210311}
  m_Material: {fileID: 0}
  m_IsTrigger: 0
  m_Enabled: 1
  serializedVersion: 4
  m_Convex: 0
  m_CookingOptions: 30
  m_Mesh: {fileID: 4300000, guid: 52ffe8b9376da4ad7a8bde419cebdb1c, type: 3}
--- !u!95 &3994236341631107759
Animator:
  serializedVersion: 3
  m_ObjectHideFlags: 0
  m_CorrespondingSourceObject: {fileID: 0}
  m_PrefabInstance: {fileID: 0}
  m_PrefabAsset: {fileID: 0}
  m_GameObject: {fileID: 5758640245163210311}
  m_Enabled: 1
  m_Avatar: {fileID: 0}
  m_Controller: {fileID: 9100000, guid: 631311f51cdf7044fa9c61c88c10baef, type: 2}
  m_CullingMode: 0
  m_UpdateMode: 0
  m_ApplyRootMotion: 0
  m_LinearVelocityBlending: 0
  m_WarningMessage: 
  m_HasTransformHierarchy: 1
  m_AllowConstantClipSamplingOptimization: 1
  m_KeepAnimatorControllerStateOnDisable: 0
--- !u!114 &1507327170185862976
MonoBehaviour:
  m_ObjectHideFlags: 0
  m_CorrespondingSourceObject: {fileID: 0}
  m_PrefabInstance: {fileID: 0}
  m_PrefabAsset: {fileID: 0}
  m_GameObject: {fileID: 5758640245163210311}
  m_Enabled: 1
  m_EditorHideFlags: 0
  m_Script: {fileID: 11500000, guid: eb2f9c1c499ba9944b6ba49e5784a918, type: 3}
  m_Name: 
  m_EditorClassIdentifier: 
  opened: 0
  locked: 0
--- !u!1001 &2848625797903559034
PrefabInstance:
  m_ObjectHideFlags: 0
  serializedVersion: 2
  m_Modification:
    m_TransformParent: {fileID: 0}
    m_Modifications:
    - target: {fileID: 1805686786, guid: 9ce165dd222504a7dada2f13901e2cbd, type: 3}
      propertyPath: m_LocalPosition.x
      value: 0
      objectReference: {fileID: 0}
    - target: {fileID: 1805686786, guid: 9ce165dd222504a7dada2f13901e2cbd, type: 3}
      propertyPath: m_LocalPosition.y
      value: 0
      objectReference: {fileID: 0}
    - target: {fileID: 1805686786, guid: 9ce165dd222504a7dada2f13901e2cbd, type: 3}
      propertyPath: m_LocalPosition.z
      value: 5
      objectReference: {fileID: 0}
    - target: {fileID: 1805686786, guid: 9ce165dd222504a7dada2f13901e2cbd, type: 3}
      propertyPath: m_LocalRotation.x
      value: -0
      objectReference: {fileID: 0}
    - target: {fileID: 1805686786, guid: 9ce165dd222504a7dada2f13901e2cbd, type: 3}
      propertyPath: m_LocalRotation.y
      value: -0
      objectReference: {fileID: 0}
    - target: {fileID: 1805686786, guid: 9ce165dd222504a7dada2f13901e2cbd, type: 3}
      propertyPath: m_LocalRotation.z
      value: -0
      objectReference: {fileID: 0}
    - target: {fileID: 1805686786, guid: 9ce165dd222504a7dada2f13901e2cbd, type: 3}
      propertyPath: m_LocalRotation.w
      value: 1
      objectReference: {fileID: 0}
    - target: {fileID: 1805686786, guid: 9ce165dd222504a7dada2f13901e2cbd, type: 3}
      propertyPath: m_RootOrder
      value: 0
      objectReference: {fileID: 0}
    - target: {fileID: 1805686786, guid: 9ce165dd222504a7dada2f13901e2cbd, type: 3}
      propertyPath: m_LocalEulerAnglesHint.x
      value: 0
      objectReference: {fileID: 0}
    - target: {fileID: 1805686786, guid: 9ce165dd222504a7dada2f13901e2cbd, type: 3}
      propertyPath: m_LocalEulerAnglesHint.y
      value: 0
      objectReference: {fileID: 0}
    - target: {fileID: 1805686786, guid: 9ce165dd222504a7dada2f13901e2cbd, type: 3}
      propertyPath: m_LocalEulerAnglesHint.z
      value: 0
      objectReference: {fileID: 0}
    - target: {fileID: 1527527227468396489, guid: 9ce165dd222504a7dada2f13901e2cbd,
        type: 3}
      propertyPath: m_LocalPosition.x
      value: -0.55395013
      objectReference: {fileID: 0}
    - target: {fileID: 7150926831085997093, guid: 9ce165dd222504a7dada2f13901e2cbd,
        type: 3}
      propertyPath: m_Name
      value: ProfileDoor Variant
      objectReference: {fileID: 0}
    m_RemovedComponents: []
  m_SourcePrefab: {fileID: 100100000, guid: 9ce165dd222504a7dada2f13901e2cbd, type: 3}
--- !u!1 &4667050125438232183 stripped
GameObject:
  m_CorrespondingSourceObject: {fileID: 7443583007157260045, guid: 9ce165dd222504a7dada2f13901e2cbd,
    type: 3}
  m_PrefabInstance: {fileID: 2848625797903559034}
  m_PrefabAsset: {fileID: 0}
--- !u!1 &5758640245163210311 stripped
GameObject:
  m_CorrespondingSourceObject: {fileID: 7521740185679601469, guid: 9ce165dd222504a7dada2f13901e2cbd,
    type: 3}
  m_PrefabInstance: {fileID: 2848625797903559034}
  m_PrefabAsset: {fileID: 0}
