# Blender v2.90.1 OBJ File: 'buttons.blend'
# www.blender.org
mtllib button4.mtl
o Cube
v 1.088764 -0.010000 -1.242224
v 1.088764 -0.510000 -1.242224
v 1.088764 -0.010000 1.157776
v 1.088764 -0.510000 1.157776
v -1.311236 -0.010000 -1.242224
v -1.311236 -0.510000 -1.242224
v -1.311236 -0.010000 1.157776
v -1.311236 -0.510000 1.157776
vt 0.625000 0.500000
vt 0.875000 0.500000
vt 0.875000 0.750000
vt 0.625000 0.750000
vt 0.375000 0.750000
vt 0.625000 1.000000
vt 0.375000 1.000000
vt 0.375000 0.000000
vt 0.625000 0.000000
vt 0.625000 0.250000
vt 0.375000 0.250000
vt 0.125000 0.500000
vt 0.375000 0.500000
vt 0.125000 0.750000
vn 0.0000 1.0000 0.0000
vn 0.0000 0.0000 1.0000
vn -1.0000 0.0000 0.0000
vn 0.0000 -1.0000 0.0000
vn 1.0000 0.0000 0.0000
vn 0.0000 0.0000 -1.0000
usemtl Button2
s off
f 1/1/1 5/2/1 7/3/1 3/4/1
f 4/5/2 3/4/2 7/6/2 8/7/2
f 8/8/3 7/9/3 5/10/3 6/11/3
f 6/12/4 2/13/4 4/5/4 8/14/4
f 2/13/5 1/1/5 3/4/5 4/5/5
f 6/11/6 5/10/6 1/1/6 2/13/6
o Cube.001
v 0.888764 0.500000 -1.042224
v 0.888764 -0.500000 -1.042224
v 0.888764 0.500000 0.957776
v 0.888764 -0.500000 0.957776
v -1.111236 0.500000 -1.042224
v -1.111236 -0.500000 -1.042224
v -1.111236 0.500000 0.957776
v -1.111236 -0.500000 0.957776
vt 0.625000 0.500000
vt 0.875000 0.500000
vt 0.875000 0.750000
vt 0.625000 0.750000
vt 0.375000 0.750000
vt 0.625000 1.000000
vt 0.375000 1.000000
vt 0.375000 0.000000
vt 0.625000 0.000000
vt 0.625000 0.250000
vt 0.375000 0.250000
vt 0.125000 0.500000
vt 0.375000 0.500000
vt 0.125000 0.750000
vn 0.0000 1.0000 0.0000
vn 0.0000 0.0000 1.0000
vn -1.0000 0.0000 0.0000
vn 0.0000 -1.0000 0.0000
vn 1.0000 0.0000 0.0000
vn 0.0000 0.0000 -1.0000
usemtl Button
s off
f 9/15/7 13/16/7 15/17/7 11/18/7
f 12/19/8 11/18/8 15/20/8 16/21/8
f 16/22/9 15/23/9 13/24/9 14/25/9
f 14/26/10 10/27/10 12/19/10 16/28/10
f 10/27/11 9/15/11 11/18/11 12/19/11
f 14/25/12 13/24/12 9/15/12 10/27/12
o Text
v 0.038767 0.690054 -0.470555
v 0.147936 0.690054 -0.470555
v 0.147936 0.690054 0.160540
v 0.281024 0.690054 0.160540
v 0.281024 0.690054 0.225551
v 0.147936 0.690054 0.225551
v 0.147936 0.690054 0.441435
v 0.076179 0.690054 0.441435
v 0.076179 0.690054 0.225551
v -0.293033 0.690054 0.225551
v -0.293033 0.690054 0.164220
v -0.216369 0.690054 0.160540
v 0.076179 0.690054 0.160540
v 0.076179 0.690054 -0.215418
v 0.076196 0.690054 -0.222459
v 0.076247 0.690054 -0.231109
v 0.076332 0.690054 -0.241369
v 0.076452 0.690054 -0.253239
v 0.076605 0.690054 -0.266719
v 0.076792 0.690054 -0.281809
v 0.077014 0.690054 -0.298509
v 0.077269 0.690054 -0.316819
v 0.077559 0.690054 -0.336738
v 0.077883 0.690054 -0.358268
v 0.078240 0.690054 -0.381408
v 0.078632 0.690054 -0.406157
v 0.066366 0.690054 -0.406157
v 0.059986 0.690054 -0.390786
v 0.053521 0.690054 -0.375543
v 0.046970 0.690054 -0.360428
v 0.040334 0.690054 -0.345440
v 0.033614 0.690054 -0.330580
v 0.026808 0.690054 -0.315848
v 0.019916 0.690054 -0.301243
v 0.012940 0.690054 -0.286767
v 0.005878 0.690054 -0.272418
v -0.001268 0.690054 -0.258197
v -0.008500 0.690054 -0.244103
v -0.015817 0.690054 -0.230138
v 0.038767 0.370054 -0.470555
v 0.147936 0.370054 -0.470555
v 0.147936 0.370054 0.160540
v 0.281024 0.370054 0.160540
v 0.281024 0.370054 0.225551
v 0.147936 0.370054 0.225551
v 0.147936 0.370054 0.441435
v 0.076179 0.370054 0.441435
v 0.076179 0.370054 0.225551
v -0.293033 0.370054 0.225551
v -0.293033 0.370054 0.164220
v -0.216369 0.370054 0.160540
v 0.076179 0.370054 0.160540
v 0.076179 0.370054 -0.215418
v 0.076196 0.370054 -0.222459
v 0.076247 0.370054 -0.231109
v 0.076332 0.370054 -0.241369
v 0.076452 0.370054 -0.253239
v 0.076605 0.370054 -0.266719
v 0.076792 0.370054 -0.281809
v 0.077014 0.370054 -0.298509
v 0.077269 0.370054 -0.316819
v 0.077559 0.370054 -0.336738
v 0.077883 0.370054 -0.358268
v 0.078240 0.370054 -0.381408
v 0.078632 0.370054 -0.406157
v 0.066366 0.370054 -0.406157
v 0.059986 0.370054 -0.390786
v 0.053521 0.370054 -0.375543
v 0.046970 0.370054 -0.360428
v 0.040334 0.370054 -0.345440
v 0.033614 0.370054 -0.330580
v 0.026808 0.370054 -0.315848
v 0.019916 0.370054 -0.301243
v 0.012940 0.370054 -0.286767
v 0.005878 0.370054 -0.272418
v -0.001268 0.370054 -0.258197
v -0.008500 0.370054 -0.244103
v -0.015817 0.370054 -0.230138
v 0.038767 0.370054 -0.470555
v 0.038767 0.690054 -0.470555
v 0.147936 0.370054 -0.470555
v 0.147936 0.690054 -0.470555
v 0.147936 0.370054 0.160540
v 0.147936 0.690054 0.160540
v 0.281024 0.370054 0.160540
v 0.281024 0.690054 0.160540
v 0.281024 0.370054 0.225551
v 0.281024 0.690054 0.225551
v 0.147936 0.370054 0.225551
v 0.147936 0.690054 0.225551
v 0.147936 0.370054 0.441435
v 0.147936 0.690054 0.441435
v 0.076179 0.370054 0.441435
v 0.076179 0.690054 0.441435
v 0.076179 0.370054 0.225551
v 0.076179 0.690054 0.225551
v -0.293033 0.370054 0.225551
v -0.293033 0.690054 0.225551
v -0.293033 0.370054 0.164220
v -0.293033 0.690054 0.164220
v -0.216369 0.370054 0.160540
v -0.216369 0.690054 0.160540
v 0.076179 0.370054 0.160540
v 0.076179 0.690054 0.160540
v 0.076179 0.370054 -0.215418
v 0.076179 0.690054 -0.215418
v 0.076196 0.370054 -0.222459
v 0.076196 0.690054 -0.222459
v 0.076247 0.370054 -0.231109
v 0.076247 0.690054 -0.231109
v 0.076332 0.370054 -0.241369
v 0.076332 0.690054 -0.241369
v 0.076452 0.370054 -0.253239
v 0.076452 0.690054 -0.253239
v 0.076605 0.370054 -0.266719
v 0.076605 0.690054 -0.266719
v 0.076792 0.370054 -0.281809
v 0.076792 0.690054 -0.281809
v 0.077014 0.370054 -0.298509
v 0.077014 0.690054 -0.298509
v 0.077269 0.370054 -0.316819
v 0.077269 0.690054 -0.316819
v 0.077559 0.370054 -0.336738
v 0.077559 0.690054 -0.336738
v 0.077883 0.370054 -0.358268
v 0.077883 0.690054 -0.358268
v 0.078240 0.370054 -0.381408
v 0.078240 0.690054 -0.381408
v 0.078632 0.370054 -0.406157
v 0.078632 0.690054 -0.406157
v 0.066366 0.370054 -0.406157
v 0.066366 0.690054 -0.406157
v 0.059986 0.370054 -0.390786
v 0.059986 0.690054 -0.390786
v 0.053521 0.370054 -0.375543
v 0.053521 0.690054 -0.375543
v 0.046970 0.370054 -0.360428
v 0.046970 0.690054 -0.360428
v 0.040334 0.370054 -0.345440
v 0.040334 0.690054 -0.345440
v 0.033614 0.370054 -0.330580
v 0.033614 0.690054 -0.330580
v 0.026808 0.370054 -0.315848
v 0.026808 0.690054 -0.315848
v 0.019916 0.370054 -0.301243
v 0.019916 0.690054 -0.301243
v 0.012940 0.370054 -0.286767
v 0.012940 0.690054 -0.286767
v 0.005878 0.370054 -0.272418
v 0.005878 0.690054 -0.272418
v -0.001268 0.370054 -0.258197
v -0.001268 0.690054 -0.258197
v -0.008500 0.370054 -0.244103
v -0.008500 0.690054 -0.244103
v -0.015817 0.370054 -0.230138
v -0.015817 0.690054 -0.230138
vt 0.263158 0.000000
vt 0.684211 0.000000
vt 0.000000 0.000000
vt 0.026316 0.000000
vt 0.657895 0.000000
vt 0.052632 0.000000
vt 0.710526 0.000000
vt 0.631579 0.000000
vt 0.736842 0.000000
vt 0.605263 0.000000
vt 0.763158 0.000000
vt 0.789474 0.000000
vt 0.578947 0.000000
vt 0.815789 0.000000
vt 0.552632 0.000000
vt 0.842105 0.000000
vt 0.526316 0.000000
vt 0.868421 0.000000
vt 0.894737 0.000000
vt 0.500000 0.000000
vt 0.921053 0.000000
vt 0.473684 0.000000
vt 0.947368 0.000000
vt 0.447368 0.000000
vt 0.973684 0.000000
vt 0.421053 0.000000
vt 1.000000 0.000000
vt 0.394737 0.000000
vt 0.368421 0.000000
vt 0.289474 0.000000
vt 0.342105 0.000000
vt 0.315789 0.000000
vt 0.078947 0.000000
vt 0.105263 0.000000
vt 0.236842 0.000000
vt 0.210526 0.000000
vt 0.184211 0.000000
vt 0.131579 0.000000
vt 0.157895 0.000000
vt 0.684211 0.000000
vt 0.263158 0.000000
vt 0.000000 0.000000
vt 0.026316 0.000000
vt 0.657895 0.000000
vt 0.052632 0.000000
vt 0.710526 0.000000
vt 0.631579 0.000000
vt 0.736842 0.000000
vt 0.605263 0.000000
vt 0.763158 0.000000
vt 0.789474 0.000000
vt 0.578947 0.000000
vt 0.815789 0.000000
vt 0.552632 0.000000
vt 0.842105 0.000000
vt 0.526316 0.000000
vt 0.868421 0.000000
vt 0.894737 0.000000
vt 0.500000 0.000000
vt 0.921053 0.000000
vt 0.473684 0.000000
vt 0.947368 0.000000
vt 0.447368 0.000000
vt 0.973684 0.000000
vt 0.421053 0.000000
vt 1.000000 0.000000
vt 0.394737 0.000000
vt 0.368421 0.000000
vt 0.289474 0.000000
vt 0.342105 0.000000
vt 0.315789 0.000000
vt 0.078947 0.000000
vt 0.105263 0.000000
vt 0.236842 0.000000
vt 0.210526 0.000000
vt 0.131579 0.000000
vt 0.184211 0.000000
vt 0.157895 0.000000
vt 0.000000 1.000000
vt 0.090909 1.000000
vt 0.090909 0.000000
vt 0.000000 0.000000
vt 0.181818 1.000000
vt 0.181818 0.000000
vt 0.272727 1.000000
vt 0.272727 0.000000
vt 0.363636 1.000000
vt 0.363636 0.000000
vt 0.454545 1.000000
vt 0.454545 0.000000
vt 0.545455 1.000000
vt 0.545455 0.000000
vt 0.636364 1.000000
vt 0.636364 0.000000
vt 0.727273 1.000000
vt 0.727273 0.000000
vt 0.818182 1.000000
vt 0.818182 0.000000
vt 0.909091 1.000000
vt 0.909091 0.000000
vt 1.000000 1.000000
vt 1.000000 0.000000
vt 0.000000 1.000000
vt 0.035714 1.000000
vt 0.035714 0.000000
vt 0.000000 0.000000
vt 0.071429 1.000000
vt 0.071429 0.000000
vt 0.107143 1.000000
vt 0.107143 0.000000
vt 0.142857 1.000000
vt 0.142857 0.000000
vt 0.178571 1.000000
vt 0.178571 0.000000
vt 0.214286 1.000000
vt 0.214286 0.000000
vt 0.250000 1.000000
vt 0.250000 0.000000
vt 0.285714 1.000000
vt 0.285714 0.000000
vt 0.321429 1.000000
vt 0.321429 0.000000
vt 0.357143 1.000000
vt 0.357143 0.000000
vt 0.392857 1.000000
vt 0.392857 0.000000
vt 0.428571 1.000000
vt 0.428571 0.000000
vt 0.464286 1.000000
vt 0.464286 0.000000
vt 0.500000 1.000000
vt 0.500000 0.000000
vt 0.535714 1.000000
vt 0.535714 0.000000
vt 0.571429 1.000000
vt 0.571429 0.000000
vt 0.607143 1.000000
vt 0.607143 0.000000
vt 0.642857 1.000000
vt 0.642857 0.000000
vt 0.678571 1.000000
vt 0.678571 0.000000
vt 0.714286 1.000000
vt 0.714286 0.000000
vt 0.750000 1.000000
vt 0.750000 0.000000
vt 0.785714 1.000000
vt 0.785714 0.000000
vt 0.821429 1.000000
vt 0.821429 0.000000
vt 0.857143 1.000000
vt 0.857143 0.000000
vt 0.892857 1.000000
vt 0.892857 0.000000
vt 0.928571 1.000000
vt 0.928571 0.000000
vt 0.964286 1.000000
vt 0.964286 0.000000
vt 1.000000 1.000000
vt 1.000000 0.000000
vn 0.0000 1.0000 0.0000
vn 0.0000 1.0000 -0.0001
vn 0.0000 0.0000 1.0000
vn 0.0000 -1.0000 -0.0000
vn 0.0000 -1.0000 0.0001
vn 0.0000 0.0000 -1.0000
vn -0.5181 0.0000 -0.8553
vn 0.7071 0.0000 -0.7071
vn 0.7071 0.0000 0.7071
vn -0.7071 0.0000 0.7071
vn -0.9711 0.0000 -0.2385
vn 0.8534 0.0000 -0.5212
vn -0.7071 0.0000 -0.7071
vn -1.0000 0.0000 -0.0012
vn -1.0000 0.0000 -0.0042
vn -1.0000 0.0000 -0.0071
vn -0.9999 0.0000 -0.0092
vn -0.9999 0.0000 -0.0107
vn -0.9999 0.0000 -0.0119
vn -0.9999 0.0000 -0.0128
vn -0.9999 0.0000 -0.0136
vn -0.9999 0.0000 -0.0142
vn -0.9999 0.0000 -0.0148
vn -0.9999 0.0000 -0.0152
vn -0.9998 0.0000 -0.0156
vn -0.7127 0.0000 0.7015
vn 0.5553 0.0000 0.8317
vn 0.9221 0.0000 0.3869
vn 0.9191 0.0000 0.3940
vn 0.9160 0.0000 0.4012
vn 0.9127 0.0000 0.4085
vn 0.9095 0.0000 0.4157
vn 0.9061 0.0000 0.4230
vn 0.9026 0.0000 0.4304
vn 0.8990 0.0000 0.4378
vn 0.8954 0.0000 0.4453
vn 0.8916 0.0000 0.4528
vn 0.8877 0.0000 0.4603
vn 0.8877 0.0000 0.4604
usemtl Number
s off
f 27/29/13 43/30/13 17/31/13
f 43/30/13 18/32/13 17/31/13
f 43/30/13 42/33/13 18/32/13
f 42/33/13 19/34/13 18/32/13
f 27/29/13 44/35/13 43/30/13
f 41/36/13 19/34/13 42/33/13
f 27/29/13 45/37/13 44/35/13
f 40/38/13 19/34/13 41/36/13
f 27/29/13 46/39/13 45/37/13
f 27/29/13 47/40/13 46/39/13
f 39/41/13 19/34/13 40/38/13
f 27/29/13 48/42/13 47/40/13
f 38/43/13 19/34/13 39/41/13
f 27/29/13 49/44/13 48/42/13
f 37/45/13 19/34/13 38/43/13
f 27/29/13 50/46/13 49/44/13
f 27/29/13 51/47/13 50/46/13
f 36/48/13 19/34/13 37/45/13
f 27/29/13 52/49/13 51/47/13
f 35/50/13 19/34/13 36/48/13
f 27/29/13 53/51/13 52/49/13
f 34/52/13 19/34/13 35/50/13
f 27/29/13 54/53/13 53/51/13
f 33/54/13 19/34/13 34/52/13
f 27/29/13 55/55/13 54/53/13
f 32/56/13 19/34/13 33/54/13
f 31/57/13 19/34/13 32/56/13
f 27/29/13 28/58/13 55/55/13
f 30/59/13 19/34/13 31/57/13
f 29/60/13 19/34/13 30/59/13
f 27/29/13 29/60/13 28/58/13
f 27/29/14 19/34/14 29/60/14
f 27/29/14 20/61/14 19/34/14
f 27/29/13 21/62/13 20/61/13
f 26/63/13 21/62/13 27/29/13
f 25/64/15 21/62/15 26/63/15
f 24/65/13 22/66/13 25/64/13
f 22/66/15 21/62/15 25/64/15
f 24/65/13 23/67/13 22/66/13
f 82/68/16 66/69/16 56/70/16
f 57/71/16 82/68/16 56/70/16
f 81/72/16 82/68/16 57/71/16
f 58/73/16 81/72/16 57/71/16
f 83/74/16 66/69/16 82/68/16
f 58/73/16 80/75/16 81/72/16
f 84/76/16 66/69/16 83/74/16
f 58/73/16 79/77/16 80/75/16
f 85/78/16 66/69/16 84/76/16
f 86/79/16 66/69/16 85/78/16
f 58/73/16 78/80/16 79/77/16
f 87/81/16 66/69/16 86/79/16
f 58/73/16 77/82/16 78/80/16
f 88/83/16 66/69/16 87/81/16
f 58/73/16 76/84/16 77/82/16
f 89/85/16 66/69/16 88/83/16
f 90/86/16 66/69/16 89/85/16
f 58/73/16 75/87/16 76/84/16
f 91/88/16 66/69/16 90/86/16
f 58/73/16 74/89/16 75/87/16
f 92/90/16 66/69/16 91/88/16
f 58/73/16 73/91/16 74/89/16
f 93/92/16 66/69/16 92/90/16
f 58/73/16 72/93/16 73/91/16
f 94/94/16 66/69/16 93/92/16
f 58/73/16 71/95/16 72/93/16
f 58/73/16 70/96/16 71/95/16
f 67/97/16 66/69/16 94/94/16
f 58/73/16 69/98/16 70/96/16
f 58/73/16 68/99/16 69/98/16
f 68/99/16 66/69/16 67/97/16
f 58/73/16 66/69/16 68/99/16
f 59/100/17 66/69/17 58/73/17
f 60/101/16 66/69/16 59/100/16
f 60/101/16 65/102/16 66/69/16
f 60/101/18 64/103/18 65/102/18
f 61/104/16 63/105/16 64/103/16
f 60/101/15 61/104/15 64/103/15
f 62/106/16 63/105/16 61/104/16
s 1
f 96/107/19 98/108/20 97/109/20 95/110/19
f 98/108/20 100/111/20 99/112/20 97/109/20
f 100/111/20 102/113/20 101/114/20 99/112/20
f 102/113/20 104/115/21 103/116/21 101/114/20
f 104/115/21 106/117/21 105/118/21 103/116/21
f 106/117/21 108/119/21 107/120/21 105/118/21
f 108/119/21 110/121/22 109/122/22 107/120/21
f 110/121/22 112/123/22 111/124/22 109/122/22
f 112/123/22 114/125/22 113/126/22 111/124/22
f 114/125/22 116/127/23 115/128/23 113/126/22
f 116/127/23 96/129/19 95/130/19 115/128/23
f 118/131/24 120/132/25 119/133/25 117/134/24
f 120/132/25 122/135/26 121/136/26 119/133/25
f 122/135/26 124/137/27 123/138/27 121/136/26
f 124/137/27 126/139/28 125/140/28 123/138/27
f 126/139/28 128/141/29 127/142/29 125/140/28
f 128/141/29 130/143/30 129/144/30 127/142/29
f 130/143/30 132/145/31 131/146/31 129/144/30
f 132/145/31 134/147/32 133/148/32 131/146/31
f 134/147/32 136/149/33 135/150/33 133/148/32
f 136/149/33 138/151/34 137/152/34 135/150/33
f 138/151/34 140/153/35 139/154/35 137/152/34
f 140/153/35 142/155/36 141/156/36 139/154/35
f 142/155/36 144/157/37 143/158/37 141/156/36
f 144/157/37 146/159/38 145/160/38 143/158/37
f 146/159/38 148/161/39 147/162/39 145/160/38
f 148/161/39 150/163/40 149/164/40 147/162/39
f 150/163/40 152/165/41 151/166/41 149/164/40
f 152/165/41 154/167/42 153/168/42 151/166/41
f 154/167/42 156/169/43 155/170/43 153/168/42
f 156/169/43 158/171/44 157/172/44 155/170/43
f 158/171/44 160/173/45 159/174/45 157/172/44
f 160/173/45 162/175/46 161/176/46 159/174/45
f 162/175/46 164/177/47 163/178/47 161/176/46
f 164/177/47 166/179/48 165/180/48 163/178/47
f 166/179/48 168/181/49 167/182/49 165/180/48
f 168/181/49 170/183/50 169/184/50 167/182/49
f 170/183/50 172/185/51 171/186/51 169/184/50
f 172/185/51 118/187/24 117/188/24 171/186/51
