# Blender MTL File: 'buttons.blend'
# Material Count: 3

newmtl Button
Ns 323.999994
Ka 1.000000 1.000000 1.000000
Kd 0.012217 0.012217 0.012217
Ks 0.500000 0.500000 0.500000
Ke 0.000000 0.000000 0.000000
Ni 1.450000
d 1.000000
illum 2

newmtl Button2
Ns 323.999994
Ka 1.000000 1.000000 1.000000
Kd 0.184469 0.184469 0.184469
Ks 0.500000 0.500000 0.500000
Ke 0.000000 0.000000 0.000000
Ni 1.450000
d 1.000000
illum 2

newmtl Number
Ns 225.000000
Ka 1.000000 1.000000 1.000000
Kd 0.000778 0.689484 0.800000
Ks 0.500000 0.500000 0.500000
Ke 0.000000 0.000000 0.000000
Ni 1.450000
d 1.000000
illum 2
