# Blender v2.90.1 OBJ File: 'buttons.blend'
# www.blender.org
mtllib button0.mtl
o Cube
v 1.088764 -0.010000 -1.242224
v 1.088764 -0.510000 -1.242224
v 1.088764 -0.010000 1.157776
v 1.088764 -0.510000 1.157776
v -1.311236 -0.010000 -1.242224
v -1.311236 -0.510000 -1.242224
v -1.311236 -0.010000 1.157776
v -1.311236 -0.510000 1.157776
vt 0.625000 0.500000
vt 0.875000 0.500000
vt 0.875000 0.750000
vt 0.625000 0.750000
vt 0.375000 0.750000
vt 0.625000 1.000000
vt 0.375000 1.000000
vt 0.375000 0.000000
vt 0.625000 0.000000
vt 0.625000 0.250000
vt 0.375000 0.250000
vt 0.125000 0.500000
vt 0.375000 0.500000
vt 0.125000 0.750000
vn 0.0000 1.0000 0.0000
vn 0.0000 0.0000 1.0000
vn -1.0000 0.0000 0.0000
vn 0.0000 -1.0000 0.0000
vn 1.0000 0.0000 0.0000
vn 0.0000 0.0000 -1.0000
usemtl Button2
s off
f 1/1/1 5/2/1 7/3/1 3/4/1
f 4/5/2 3/4/2 7/6/2 8/7/2
f 8/8/3 7/9/3 5/10/3 6/11/3
f 6/12/4 2/13/4 4/5/4 8/14/4
f 2/13/5 1/1/5 3/4/5 4/5/5
f 6/11/6 5/10/6 1/1/6 2/13/6
o Cube.001
v 0.888764 0.500000 -1.042224
v 0.888764 -0.500000 -1.042224
v 0.888764 0.500000 0.957776
v 0.888764 -0.500000 0.957776
v -1.111236 0.500000 -1.042224
v -1.111236 -0.500000 -1.042224
v -1.111236 0.500000 0.957776
v -1.111236 -0.500000 0.957776
vt 0.625000 0.500000
vt 0.875000 0.500000
vt 0.875000 0.750000
vt 0.625000 0.750000
vt 0.375000 0.750000
vt 0.625000 1.000000
vt 0.375000 1.000000
vt 0.375000 0.000000
vt 0.625000 0.000000
vt 0.625000 0.250000
vt 0.375000 0.250000
vt 0.125000 0.500000
vt 0.375000 0.500000
vt 0.125000 0.750000
vn 0.0000 1.0000 0.0000
vn 0.0000 0.0000 1.0000
vn -1.0000 0.0000 0.0000
vn 0.0000 -1.0000 0.0000
vn 1.0000 0.0000 0.0000
vn 0.0000 0.0000 -1.0000
usemtl Button
s off
f 9/15/7 13/16/7 15/17/7 11/18/7
f 12/19/8 11/18/8 15/20/8 16/21/8
f 16/22/9 15/23/9 13/24/9 14/25/9
f 14/26/10 10/27/10 12/19/10 16/28/10
f 10/27/11 9/15/11 11/18/11 12/19/11
f 14/25/12 13/24/12 9/15/12 10/27/12
o Text
v -0.272794 0.690054 -0.010573
v -0.270916 0.690054 -0.084630
v -0.265281 0.690054 -0.152247
v -0.255889 0.690054 -0.213425
v -0.242742 0.690054 -0.268163
v -0.225837 0.690054 -0.316461
v -0.205177 0.690054 -0.358319
v -0.180759 0.690054 -0.393738
v -0.152585 0.690054 -0.422717
v -0.120655 0.690054 -0.445256
v -0.084968 0.690054 -0.461355
v -0.045525 0.690054 -0.471015
v -0.002325 0.690054 -0.474235
v 0.040386 0.690054 -0.471032
v 0.079382 0.690054 -0.461423
v 0.114664 0.690054 -0.445409
v 0.146232 0.690054 -0.422989
v 0.174087 0.690054 -0.394164
v 0.198227 0.690054 -0.358933
v 0.218654 0.690054 -0.317296
v 0.235367 0.690054 -0.269253
v 0.248365 0.690054 -0.214805
v 0.257650 0.690054 -0.153951
v 0.263221 0.690054 -0.086692
v 0.265078 0.690054 -0.013026
v 0.263200 0.690054 0.062206
v 0.257565 0.690054 0.130897
v 0.248174 0.690054 0.193045
v 0.235026 0.690054 0.248652
v 0.218122 0.690054 0.297717
v 0.197461 0.690054 0.340239
v 0.173043 0.690054 0.376220
v 0.144870 0.690054 0.405659
v 0.112939 0.690054 0.428556
v 0.077252 0.690054 0.444911
v 0.037809 0.690054 0.454724
v -0.005391 0.690054 0.457995
v -0.048101 0.690054 0.454741
v -0.087098 0.690054 0.444979
v -0.122380 0.690054 0.428709
v -0.153948 0.690054 0.405932
v -0.181803 0.690054 0.376646
v -0.205943 0.690054 0.340853
v -0.226370 0.690054 0.298551
v -0.243082 0.690054 0.249742
v -0.256081 0.690054 0.194425
v -0.265366 0.690054 0.132600
v -0.270937 0.690054 0.064268
v 0.128923 0.690054 -0.327654
v 0.121359 0.690054 -0.339997
v 0.113182 0.690054 -0.351266
v 0.104391 0.690054 -0.361462
v 0.094987 0.690054 -0.370585
v 0.084970 0.690054 -0.378635
v 0.074339 0.690054 -0.385611
v 0.063095 0.690054 -0.391515
v 0.051238 0.690054 -0.396344
v 0.038767 0.690054 -0.400101
v 0.025683 0.690054 -0.402784
v 0.011986 0.690054 -0.404394
v -0.002325 0.690054 -0.404931
v -0.018888 0.690054 -0.404228
v -0.034643 0.690054 -0.402120
v -0.049588 0.690054 -0.398606
v -0.063724 0.690054 -0.393687
v -0.077050 0.690054 -0.387362
v -0.089568 0.690054 -0.379632
v -0.101276 0.690054 -0.370496
v -0.112175 0.690054 -0.359955
v -0.122265 0.690054 -0.348008
v -0.131545 0.690054 -0.334656
v -0.140017 0.690054 -0.319898
v -0.147679 0.690054 -0.303735
v -0.154242 0.690054 -0.287286
v -0.160235 0.690054 -0.269424
v -0.165656 0.690054 -0.250147
v -0.170508 0.690054 -0.229456
v -0.174788 0.690054 -0.207352
v -0.178498 0.690054 -0.183833
v -0.181637 0.690054 -0.158900
v -0.184205 0.690054 -0.132553
v -0.186202 0.690054 -0.104793
v -0.187629 0.690054 -0.075618
v -0.188485 0.690054 -0.045029
v -0.188771 0.690054 -0.013026
v -0.188413 0.690054 0.023781
v -0.187339 0.690054 0.058765
v -0.185551 0.690054 0.091926
v -0.183046 0.690054 0.123264
v -0.179826 0.690054 0.152780
v -0.175891 0.690054 0.180473
v -0.171240 0.690054 0.206342
v -0.165874 0.690054 0.230389
v -0.159792 0.690054 0.252613
v -0.152994 0.690054 0.273014
v -0.145481 0.690054 0.291592
v -0.137253 0.690054 0.308347
v -0.129684 0.690054 0.321180
v -0.121494 0.690054 0.332897
v -0.112682 0.690054 0.343498
v -0.103248 0.690054 0.352983
v -0.093192 0.690054 0.361352
v -0.082515 0.690054 0.368605
v -0.071215 0.690054 0.374742
v -0.059294 0.690054 0.379764
v -0.046751 0.690054 0.383669
v -0.033586 0.690054 0.386459
v -0.019800 0.690054 0.388133
v -0.005391 0.690054 0.388691
v 0.011177 0.690054 0.387954
v 0.026944 0.690054 0.385744
v 0.041910 0.690054 0.382059
v 0.056076 0.690054 0.376902
v 0.069441 0.690054 0.370270
v 0.082005 0.690054 0.362165
v 0.093769 0.690054 0.352587
v 0.104732 0.690054 0.341534
v 0.114894 0.690054 0.329008
v 0.124256 0.690054 0.315009
v 0.132816 0.690054 0.299535
v 0.140576 0.690054 0.282588
v 0.147042 0.690054 0.265740
v 0.152945 0.690054 0.247494
v 0.158286 0.690054 0.227851
v 0.163064 0.690054 0.206811
v 0.167281 0.690054 0.184374
v 0.170935 0.690054 0.160540
v 0.174027 0.690054 0.135309
v 0.176557 0.690054 0.108681
v 0.178525 0.690054 0.080656
v 0.179930 0.690054 0.051235
v 0.180774 0.690054 0.020416
v 0.181055 0.690054 -0.011800
v 0.180693 0.690054 -0.048194
v 0.179607 0.690054 -0.082756
v 0.177796 0.690054 -0.115487
v 0.175262 0.690054 -0.146387
v 0.172004 0.690054 -0.175455
v 0.168022 0.690054 -0.202692
v 0.163316 0.690054 -0.228098
v 0.157885 0.690054 -0.251672
v 0.151731 0.690054 -0.273414
v 0.144852 0.690054 -0.293326
v 0.137250 0.690054 -0.311405
v -0.272794 0.370054 -0.010573
v -0.270916 0.370054 -0.084630
v -0.265281 0.370054 -0.152247
v -0.255889 0.370054 -0.213425
v -0.242742 0.370054 -0.268163
v -0.225837 0.370054 -0.316461
v -0.205177 0.370054 -0.358319
v -0.180759 0.370054 -0.393738
v -0.152585 0.370054 -0.422717
v -0.120655 0.370054 -0.445256
v -0.084968 0.370054 -0.461355
v -0.045525 0.370054 -0.471015
v -0.002325 0.370054 -0.474235
v 0.040386 0.370054 -0.471032
v 0.079382 0.370054 -0.461423
v 0.114664 0.370054 -0.445409
v 0.146232 0.370054 -0.422989
v 0.174087 0.370054 -0.394164
v 0.198227 0.370054 -0.358933
v 0.218654 0.370054 -0.317296
v 0.235367 0.370054 -0.269253
v 0.248365 0.370054 -0.214805
v 0.257650 0.370054 -0.153951
v 0.263221 0.370054 -0.086692
v 0.265078 0.370054 -0.013026
v 0.263200 0.370054 0.062206
v 0.257565 0.370054 0.130897
v 0.248174 0.370054 0.193045
v 0.235026 0.370054 0.248652
v 0.218122 0.370054 0.297717
v 0.197461 0.370054 0.340239
v 0.173043 0.370054 0.376220
v 0.144870 0.370054 0.405659
v 0.112939 0.370054 0.428556
v 0.077252 0.370054 0.444911
v 0.037809 0.370054 0.454724
v -0.005391 0.370054 0.457995
v -0.048101 0.370054 0.454741
v -0.087098 0.370054 0.444979
v -0.122380 0.370054 0.428709
v -0.153948 0.370054 0.405932
v -0.181803 0.370054 0.376646
v -0.205943 0.370054 0.340853
v -0.226370 0.370054 0.298551
v -0.243082 0.370054 0.249742
v -0.256081 0.370054 0.194425
v -0.265366 0.370054 0.132600
v -0.270937 0.370054 0.064268
v 0.128923 0.370054 -0.327654
v 0.121359 0.370054 -0.339997
v 0.113182 0.370054 -0.351266
v 0.104391 0.370054 -0.361462
v 0.094987 0.370054 -0.370585
v 0.084970 0.370054 -0.378635
v 0.074339 0.370054 -0.385611
v 0.063095 0.370054 -0.391515
v 0.051238 0.370054 -0.396344
v 0.038767 0.370054 -0.400101
v 0.025683 0.370054 -0.402784
v 0.011986 0.370054 -0.404394
v -0.002325 0.370054 -0.404931
v -0.018888 0.370054 -0.404228
v -0.034643 0.370054 -0.402120
v -0.049588 0.370054 -0.398606
v -0.063724 0.370054 -0.393687
v -0.077050 0.370054 -0.387362
v -0.089568 0.370054 -0.379632
v -0.101276 0.370054 -0.370496
v -0.112175 0.370054 -0.359955
v -0.122265 0.370054 -0.348008
v -0.131545 0.370054 -0.334656
v -0.140017 0.370054 -0.319898
v -0.147679 0.370054 -0.303735
v -0.154242 0.370054 -0.287286
v -0.160235 0.370054 -0.269424
v -0.165656 0.370054 -0.250147
v -0.170508 0.370054 -0.229456
v -0.174788 0.370054 -0.207352
v -0.178498 0.370054 -0.183833
v -0.181637 0.370054 -0.158900
v -0.184205 0.370054 -0.132553
v -0.186202 0.370054 -0.104793
v -0.187629 0.370054 -0.075618
v -0.188485 0.370054 -0.045029
v -0.188771 0.370054 -0.013026
v -0.188413 0.370054 0.023781
v -0.187339 0.370054 0.058765
v -0.185551 0.370054 0.091926
v -0.183046 0.370054 0.123264
v -0.179826 0.370054 0.152780
v -0.175891 0.370054 0.180473
v -0.171240 0.370054 0.206342
v -0.165874 0.370054 0.230389
v -0.159792 0.370054 0.252613
v -0.152994 0.370054 0.273014
v -0.145481 0.370054 0.291592
v -0.137253 0.370054 0.308347
v -0.129684 0.370054 0.321180
v -0.121494 0.370054 0.332897
v -0.112682 0.370054 0.343498
v -0.103248 0.370054 0.352983
v -0.093192 0.370054 0.361352
v -0.082515 0.370054 0.368605
v -0.071215 0.370054 0.374742
v -0.059294 0.370054 0.379764
v -0.046751 0.370054 0.383669
v -0.033586 0.370054 0.386459
v -0.019800 0.370054 0.388133
v -0.005391 0.370054 0.388691
v 0.011177 0.370054 0.387954
v 0.026944 0.370054 0.385744
v 0.041910 0.370054 0.382059
v 0.056076 0.370054 0.376902
v 0.069441 0.370054 0.370270
v 0.082005 0.370054 0.362165
v 0.093769 0.370054 0.352587
v 0.104732 0.370054 0.341534
v 0.114894 0.370054 0.329008
v 0.124256 0.370054 0.315009
v 0.132816 0.370054 0.299535
v 0.140576 0.370054 0.282588
v 0.147042 0.370054 0.265740
v 0.152945 0.370054 0.247494
v 0.158286 0.370054 0.227851
v 0.163064 0.370054 0.206811
v 0.167281 0.370054 0.184374
v 0.170935 0.370054 0.160540
v 0.174027 0.370054 0.135309
v 0.176557 0.370054 0.108681
v 0.178525 0.370054 0.080656
v 0.179930 0.370054 0.051235
v 0.180774 0.370054 0.020416
v 0.181055 0.370054 -0.011800
v 0.180693 0.370054 -0.048194
v 0.179607 0.370054 -0.082756
v 0.177796 0.370054 -0.115487
v 0.175262 0.370054 -0.146387
v 0.172004 0.370054 -0.175455
v 0.168022 0.370054 -0.202692
v 0.163316 0.370054 -0.228098
v 0.157885 0.370054 -0.251672
v 0.151731 0.370054 -0.273414
v 0.144852 0.370054 -0.293326
v 0.137250 0.370054 -0.311405
v -0.272794 0.370054 -0.010573
v -0.272794 0.690054 -0.010573
v -0.270916 0.370054 -0.084630
v -0.270916 0.690054 -0.084630
v -0.265281 0.370054 -0.152247
v -0.265281 0.690054 -0.152247
v -0.255889 0.370054 -0.213425
v -0.255889 0.690054 -0.213425
v -0.242742 0.370054 -0.268163
v -0.242742 0.690054 -0.268163
v -0.225837 0.370054 -0.316461
v -0.225837 0.690054 -0.316461
v -0.205177 0.370054 -0.358319
v -0.205177 0.690054 -0.358319
v -0.180759 0.370054 -0.393738
v -0.180759 0.690054 -0.393738
v -0.152585 0.370054 -0.422717
v -0.152585 0.690054 -0.422717
v -0.120655 0.370054 -0.445256
v -0.120655 0.690054 -0.445256
v -0.084968 0.370054 -0.461355
v -0.084968 0.690054 -0.461355
v -0.045525 0.370054 -0.471015
v -0.045525 0.690054 -0.471015
v -0.002325 0.370054 -0.474235
v -0.002325 0.690054 -0.474235
v 0.040386 0.370054 -0.471032
v 0.040386 0.690054 -0.471032
v 0.079382 0.370054 -0.461423
v 0.079382 0.690054 -0.461423
v 0.114664 0.370054 -0.445409
v 0.114664 0.690054 -0.445409
v 0.146232 0.370054 -0.422989
v 0.146232 0.690054 -0.422989
v 0.174087 0.370054 -0.394164
v 0.174087 0.690054 -0.394164
v 0.198227 0.370054 -0.358933
v 0.198227 0.690054 -0.358933
v 0.218654 0.370054 -0.317296
v 0.218654 0.690054 -0.317296
v 0.235367 0.370054 -0.269253
v 0.235367 0.690054 -0.269253
v 0.248365 0.370054 -0.214805
v 0.248365 0.690054 -0.214805
v 0.257650 0.370054 -0.153951
v 0.257650 0.690054 -0.153951
v 0.263221 0.370054 -0.086692
v 0.263221 0.690054 -0.086692
v 0.265078 0.370054 -0.013026
v 0.265078 0.690054 -0.013026
v 0.263200 0.370054 0.062206
v 0.263200 0.690054 0.062206
v 0.257565 0.370054 0.130897
v 0.257565 0.690054 0.130897
v 0.248174 0.370054 0.193045
v 0.248174 0.690054 0.193045
v 0.235026 0.370054 0.248652
v 0.235026 0.690054 0.248652
v 0.218122 0.370054 0.297717
v 0.218122 0.690054 0.297717
v 0.197461 0.370054 0.340239
v 0.197461 0.690054 0.340239
v 0.173043 0.370054 0.376220
v 0.173043 0.690054 0.376220
v 0.144870 0.370054 0.405659
v 0.144870 0.690054 0.405659
v 0.112939 0.370054 0.428556
v 0.112939 0.690054 0.428556
v 0.077252 0.370054 0.444911
v 0.077252 0.690054 0.444911
v 0.037809 0.370054 0.454724
v 0.037809 0.690054 0.454724
v -0.005391 0.370054 0.457995
v -0.005391 0.690054 0.457995
v -0.048101 0.370054 0.454741
v -0.048101 0.690054 0.454741
v -0.087098 0.370054 0.444979
v -0.087098 0.690054 0.444979
v -0.122380 0.370054 0.428709
v -0.122380 0.690054 0.428709
v -0.153948 0.370054 0.405932
v -0.153948 0.690054 0.405932
v -0.181803 0.370054 0.376646
v -0.181803 0.690054 0.376646
v -0.205943 0.370054 0.340853
v -0.205943 0.690054 0.340853
v -0.226370 0.370054 0.298551
v -0.226370 0.690054 0.298551
v -0.243082 0.370054 0.249742
v -0.243082 0.690054 0.249742
v -0.256081 0.370054 0.194425
v -0.256081 0.690054 0.194425
v -0.265366 0.370054 0.132600
v -0.265366 0.690054 0.132600
v -0.270937 0.370054 0.064268
v -0.270937 0.690054 0.064268
v 0.128923 0.370054 -0.327654
v 0.128923 0.690054 -0.327654
v 0.121359 0.370054 -0.339997
v 0.121359 0.690054 -0.339997
v 0.113182 0.370054 -0.351266
v 0.113182 0.690054 -0.351266
v 0.104391 0.370054 -0.361462
v 0.104391 0.690054 -0.361462
v 0.094987 0.370054 -0.370585
v 0.094987 0.690054 -0.370585
v 0.084970 0.370054 -0.378635
v 0.084970 0.690054 -0.378635
v 0.074339 0.370054 -0.385611
v 0.074339 0.690054 -0.385611
v 0.063095 0.370054 -0.391515
v 0.063095 0.690054 -0.391515
v 0.051238 0.370054 -0.396344
v 0.051238 0.690054 -0.396344
v 0.038767 0.370054 -0.400101
v 0.038767 0.690054 -0.400101
v 0.025683 0.370054 -0.402784
v 0.025683 0.690054 -0.402784
v 0.011986 0.370054 -0.404394
v 0.011986 0.690054 -0.404394
v -0.002325 0.370054 -0.404931
v -0.002325 0.690054 -0.404931
v -0.018888 0.370054 -0.404228
v -0.018888 0.690054 -0.404228
v -0.034643 0.370054 -0.402120
v -0.034643 0.690054 -0.402120
v -0.049588 0.370054 -0.398606
v -0.049588 0.690054 -0.398606
v -0.063724 0.370054 -0.393687
v -0.063724 0.690054 -0.393687
v -0.077050 0.370054 -0.387362
v -0.077050 0.690054 -0.387362
v -0.089568 0.370054 -0.379632
v -0.089568 0.690054 -0.379632
v -0.101276 0.370054 -0.370496
v -0.101276 0.690054 -0.370496
v -0.112175 0.370054 -0.359955
v -0.112175 0.690054 -0.359955
v -0.122265 0.370054 -0.348008
v -0.122265 0.690054 -0.348008
v -0.131545 0.370054 -0.334656
v -0.131545 0.690054 -0.334656
v -0.140017 0.370054 -0.319898
v -0.140017 0.690054 -0.319898
v -0.147679 0.370054 -0.303735
v -0.147679 0.690054 -0.303735
v -0.154242 0.370054 -0.287286
v -0.154242 0.690054 -0.287286
v -0.160235 0.370054 -0.269424
v -0.160235 0.690054 -0.269424
v -0.165656 0.370054 -0.250147
v -0.165656 0.690054 -0.250147
v -0.170508 0.370054 -0.229456
v -0.170508 0.690054 -0.229456
v -0.174788 0.370054 -0.207352
v -0.174788 0.690054 -0.207352
v -0.178498 0.370054 -0.183833
v -0.178498 0.690054 -0.183833
v -0.181637 0.370054 -0.158900
v -0.181637 0.690054 -0.158900
v -0.184205 0.370054 -0.132553
v -0.184205 0.690054 -0.132553
v -0.186202 0.370054 -0.104793
v -0.186202 0.690054 -0.104793
v -0.187629 0.370054 -0.075618
v -0.187629 0.690054 -0.075618
v -0.188485 0.370054 -0.045029
v -0.188485 0.690054 -0.045029
v -0.188771 0.370054 -0.013026
v -0.188771 0.690054 -0.013026
v -0.188413 0.370054 0.023781
v -0.188413 0.690054 0.023781
v -0.187339 0.370054 0.058765
v -0.187339 0.690054 0.058765
v -0.185551 0.370054 0.091926
v -0.185551 0.690054 0.091926
v -0.183046 0.370054 0.123264
v -0.183046 0.690054 0.123264
v -0.179826 0.370054 0.152780
v -0.179826 0.690054 0.152780
v -0.175891 0.370054 0.180473
v -0.175891 0.690054 0.180473
v -0.171240 0.370054 0.206342
v -0.171240 0.690054 0.206342
v -0.165874 0.370054 0.230389
v -0.165874 0.690054 0.230389
v -0.159792 0.370054 0.252613
v -0.159792 0.690054 0.252613
v -0.152994 0.370054 0.273014
v -0.152994 0.690054 0.273014
v -0.145481 0.370054 0.291592
v -0.145481 0.690054 0.291592
v -0.137253 0.370054 0.308347
v -0.137253 0.690054 0.308347
v -0.129684 0.370054 0.321180
v -0.129684 0.690054 0.321180
v -0.121494 0.370054 0.332897
v -0.121494 0.690054 0.332897
v -0.112682 0.370054 0.343498
v -0.112682 0.690054 0.343498
v -0.103248 0.370054 0.352983
v -0.103248 0.690054 0.352983
v -0.093192 0.370054 0.361352
v -0.093192 0.690054 0.361352
v -0.082515 0.370054 0.368605
v -0.082515 0.690054 0.368605
v -0.071215 0.370054 0.374742
v -0.071215 0.690054 0.374742
v -0.059294 0.370054 0.379764
v -0.059294 0.690054 0.379764
v -0.046751 0.370054 0.383669
v -0.046751 0.690054 0.383669
v -0.033586 0.370054 0.386459
v -0.033586 0.690054 0.386459
v -0.019800 0.370054 0.388133
v -0.019800 0.690054 0.388133
v -0.005391 0.370054 0.388691
v -0.005391 0.690054 0.388691
v 0.011177 0.370054 0.387954
v 0.011177 0.690054 0.387954
v 0.026944 0.370054 0.385744
v 0.026944 0.690054 0.385744
v 0.041910 0.370054 0.382059
v 0.041910 0.690054 0.382059
v 0.056076 0.370054 0.376902
v 0.056076 0.690054 0.376902
v 0.069441 0.370054 0.370270
v 0.069441 0.690054 0.370270
v 0.082005 0.370054 0.362165
v 0.082005 0.690054 0.362165
v 0.093769 0.370054 0.352587
v 0.093769 0.690054 0.352587
v 0.104732 0.370054 0.341534
v 0.104732 0.690054 0.341534
v 0.114894 0.370054 0.329008
v 0.114894 0.690054 0.329008
v 0.124256 0.370054 0.315009
v 0.124256 0.690054 0.315009
v 0.132816 0.370054 0.299535
v 0.132816 0.690054 0.299535
v 0.140576 0.370054 0.282588
v 0.140576 0.690054 0.282588
v 0.147042 0.370054 0.265740
v 0.147042 0.690054 0.265740
v 0.152945 0.370054 0.247494
v 0.152945 0.690054 0.247494
v 0.158286 0.370054 0.227851
v 0.158286 0.690054 0.227851
v 0.163064 0.370054 0.206811
v 0.163064 0.690054 0.206811
v 0.167281 0.370054 0.184374
v 0.167281 0.690054 0.184374
v 0.170935 0.370054 0.160540
v 0.170935 0.690054 0.160540
v 0.174027 0.370054 0.135309
v 0.174027 0.690054 0.135309
v 0.176557 0.370054 0.108681
v 0.176557 0.690054 0.108681
v 0.178525 0.370054 0.080656
v 0.178525 0.690054 0.080656
v 0.179930 0.370054 0.051235
v 0.179930 0.690054 0.051235
v 0.180774 0.370054 0.020416
v 0.180774 0.690054 0.020416
v 0.181055 0.370054 -0.011800
v 0.181055 0.690054 -0.011800
v 0.180693 0.370054 -0.048194
v 0.180693 0.690054 -0.048194
v 0.179607 0.370054 -0.082756
v 0.179607 0.690054 -0.082756
v 0.177796 0.370054 -0.115487
v 0.177796 0.690054 -0.115487
v 0.175262 0.370054 -0.146387
v 0.175262 0.690054 -0.146387
v 0.172004 0.370054 -0.175455
v 0.172004 0.690054 -0.175455
v 0.168022 0.370054 -0.202692
v 0.168022 0.690054 -0.202692
v 0.163316 0.370054 -0.228098
v 0.163316 0.690054 -0.228098
v 0.157885 0.370054 -0.251672
v 0.157885 0.690054 -0.251672
v 0.151731 0.370054 -0.273414
v 0.151731 0.690054 -0.273414
v 0.144852 0.370054 -0.293326
v 0.144852 0.690054 -0.293326
v 0.137250 0.370054 -0.311405
v 0.137250 0.690054 -0.311405
vt 0.076923 0.000000
vt 0.090909 0.000000
vt 0.083916 0.000000
vt 0.097902 0.000000
vt 0.069930 0.000000
vt 0.104895 0.000000
vt 0.062937 0.000000
vt 0.111888 0.000000
vt 0.055944 0.000000
vt 0.118881 0.000000
vt 0.048951 0.000000
vt 0.426573 0.000000
vt 0.419580 0.000000
vt 0.412587 0.000000
vt 0.405594 0.000000
vt 0.433566 0.000000
vt 0.398601 0.000000
vt 0.440559 0.000000
vt 0.391608 0.000000
vt 0.447552 0.000000
vt 0.384615 0.000000
vt 0.125874 0.000000
vt 0.041958 0.000000
vt 0.454545 0.000000
vt 0.377622 0.000000
vt 0.461538 0.000000
vt 0.370629 0.000000
vt 0.468531 0.000000
vt 0.363636 0.000000
vt 0.356643 0.000000
vt 0.475524 0.000000
vt 0.349650 0.000000
vt 0.482517 0.000000
vt 0.132867 0.000000
vt 0.034965 0.000000
vt 0.342657 0.000000
vt 0.489510 0.000000
vt 0.335664 0.000000
vt 0.496504 0.000000
vt 1.000000 0.000000
vt 0.503497 0.000000
vt 0.139860 0.000000
vt 0.027972 0.000000
vt 0.993007 0.000000
vt 0.510490 0.000000
vt 0.986014 0.000000
vt 0.517483 0.000000
vt 0.979021 0.000000
vt 0.524476 0.000000
vt 0.146853 0.000000
vt 0.020979 0.000000
vt 0.972028 0.000000
vt 0.531469 0.000000
vt 0.538462 0.000000
vt 0.965035 0.000000
vt 0.153846 0.000000
vt 0.013986 0.000000
vt 0.545455 0.000000
vt 0.958042 0.000000
vt 0.552448 0.000000
vt 0.951049 0.000000
vt 0.559441 0.000000
vt 0.160839 0.000000
vt 0.006993 0.000000
vt 0.944056 0.000000
vt 0.566434 0.000000
vt 0.937063 0.000000
vt 0.573427 0.000000
vt 0.167832 0.000000
vt 0.000000 0.000000
vt 0.930070 0.000000
vt 0.580420 0.000000
vt 0.923077 0.000000
vt 0.587413 0.000000
vt 0.594406 0.000000
vt 0.174825 0.000000
vt 0.916084 0.000000
vt 0.328671 0.000000
vt 0.909091 0.000000
vt 0.601399 0.000000
vt 0.902098 0.000000
vt 0.608392 0.000000
vt 0.181818 0.000000
vt 0.321678 0.000000
vt 0.895105 0.000000
vt 0.615385 0.000000
vt 0.888112 0.000000
vt 0.622378 0.000000
vt 0.188811 0.000000
vt 0.314685 0.000000
vt 0.881119 0.000000
vt 0.629371 0.000000
vt 0.874126 0.000000
vt 0.636364 0.000000
vt 0.867133 0.000000
vt 0.195804 0.000000
vt 0.307692 0.000000
vt 0.643357 0.000000
vt 0.860140 0.000000
vt 0.853147 0.000000
vt 0.650350 0.000000
vt 0.846154 0.000000
vt 0.202797 0.000000
vt 0.300699 0.000000
vt 0.657343 0.000000
vt 0.839161 0.000000
vt 0.664336 0.000000
vt 0.832168 0.000000
vt 0.671329 0.000000
vt 0.209790 0.000000
vt 0.293706 0.000000
vt 0.825175 0.000000
vt 0.678322 0.000000
vt 0.818182 0.000000
vt 0.685315 0.000000
vt 0.811189 0.000000
vt 0.692308 0.000000
vt 0.216783 0.000000
vt 0.286713 0.000000
vt 0.804196 0.000000
vt 0.699301 0.000000
vt 0.797203 0.000000
vt 0.706294 0.000000
vt 0.713287 0.000000
vt 0.790210 0.000000
vt 0.720280 0.000000
vt 0.783217 0.000000
vt 0.727273 0.000000
vt 0.223776 0.000000
vt 0.279720 0.000000
vt 0.776224 0.000000
vt 0.734266 0.000000
vt 0.769231 0.000000
vt 0.741259 0.000000
vt 0.762238 0.000000
vt 0.748252 0.000000
vt 0.755245 0.000000
vt 0.230769 0.000000
vt 0.272727 0.000000
vt 0.237762 0.000000
vt 0.265734 0.000000
vt 0.244755 0.000000
vt 0.258741 0.000000
vt 0.251748 0.000000
vt 0.090909 0.000000
vt 0.076923 0.000000
vt 0.083916 0.000000
vt 0.097902 0.000000
vt 0.069930 0.000000
vt 0.104895 0.000000
vt 0.062937 0.000000
vt 0.111888 0.000000
vt 0.055944 0.000000
vt 0.118881 0.000000
vt 0.426573 0.000000
vt 0.048951 0.000000
vt 0.419580 0.000000
vt 0.412587 0.000000
vt 0.405594 0.000000
vt 0.433566 0.000000
vt 0.398601 0.000000
vt 0.440559 0.000000
vt 0.391608 0.000000
vt 0.447552 0.000000
vt 0.384615 0.000000
vt 0.125874 0.000000
vt 0.041958 0.000000
vt 0.454545 0.000000
vt 0.377622 0.000000
vt 0.461538 0.000000
vt 0.370629 0.000000
vt 0.468531 0.000000
vt 0.363636 0.000000
vt 0.356643 0.000000
vt 0.475524 0.000000
vt 0.349650 0.000000
vt 0.482517 0.000000
vt 0.132867 0.000000
vt 0.034965 0.000000
vt 0.342657 0.000000
vt 0.489510 0.000000
vt 0.335664 0.000000
vt 0.496504 0.000000
vt 1.000000 0.000000
vt 0.503497 0.000000
vt 0.139860 0.000000
vt 0.027972 0.000000
vt 0.993007 0.000000
vt 0.510490 0.000000
vt 0.986014 0.000000
vt 0.517483 0.000000
vt 0.979021 0.000000
vt 0.524476 0.000000
vt 0.146853 0.000000
vt 0.020979 0.000000
vt 0.972028 0.000000
vt 0.531469 0.000000
vt 0.538462 0.000000
vt 0.965035 0.000000
vt 0.153846 0.000000
vt 0.013986 0.000000
vt 0.545455 0.000000
vt 0.958042 0.000000
vt 0.552448 0.000000
vt 0.951049 0.000000
vt 0.559441 0.000000
vt 0.160839 0.000000
vt 0.006993 0.000000
vt 0.944056 0.000000
vt 0.566434 0.000000
vt 0.937063 0.000000
vt 0.573427 0.000000
vt 0.167832 0.000000
vt 0.000000 0.000000
vt 0.930070 0.000000
vt 0.580420 0.000000
vt 0.923077 0.000000
vt 0.587413 0.000000
vt 0.594406 0.000000
vt 0.174825 0.000000
vt 0.916084 0.000000
vt 0.328671 0.000000
vt 0.909091 0.000000
vt 0.601399 0.000000
vt 0.902098 0.000000
vt 0.608392 0.000000
vt 0.181818 0.000000
vt 0.321678 0.000000
vt 0.895105 0.000000
vt 0.615385 0.000000
vt 0.888112 0.000000
vt 0.622378 0.000000
vt 0.188811 0.000000
vt 0.314685 0.000000
vt 0.881119 0.000000
vt 0.629371 0.000000
vt 0.874126 0.000000
vt 0.636364 0.000000
vt 0.867133 0.000000
vt 0.195804 0.000000
vt 0.307692 0.000000
vt 0.643357 0.000000
vt 0.860140 0.000000
vt 0.853147 0.000000
vt 0.650350 0.000000
vt 0.846154 0.000000
vt 0.202797 0.000000
vt 0.300699 0.000000
vt 0.657343 0.000000
vt 0.839161 0.000000
vt 0.664336 0.000000
vt 0.832168 0.000000
vt 0.671329 0.000000
vt 0.209790 0.000000
vt 0.293706 0.000000
vt 0.825175 0.000000
vt 0.678322 0.000000
vt 0.818182 0.000000
vt 0.685315 0.000000
vt 0.811189 0.000000
vt 0.692308 0.000000
vt 0.216783 0.000000
vt 0.286713 0.000000
vt 0.804196 0.000000
vt 0.699301 0.000000
vt 0.797203 0.000000
vt 0.706294 0.000000
vt 0.713287 0.000000
vt 0.790210 0.000000
vt 0.720280 0.000000
vt 0.783217 0.000000
vt 0.727273 0.000000
vt 0.223776 0.000000
vt 0.279720 0.000000
vt 0.776224 0.000000
vt 0.734266 0.000000
vt 0.769231 0.000000
vt 0.741259 0.000000
vt 0.762238 0.000000
vt 0.748252 0.000000
vt 0.755245 0.000000
vt 0.230769 0.000000
vt 0.272727 0.000000
vt 0.237762 0.000000
vt 0.265734 0.000000
vt 0.244755 0.000000
vt 0.258741 0.000000
vt 0.251748 0.000000
vt 0.000000 1.000000
vt 0.020833 1.000000
vt 0.020833 0.000000
vt 0.000000 0.000000
vt 0.041667 1.000000
vt 0.041667 0.000000
vt 0.062500 1.000000
vt 0.062500 0.000000
vt 0.083333 1.000000
vt 0.083333 0.000000
vt 0.104167 1.000000
vt 0.104167 0.000000
vt 0.125000 1.000000
vt 0.125000 0.000000
vt 0.145833 1.000000
vt 0.145833 0.000000
vt 0.166667 1.000000
vt 0.166667 0.000000
vt 0.187500 1.000000
vt 0.187500 0.000000
vt 0.208333 1.000000
vt 0.208333 0.000000
vt 0.229167 1.000000
vt 0.229167 0.000000
vt 0.250000 1.000000
vt 0.250000 0.000000
vt 0.270833 1.000000
vt 0.270833 0.000000
vt 0.291667 1.000000
vt 0.291667 0.000000
vt 0.312500 1.000000
vt 0.312500 0.000000
vt 0.333333 1.000000
vt 0.333333 0.000000
vt 0.354167 1.000000
vt 0.354167 0.000000
vt 0.375000 1.000000
vt 0.375000 0.000000
vt 0.395833 1.000000
vt 0.395833 0.000000
vt 0.416667 1.000000
vt 0.416667 0.000000
vt 0.437500 1.000000
vt 0.437500 0.000000
vt 0.458333 1.000000
vt 0.458333 0.000000
vt 0.479167 1.000000
vt 0.479167 0.000000
vt 0.500000 1.000000
vt 0.500000 0.000000
vt 0.520833 1.000000
vt 0.520833 0.000000
vt 0.541667 1.000000
vt 0.541667 0.000000
vt 0.562500 1.000000
vt 0.562500 0.000000
vt 0.583333 1.000000
vt 0.583333 0.000000
vt 0.604167 1.000000
vt 0.604167 0.000000
vt 0.625000 1.000000
vt 0.625000 0.000000
vt 0.645833 1.000000
vt 0.645833 0.000000
vt 0.666667 1.000000
vt 0.666667 0.000000
vt 0.687500 1.000000
vt 0.687500 0.000000
vt 0.708333 1.000000
vt 0.708333 0.000000
vt 0.729167 1.000000
vt 0.729167 0.000000
vt 0.750000 1.000000
vt 0.750000 0.000000
vt 0.770833 1.000000
vt 0.770833 0.000000
vt 0.791667 1.000000
vt 0.791667 0.000000
vt 0.812500 1.000000
vt 0.812500 0.000000
vt 0.833333 1.000000
vt 0.833333 0.000000
vt 0.854167 1.000000
vt 0.854167 0.000000
vt 0.875000 1.000000
vt 0.875000 0.000000
vt 0.895833 1.000000
vt 0.895833 0.000000
vt 0.916667 1.000000
vt 0.916667 0.000000
vt 0.937500 1.000000
vt 0.937500 0.000000
vt 0.958333 1.000000
vt 0.958333 0.000000
vt 0.979167 1.000000
vt 0.979167 0.000000
vt 1.000000 1.000000
vt 1.000000 0.000000
vt 0.000000 1.000000
vt 0.010417 1.000000
vt 0.010417 0.000000
vt 0.000000 0.000000
vt 0.020833 1.000000
vt 0.020833 0.000000
vt 0.031250 1.000000
vt 0.031250 0.000000
vt 0.041667 1.000000
vt 0.041667 0.000000
vt 0.052083 1.000000
vt 0.052083 0.000000
vt 0.062500 1.000000
vt 0.062500 0.000000
vt 0.072917 1.000000
vt 0.072917 0.000000
vt 0.083333 1.000000
vt 0.083333 0.000000
vt 0.093750 1.000000
vt 0.093750 0.000000
vt 0.104167 1.000000
vt 0.104167 0.000000
vt 0.114583 1.000000
vt 0.114583 0.000000
vt 0.125000 1.000000
vt 0.125000 0.000000
vt 0.135417 1.000000
vt 0.135417 0.000000
vt 0.145833 1.000000
vt 0.145833 0.000000
vt 0.156250 1.000000
vt 0.156250 0.000000
vt 0.166667 1.000000
vt 0.166667 0.000000
vt 0.177083 1.000000
vt 0.177083 0.000000
vt 0.187500 1.000000
vt 0.187500 0.000000
vt 0.197917 1.000000
vt 0.197917 0.000000
vt 0.208333 1.000000
vt 0.208333 0.000000
vt 0.218750 1.000000
vt 0.218750 0.000000
vt 0.229167 1.000000
vt 0.229167 0.000000
vt 0.239583 1.000000
vt 0.239583 0.000000
vt 0.250000 1.000000
vt 0.250000 0.000000
vt 0.260417 1.000000
vt 0.260417 0.000000
vt 0.270833 1.000000
vt 0.270833 0.000000
vt 0.281250 1.000000
vt 0.281250 0.000000
vt 0.291667 1.000000
vt 0.291667 0.000000
vt 0.302083 1.000000
vt 0.302083 0.000000
vt 0.312500 1.000000
vt 0.312500 0.000000
vt 0.322917 1.000000
vt 0.322917 0.000000
vt 0.333333 1.000000
vt 0.333333 0.000000
vt 0.343750 1.000000
vt 0.343750 0.000000
vt 0.354167 1.000000
vt 0.354167 0.000000
vt 0.364583 1.000000
vt 0.364583 0.000000
vt 0.375000 1.000000
vt 0.375000 0.000000
vt 0.385417 1.000000
vt 0.385417 0.000000
vt 0.395833 1.000000
vt 0.395833 0.000000
vt 0.406250 1.000000
vt 0.406250 0.000000
vt 0.416667 1.000000
vt 0.416667 0.000000
vt 0.427083 1.000000
vt 0.427083 0.000000
vt 0.437500 1.000000
vt 0.437500 0.000000
vt 0.447917 1.000000
vt 0.447917 0.000000
vt 0.458333 1.000000
vt 0.458333 0.000000
vt 0.468750 1.000000
vt 0.468750 0.000000
vt 0.479167 1.000000
vt 0.479167 0.000000
vt 0.489583 1.000000
vt 0.489583 0.000000
vt 0.500000 1.000000
vt 0.500000 0.000000
vt 0.510417 1.000000
vt 0.510417 0.000000
vt 0.520833 1.000000
vt 0.520833 0.000000
vt 0.531250 1.000000
vt 0.531250 0.000000
vt 0.541667 1.000000
vt 0.541667 0.000000
vt 0.552083 1.000000
vt 0.552083 0.000000
vt 0.562500 1.000000
vt 0.562500 0.000000
vt 0.572917 1.000000
vt 0.572917 0.000000
vt 0.583333 1.000000
vt 0.583333 0.000000
vt 0.593750 1.000000
vt 0.593750 0.000000
vt 0.604167 1.000000
vt 0.604167 0.000000
vt 0.614583 1.000000
vt 0.614583 0.000000
vt 0.625000 1.000000
vt 0.625000 0.000000
vt 0.635417 1.000000
vt 0.635417 0.000000
vt 0.645833 1.000000
vt 0.645833 0.000000
vt 0.656250 1.000000
vt 0.656250 0.000000
vt 0.666667 1.000000
vt 0.666667 0.000000
vt 0.677083 1.000000
vt 0.677083 0.000000
vt 0.687500 1.000000
vt 0.687500 0.000000
vt 0.697917 1.000000
vt 0.697917 0.000000
vt 0.708333 1.000000
vt 0.708333 0.000000
vt 0.718750 1.000000
vt 0.718750 0.000000
vt 0.729167 1.000000
vt 0.729167 0.000000
vt 0.739583 1.000000
vt 0.739583 0.000000
vt 0.750000 1.000000
vt 0.750000 0.000000
vt 0.760417 1.000000
vt 0.760417 0.000000
vt 0.770833 1.000000
vt 0.770833 0.000000
vt 0.781250 1.000000
vt 0.781250 0.000000
vt 0.791667 1.000000
vt 0.791667 0.000000
vt 0.802083 1.000000
vt 0.802083 0.000000
vt 0.812500 1.000000
vt 0.812500 0.000000
vt 0.822917 1.000000
vt 0.822917 0.000000
vt 0.833333 1.000000
vt 0.833333 0.000000
vt 0.843750 1.000000
vt 0.843750 0.000000
vt 0.854167 1.000000
vt 0.854167 0.000000
vt 0.864583 1.000000
vt 0.864583 0.000000
vt 0.875000 1.000000
vt 0.875000 0.000000
vt 0.885417 1.000000
vt 0.885417 0.000000
vt 0.895833 1.000000
vt 0.895833 0.000000
vt 0.906250 1.000000
vt 0.906250 0.000000
vt 0.916667 1.000000
vt 0.916667 0.000000
vt 0.927083 1.000000
vt 0.927083 0.000000
vt 0.937500 1.000000
vt 0.937500 0.000000
vt 0.947917 1.000000
vt 0.947917 0.000000
vt 0.958333 1.000000
vt 0.958333 0.000000
vt 0.968750 1.000000
vt 0.968750 0.000000
vt 0.979167 1.000000
vt 0.979167 0.000000
vt 0.989583 1.000000
vt 0.989583 0.000000
vt 1.000000 1.000000
vt 1.000000 0.000000
vn 0.0000 1.0000 0.0000
vn 0.0000 -1.0000 0.0000
vn -1.0000 0.0000 -0.0002
vn -0.9985 0.0000 -0.0542
vn -0.9931 0.0000 -0.1174
vn -0.9812 0.0000 -0.1928
vn -0.9593 0.0000 -0.2823
vn -0.9220 0.0000 -0.3872
vn -0.8623 0.0000 -0.5064
vn -0.7729 0.0000 -0.6345
vn -0.6496 0.0000 -0.7602
vn -0.4962 0.0000 -0.8682
vn -0.3259 0.0000 -0.9454
vn -0.1566 0.0000 -0.9876
vn 0.0002 0.0000 -1.0000
vn 0.1575 0.0000 -0.9875
vn 0.3276 0.0000 -0.9448
vn 0.4984 0.0000 -0.8669
vn 0.6518 0.0000 -0.7583
vn 0.7747 0.0000 -0.6323
vn 0.8636 0.0000 -0.5041
vn 0.9228 0.0000 -0.3852
vn 0.9598 0.0000 -0.2807
vn 0.9814 0.0000 -0.1917
vn 0.9931 0.0000 -0.1167
vn 0.9985 0.0000 -0.0539
vn 1.0000 0.0000 -0.0001
vn 0.9986 0.0000 0.0534
vn 0.9933 0.0000 0.1156
vn 0.9818 0.0000 0.1899
vn 0.9605 0.0000 0.2782
vn 0.9241 0.0000 0.3821
vn 0.8657 0.0000 0.5006
vn 0.7777 0.0000 0.6287
vn 0.6554 0.0000 0.7553
vn 0.5020 0.0000 0.8649
vn 0.3304 0.0000 0.9438
vn 0.1590 0.0000 0.9873
vn -0.0002 0.0000 1.0000
vn -0.1599 0.0000 0.9871
vn -0.3322 0.0000 0.9432
vn -0.5043 0.0000 0.8635
vn -0.6577 0.0000 0.7533
vn -0.7795 0.0000 0.6263
vn -0.8670 0.0000 0.4983
vn -0.9250 0.0000 0.3800
vn -0.9609 0.0000 0.2767
vn -0.9820 0.0000 0.1888
vn -0.9933 0.0000 0.1149
vn -0.9986 0.0000 0.0530
vn -0.8719 0.0000 0.4896
vn -0.8316 0.0000 0.5553
vn -0.7841 0.0000 0.6207
vn -0.7275 0.0000 0.6860
vn -0.6620 0.0000 0.7494
vn -0.5882 0.0000 0.8087
vn -0.5073 0.0000 0.8617
vn -0.4215 0.0000 0.9068
vn -0.3332 0.0000 0.9428
vn -0.2449 0.0000 0.9695
vn -0.1589 0.0000 0.9873
vn -0.0772 0.0000 0.9970
vn 0.0024 0.0000 1.0000
vn 0.0876 0.0000 0.9962
vn 0.1809 0.0000 0.9835
vn 0.2791 0.0000 0.9602
vn 0.3793 0.0000 0.9253
vn 0.4778 0.0000 0.8784
vn 0.5712 0.0000 0.8208
vn 0.6561 0.0000 0.7547
vn 0.7305 0.0000 0.6829
vn 0.7934 0.0000 0.6086
vn 0.8450 0.0000 0.5348
vn 0.8861 0.0000 0.4634
vn 0.9167 0.0000 0.3997
vn 0.9388 0.0000 0.3445
vn 0.9556 0.0000 0.2945
vn 0.9684 0.0000 0.2495
vn 0.9778 0.0000 0.2092
vn 0.9849 0.0000 0.1730
vn 0.9901 0.0000 0.1404
vn 0.9938 0.0000 0.1110
vn 0.9964 0.0000 0.0844
vn 0.9982 0.0000 0.0603
vn 0.9992 0.0000 0.0384
vn 0.9998 0.0000 0.0184
vn 1.0000 0.0000 -0.0004
vn 0.9998 0.0000 -0.0202
vn 0.9991 0.0000 -0.0422
vn 0.9977 0.0000 -0.0667
vn 0.9955 0.0000 -0.0941
vn 0.9922 0.0000 -0.1246
vn 0.9873 0.0000 -0.1588
vn 0.9803 0.0000 -0.1974
vn 0.9705 0.0000 -0.2409
vn 0.9570 0.0000 -0.2901
vn 0.9384 0.0000 -0.3457
vn 0.9129 0.0000 -0.4081
vn 0.8801 0.0000 -0.4747
vn 0.8411 0.0000 -0.5408
vn 0.7950 0.0000 -0.6066
vn 0.7397 0.0000 -0.6729
vn 0.6751 0.0000 -0.7377
vn 0.6015 0.0000 -0.7989
vn 0.5202 0.0000 -0.8540
vn 0.4333 0.0000 -0.9012
vn 0.3431 0.0000 -0.9393
vn 0.2526 0.0000 -0.9676
vn 0.1641 0.0000 -0.9864
vn 0.0797 0.0000 -0.9968
vn -0.0029 0.0000 -1.0000
vn -0.0917 0.0000 -0.9958
vn -0.1892 0.0000 -0.9819
vn -0.2910 0.0000 -0.9567
vn -0.3939 0.0000 -0.9191
vn -0.4940 0.0000 -0.8694
vn -0.5876 0.0000 -0.8091
vn -0.6716 0.0000 -0.7409
vn -0.7442 0.0000 -0.6679
vn -0.8048 0.0000 -0.5936
vn -0.8539 0.0000 -0.5204
vn -0.8927 0.0000 -0.4505
vn -0.9219 0.0000 -0.3875
vn -0.9429 0.0000 -0.3331
vn -0.9585 0.0000 -0.2852
vn -0.9703 0.0000 -0.2420
vn -0.9791 0.0000 -0.2031
vn -0.9857 0.0000 -0.1681
vn -0.9906 0.0000 -0.1366
vn -0.9941 0.0000 -0.1081
vn -0.9966 0.0000 -0.0823
vn -0.9983 0.0000 -0.0589
vn -0.9993 0.0000 -0.0375
vn -0.9998 0.0000 -0.0180
vn -1.0000 0.0000 0.0006
vn -0.9998 0.0000 0.0207
vn -0.9991 0.0000 0.0433
vn -0.9977 0.0000 0.0685
vn -0.9953 0.0000 0.0966
vn -0.9918 0.0000 0.1280
vn -0.9865 0.0000 0.1634
vn -0.9791 0.0000 0.2033
vn -0.9686 0.0000 0.2485
vn -0.9541 0.0000 0.2995
vn -0.9340 0.0000 0.3572
vn -0.9065 0.0000 0.4221
usemtl Number
s off
f 28/29/13 30/30/13 29/31/13
f 28/29/13 31/32/13 30/30/13
f 27/33/13 31/32/13 28/29/13
f 27/33/13 32/34/13 31/32/13
f 26/35/13 32/34/13 27/33/13
f 26/35/13 33/36/13 32/34/13
f 25/37/13 33/36/13 26/35/13
f 25/37/13 34/38/13 33/36/13
f 24/39/13 78/40/13 25/37/13
f 78/40/13 77/41/13 25/37/13
f 77/41/13 76/42/13 25/37/13
f 76/42/13 34/38/13 25/37/13
f 75/43/13 34/38/13 76/42/13
f 24/39/13 79/44/13 78/40/13
f 74/45/13 34/38/13 75/43/13
f 24/39/13 80/46/13 79/44/13
f 73/47/13 34/38/13 74/45/13
f 24/39/13 81/48/13 80/46/13
f 72/49/13 34/38/13 73/47/13
f 72/49/13 35/50/13 34/38/13
f 23/51/13 81/48/13 24/39/13
f 23/51/13 82/52/13 81/48/13
f 71/53/13 35/50/13 72/49/13
f 23/51/13 83/54/13 82/52/13
f 70/55/13 35/50/13 71/53/13
f 23/51/13 84/56/13 83/54/13
f 69/57/13 35/50/13 70/55/13
f 68/58/13 35/50/13 69/57/13
f 23/51/13 85/59/13 84/56/13
f 67/60/13 35/50/13 68/58/13
f 23/51/13 86/61/13 85/59/13
f 67/60/13 36/62/13 35/50/13
f 22/63/13 86/61/13 23/51/13
f 66/64/13 36/62/13 67/60/13
f 22/63/13 87/65/13 86/61/13
f 65/66/13 36/62/13 66/64/13
f 22/63/13 88/67/13 87/65/13
f 160/68/13 36/62/13 65/66/13
f 22/63/13 89/69/13 88/67/13
f 160/68/13 37/70/13 36/62/13
f 21/71/13 89/69/13 22/63/13
f 159/72/13 37/70/13 160/68/13
f 21/71/13 90/73/13 89/69/13
f 158/74/13 37/70/13 159/72/13
f 21/71/13 91/75/13 90/73/13
f 157/76/13 37/70/13 158/74/13
f 21/71/13 92/77/13 91/75/13
f 157/76/13 38/78/13 37/70/13
f 20/79/13 92/77/13 21/71/13
f 156/80/13 38/78/13 157/76/13
f 20/79/13 93/81/13 92/77/13
f 20/79/13 94/82/13 93/81/13
f 155/83/13 38/78/13 156/80/13
f 155/83/13 39/84/13 38/78/13
f 19/85/13 94/82/13 20/79/13
f 19/85/13 95/86/13 94/82/13
f 154/87/13 39/84/13 155/83/13
f 19/85/13 96/88/13 95/86/13
f 153/89/13 39/84/13 154/87/13
f 19/85/13 97/90/13 96/88/13
f 153/89/13 40/91/13 39/84/13
f 18/92/13 97/90/13 19/85/13
f 152/93/13 40/91/13 153/89/13
f 18/92/13 98/94/13 97/90/13
f 151/95/13 40/91/13 152/93/13
f 18/92/13 99/96/13 98/94/13
f 151/95/13 41/97/13 40/91/13
f 17/98/13 99/96/13 18/92/13
f 150/99/13 41/97/13 151/95/13
f 17/98/13 100/100/13 99/96/13
f 149/101/13 41/97/13 150/99/13
f 17/98/13 101/102/13 100/100/13
f 17/98/13 102/103/13 101/102/13
f 149/101/13 42/104/13 41/97/13
f 148/105/13 42/104/13 149/101/13
f 64/106/13 102/103/13 17/98/13
f 147/107/13 42/104/13 148/105/13
f 64/106/13 103/108/13 102/103/13
f 146/109/13 42/104/13 147/107/13
f 64/106/13 104/110/13 103/108/13
f 146/109/13 43/111/13 42/104/13
f 63/112/13 104/110/13 64/106/13
f 145/113/13 43/111/13 146/109/13
f 63/112/13 105/114/13 104/110/13
f 144/115/13 43/111/13 145/113/13
f 63/112/13 106/116/13 105/114/13
f 144/115/13 44/117/13 43/111/13
f 62/118/13 106/116/13 63/112/13
f 143/119/13 44/117/13 144/115/13
f 62/118/13 107/120/13 106/116/13
f 142/121/13 44/117/13 143/119/13
f 62/118/13 108/122/13 107/120/13
f 141/123/13 44/117/13 142/121/13
f 141/123/13 45/124/13 44/117/13
f 61/125/13 108/122/13 62/118/13
f 61/125/13 109/126/13 108/122/13
f 140/127/13 45/124/13 141/123/13
f 139/128/13 45/124/13 140/127/13
f 61/125/13 110/129/13 109/126/13
f 138/130/13 45/124/13 139/128/13
f 138/130/13 46/131/13 45/124/13
f 60/132/13 110/129/13 61/125/13
f 60/132/13 111/133/13 110/129/13
f 137/134/13 46/131/13 138/130/13
f 60/132/13 112/135/13 111/133/13
f 136/136/13 46/131/13 137/134/13
f 60/132/13 113/137/13 112/135/13
f 136/136/13 47/138/13 46/131/13
f 59/139/13 113/137/13 60/132/13
f 135/140/13 47/138/13 136/136/13
f 59/139/13 114/141/13 113/137/13
f 134/142/13 47/138/13 135/140/13
f 59/139/13 115/143/13 114/141/13
f 133/144/13 47/138/13 134/142/13
f 59/139/13 116/145/13 115/143/13
f 133/144/13 48/146/13 47/138/13
f 58/147/13 116/145/13 59/139/13
f 132/148/13 48/146/13 133/144/13
f 58/147/13 117/149/13 116/145/13
f 131/150/13 48/146/13 132/148/13
f 58/147/13 118/151/13 117/149/13
f 58/147/13 119/152/13 118/151/13
f 130/153/13 48/146/13 131/150/13
f 58/147/13 120/154/13 119/152/13
f 129/155/13 48/146/13 130/153/13
f 58/147/13 121/156/13 120/154/13
f 129/155/13 49/157/13 48/146/13
f 57/158/13 121/156/13 58/147/13
f 128/159/13 49/157/13 129/155/13
f 57/158/13 122/160/13 121/156/13
f 127/161/13 49/157/13 128/159/13
f 57/158/13 123/162/13 122/160/13
f 126/163/13 49/157/13 127/161/13
f 57/158/13 124/164/13 123/162/13
f 125/165/13 49/157/13 126/163/13
f 57/158/13 125/165/13 124/164/13
f 57/158/13 49/157/13 125/165/13
f 57/158/13 50/166/13 49/157/13
f 56/167/13 50/166/13 57/158/13
f 56/167/13 51/168/13 50/166/13
f 55/169/13 51/168/13 56/167/13
f 55/169/13 52/170/13 51/168/13
f 54/171/13 52/170/13 55/169/13
f 54/171/13 53/172/13 52/170/13
f 174/173/14 172/174/14 173/175/14
f 175/176/14 172/174/14 174/173/14
f 175/176/14 171/177/14 172/174/14
f 176/178/14 171/177/14 175/176/14
f 176/178/14 170/179/14 171/177/14
f 177/180/14 170/179/14 176/178/14
f 177/180/14 169/181/14 170/179/14
f 178/182/14 169/181/14 177/180/14
f 222/183/14 168/184/14 169/181/14
f 221/185/14 222/183/14 169/181/14
f 220/186/14 221/185/14 169/181/14
f 178/182/14 220/186/14 169/181/14
f 178/182/14 219/187/14 220/186/14
f 223/188/14 168/184/14 222/183/14
f 178/182/14 218/189/14 219/187/14
f 224/190/14 168/184/14 223/188/14
f 178/182/14 217/191/14 218/189/14
f 225/192/14 168/184/14 224/190/14
f 178/182/14 216/193/14 217/191/14
f 179/194/14 216/193/14 178/182/14
f 225/192/14 167/195/14 168/184/14
f 226/196/14 167/195/14 225/192/14
f 179/194/14 215/197/14 216/193/14
f 227/198/14 167/195/14 226/196/14
f 179/194/14 214/199/14 215/197/14
f 228/200/14 167/195/14 227/198/14
f 179/194/14 213/201/14 214/199/14
f 179/194/14 212/202/14 213/201/14
f 229/203/14 167/195/14 228/200/14
f 179/194/14 211/204/14 212/202/14
f 230/205/14 167/195/14 229/203/14
f 180/206/14 211/204/14 179/194/14
f 230/205/14 166/207/14 167/195/14
f 180/206/14 210/208/14 211/204/14
f 231/209/14 166/207/14 230/205/14
f 180/206/14 209/210/14 210/208/14
f 232/211/14 166/207/14 231/209/14
f 180/206/14 304/212/14 209/210/14
f 233/213/14 166/207/14 232/211/14
f 181/214/14 304/212/14 180/206/14
f 233/213/14 165/215/14 166/207/14
f 181/214/14 303/216/14 304/212/14
f 234/217/14 165/215/14 233/213/14
f 181/214/14 302/218/14 303/216/14
f 235/219/14 165/215/14 234/217/14
f 181/214/14 301/220/14 302/218/14
f 236/221/14 165/215/14 235/219/14
f 182/222/14 301/220/14 181/214/14
f 236/221/14 164/223/14 165/215/14
f 182/222/14 300/224/14 301/220/14
f 237/225/14 164/223/14 236/221/14
f 238/226/14 164/223/14 237/225/14
f 182/222/14 299/227/14 300/224/14
f 183/228/14 299/227/14 182/222/14
f 238/226/14 163/229/14 164/223/14
f 239/230/14 163/229/14 238/226/14
f 183/228/14 298/231/14 299/227/14
f 240/232/14 163/229/14 239/230/14
f 183/228/14 297/233/14 298/231/14
f 241/234/14 163/229/14 240/232/14
f 184/235/14 297/233/14 183/228/14
f 241/234/14 162/236/14 163/229/14
f 184/235/14 296/237/14 297/233/14
f 242/238/14 162/236/14 241/234/14
f 184/235/14 295/239/14 296/237/14
f 243/240/14 162/236/14 242/238/14
f 185/241/14 295/239/14 184/235/14
f 243/240/14 161/242/14 162/236/14
f 185/241/14 294/243/14 295/239/14
f 244/244/14 161/242/14 243/240/14
f 185/241/14 293/245/14 294/243/14
f 245/246/14 161/242/14 244/244/14
f 246/247/14 161/242/14 245/246/14
f 186/248/14 293/245/14 185/241/14
f 186/248/14 292/249/14 293/245/14
f 246/247/14 208/250/14 161/242/14
f 186/248/14 291/251/14 292/249/14
f 247/252/14 208/250/14 246/247/14
f 186/248/14 290/253/14 291/251/14
f 248/254/14 208/250/14 247/252/14
f 187/255/14 290/253/14 186/248/14
f 248/254/14 207/256/14 208/250/14
f 187/255/14 289/257/14 290/253/14
f 249/258/14 207/256/14 248/254/14
f 187/255/14 288/259/14 289/257/14
f 250/260/14 207/256/14 249/258/14
f 188/261/14 288/259/14 187/255/14
f 250/260/14 206/262/14 207/256/14
f 188/261/14 287/263/14 288/259/14
f 251/264/14 206/262/14 250/260/14
f 188/261/14 286/265/14 287/263/14
f 252/266/14 206/262/14 251/264/14
f 188/261/14 285/267/14 286/265/14
f 189/268/14 285/267/14 188/261/14
f 252/266/14 205/269/14 206/262/14
f 253/270/14 205/269/14 252/266/14
f 189/268/14 284/271/14 285/267/14
f 189/268/14 283/272/14 284/271/14
f 254/273/14 205/269/14 253/270/14
f 189/268/14 282/274/14 283/272/14
f 190/275/14 282/274/14 189/268/14
f 254/273/14 204/276/14 205/269/14
f 255/277/14 204/276/14 254/273/14
f 190/275/14 281/278/14 282/274/14
f 256/279/14 204/276/14 255/277/14
f 190/275/14 280/280/14 281/278/14
f 257/281/14 204/276/14 256/279/14
f 191/282/14 280/280/14 190/275/14
f 257/281/14 203/283/14 204/276/14
f 191/282/14 279/284/14 280/280/14
f 258/285/14 203/283/14 257/281/14
f 191/282/14 278/286/14 279/284/14
f 259/287/14 203/283/14 258/285/14
f 191/282/14 277/288/14 278/286/14
f 260/289/14 203/283/14 259/287/14
f 192/290/14 277/288/14 191/282/14
f 260/289/14 202/291/14 203/283/14
f 192/290/14 276/292/14 277/288/14
f 261/293/14 202/291/14 260/289/14
f 192/290/14 275/294/14 276/292/14
f 262/295/14 202/291/14 261/293/14
f 263/296/14 202/291/14 262/295/14
f 192/290/14 274/297/14 275/294/14
f 264/298/14 202/291/14 263/296/14
f 192/290/14 273/299/14 274/297/14
f 265/300/14 202/291/14 264/298/14
f 193/301/14 273/299/14 192/290/14
f 265/300/14 201/302/14 202/291/14
f 193/301/14 272/303/14 273/299/14
f 266/304/14 201/302/14 265/300/14
f 193/301/14 271/305/14 272/303/14
f 267/306/14 201/302/14 266/304/14
f 193/301/14 270/307/14 271/305/14
f 268/308/14 201/302/14 267/306/14
f 193/301/14 269/309/14 270/307/14
f 269/309/14 201/302/14 268/308/14
f 193/301/14 201/302/14 269/309/14
f 194/310/14 201/302/14 193/301/14
f 194/310/14 200/311/14 201/302/14
f 195/312/14 200/311/14 194/310/14
f 195/312/14 199/313/14 200/311/14
f 196/314/14 199/313/14 195/312/14
f 196/314/14 198/315/14 199/313/14
f 197/316/14 198/315/14 196/314/14
s 1
f 306/317/15 308/318/16 307/319/16 305/320/15
f 308/318/16 310/321/17 309/322/17 307/319/16
f 310/321/17 312/323/18 311/324/18 309/322/17
f 312/323/18 314/325/19 313/326/19 311/324/18
f 314/325/19 316/327/20 315/328/20 313/326/19
f 316/327/20 318/329/21 317/330/21 315/328/20
f 318/329/21 320/331/22 319/332/22 317/330/21
f 320/331/22 322/333/23 321/334/23 319/332/22
f 322/333/23 324/335/24 323/336/24 321/334/23
f 324/335/24 326/337/25 325/338/25 323/336/24
f 326/337/25 328/339/26 327/340/26 325/338/25
f 328/339/26 330/341/27 329/342/27 327/340/26
f 330/341/27 332/343/28 331/344/28 329/342/27
f 332/343/28 334/345/29 333/346/29 331/344/28
f 334/345/29 336/347/30 335/348/30 333/346/29
f 336/347/30 338/349/31 337/350/31 335/348/30
f 338/349/31 340/351/32 339/352/32 337/350/31
f 340/351/32 342/353/33 341/354/33 339/352/32
f 342/353/33 344/355/34 343/356/34 341/354/33
f 344/355/34 346/357/35 345/358/35 343/356/34
f 346/357/35 348/359/36 347/360/36 345/358/35
f 348/359/36 350/361/37 349/362/37 347/360/36
f 350/361/37 352/363/38 351/364/38 349/362/37
f 352/363/38 354/365/39 353/366/39 351/364/38
f 354/365/39 356/367/40 355/368/40 353/366/39
f 356/367/40 358/369/41 357/370/41 355/368/40
f 358/369/41 360/371/42 359/372/42 357/370/41
f 360/371/42 362/373/43 361/374/43 359/372/42
f 362/373/43 364/375/44 363/376/44 361/374/43
f 364/375/44 366/377/45 365/378/45 363/376/44
f 366/377/45 368/379/46 367/380/46 365/378/45
f 368/379/46 370/381/47 369/382/47 367/380/46
f 370/381/47 372/383/48 371/384/48 369/382/47
f 372/383/48 374/385/49 373/386/49 371/384/48
f 374/385/49 376/387/50 375/388/50 373/386/49
f 376/387/50 378/389/51 377/390/51 375/388/50
f 378/389/51 380/391/52 379/392/52 377/390/51
f 380/391/52 382/393/53 381/394/53 379/392/52
f 382/393/53 384/395/54 383/396/54 381/394/53
f 384/395/54 386/397/55 385/398/55 383/396/54
f 386/397/55 388/399/56 387/400/56 385/398/55
f 388/399/56 390/401/57 389/402/57 387/400/56
f 390/401/57 392/403/58 391/404/58 389/402/57
f 392/403/58 394/405/59 393/406/59 391/404/58
f 394/405/59 396/407/60 395/408/60 393/406/59
f 396/407/60 398/409/61 397/410/61 395/408/60
f 398/409/61 400/411/62 399/412/62 397/410/61
f 400/411/62 306/413/15 305/414/15 399/412/62
f 402/415/63 404/416/64 403/417/64 401/418/63
f 404/416/64 406/419/65 405/420/65 403/417/64
f 406/419/65 408/421/66 407/422/66 405/420/65
f 408/421/66 410/423/67 409/424/67 407/422/66
f 410/423/67 412/425/68 411/426/68 409/424/67
f 412/425/68 414/427/69 413/428/69 411/426/68
f 414/427/69 416/429/70 415/430/70 413/428/69
f 416/429/70 418/431/71 417/432/71 415/430/70
f 418/431/71 420/433/72 419/434/72 417/432/71
f 420/433/72 422/435/73 421/436/73 419/434/72
f 422/435/73 424/437/74 423/438/74 421/436/73
f 424/437/74 426/439/75 425/440/75 423/438/74
f 426/439/75 428/441/76 427/442/76 425/440/75
f 428/441/76 430/443/77 429/444/77 427/442/76
f 430/443/77 432/445/78 431/446/78 429/444/77
f 432/445/78 434/447/79 433/448/79 431/446/78
f 434/447/79 436/449/80 435/450/80 433/448/79
f 436/449/80 438/451/81 437/452/81 435/450/80
f 438/451/81 440/453/82 439/454/82 437/452/81
f 440/453/82 442/455/83 441/456/83 439/454/82
f 442/455/83 444/457/84 443/458/84 441/456/83
f 444/457/84 446/459/85 445/460/85 443/458/84
f 446/459/85 448/461/86 447/462/86 445/460/85
f 448/461/86 450/463/87 449/464/87 447/462/86
f 450/463/87 452/465/88 451/466/88 449/464/87
f 452/465/88 454/467/89 453/468/89 451/466/88
f 454/467/89 456/469/90 455/470/90 453/468/89
f 456/469/90 458/471/91 457/472/91 455/470/90
f 458/471/91 460/473/92 459/474/92 457/472/91
f 460/473/92 462/475/93 461/476/93 459/474/92
f 462/475/93 464/477/94 463/478/94 461/476/93
f 464/477/94 466/479/95 465/480/95 463/478/94
f 466/479/95 468/481/96 467/482/96 465/480/95
f 468/481/96 470/483/97 469/484/97 467/482/96
f 470/483/97 472/485/98 471/486/98 469/484/97
f 472/485/98 474/487/99 473/488/99 471/486/98
f 474/487/99 476/489/100 475/490/100 473/488/99
f 476/489/100 478/491/101 477/492/101 475/490/100
f 478/491/101 480/493/102 479/494/102 477/492/101
f 480/493/102 482/495/103 481/496/103 479/494/102
f 482/495/103 484/497/104 483/498/104 481/496/103
f 484/497/104 486/499/105 485/500/105 483/498/104
f 486/499/105 488/501/106 487/502/106 485/500/105
f 488/501/106 490/503/107 489/504/107 487/502/106
f 490/503/107 492/505/108 491/506/108 489/504/107
f 492/505/108 494/507/109 493/508/109 491/506/108
f 494/507/109 496/509/110 495/510/110 493/508/109
f 496/509/110 498/511/111 497/512/111 495/510/110
f 498/511/111 500/513/112 499/514/112 497/512/111
f 500/513/112 502/515/113 501/516/113 499/514/112
f 502/515/113 504/517/114 503/518/114 501/516/113
f 504/517/114 506/519/115 505/520/115 503/518/114
f 506/519/115 508/521/116 507/522/116 505/520/115
f 508/521/116 510/523/117 509/524/117 507/522/116
f 510/523/117 512/525/118 511/526/118 509/524/117
f 512/525/118 514/527/119 513/528/119 511/526/118
f 514/527/119 516/529/120 515/530/120 513/528/119
f 516/529/120 518/531/121 517/532/121 515/530/120
f 518/531/121 520/533/122 519/534/122 517/532/121
f 520/533/122 522/535/123 521/536/123 519/534/122
f 522/535/123 524/537/124 523/538/124 521/536/123
f 524/537/124 526/539/125 525/540/125 523/538/124
f 526/539/125 528/541/126 527/542/126 525/540/125
f 528/541/126 530/543/127 529/544/127 527/542/126
f 530/543/127 532/545/128 531/546/128 529/544/127
f 532/545/128 534/547/129 533/548/129 531/546/128
f 534/547/129 536/549/130 535/550/130 533/548/129
f 536/549/130 538/551/131 537/552/131 535/550/130
f 538/551/131 540/553/132 539/554/132 537/552/131
f 540/553/132 542/555/133 541/556/133 539/554/132
f 542/555/133 544/557/134 543/558/134 541/556/133
f 544/557/134 546/559/135 545/560/135 543/558/134
f 546/559/135 548/561/136 547/562/136 545/560/135
f 548/561/136 550/563/137 549/564/137 547/562/136
f 550/563/137 552/565/138 551/566/138 549/564/137
f 552/565/138 554/567/139 553/568/139 551/566/138
f 554/567/139 556/569/140 555/570/140 553/568/139
f 556/569/140 558/571/141 557/572/141 555/570/140
f 558/571/141 560/573/142 559/574/142 557/572/141
f 560/573/142 562/575/143 561/576/143 559/574/142
f 562/575/143 564/577/144 563/578/144 561/576/143
f 564/577/144 566/579/145 565/580/145 563/578/144
f 566/579/145 568/581/146 567/582/146 565/580/145
f 568/581/146 570/583/147 569/584/147 567/582/146
f 570/583/147 572/585/148 571/586/148 569/584/147
f 572/585/148 574/587/149 573/588/149 571/586/148
f 574/587/149 576/589/150 575/590/150 573/588/149
f 576/589/150 578/591/151 577/592/151 575/590/150
f 578/591/151 580/593/152 579/594/152 577/592/151
f 580/593/152 582/595/153 581/596/153 579/594/152
f 582/595/153 584/597/154 583/598/154 581/596/153
f 584/597/154 586/599/155 585/600/155 583/598/154
f 586/599/155 588/601/156 587/602/156 585/600/155
f 588/601/156 590/603/157 589/604/157 587/602/156
f 590/603/157 592/605/158 591/606/158 589/604/157
f 592/605/158 402/607/63 401/608/63 591/606/158
