# Blender v2.90.1 OBJ File: 'buttons.blend'
# www.blender.org
mtllib button1.mtl
o Cube
v 1.088764 -0.010000 -1.242224
v 1.088764 -0.510000 -1.242224
v 1.088764 -0.010000 1.157776
v 1.088764 -0.510000 1.157776
v -1.311236 -0.010000 -1.242224
v -1.311236 -0.510000 -1.242224
v -1.311236 -0.010000 1.157776
v -1.311236 -0.510000 1.157776
vt 0.625000 0.500000
vt 0.875000 0.500000
vt 0.875000 0.750000
vt 0.625000 0.750000
vt 0.375000 0.750000
vt 0.625000 1.000000
vt 0.375000 1.000000
vt 0.375000 0.000000
vt 0.625000 0.000000
vt 0.625000 0.250000
vt 0.375000 0.250000
vt 0.125000 0.500000
vt 0.375000 0.500000
vt 0.125000 0.750000
vn 0.0000 1.0000 0.0000
vn 0.0000 0.0000 1.0000
vn -1.0000 0.0000 0.0000
vn 0.0000 -1.0000 0.0000
vn 1.0000 0.0000 0.0000
vn 0.0000 0.0000 -1.0000
usemtl Button2
s off
f 1/1/1 5/2/1 7/3/1 3/4/1
f 4/5/2 3/4/2 7/6/2 8/7/2
f 8/8/3 7/9/3 5/10/3 6/11/3
f 6/12/4 2/13/4 4/5/4 8/14/4
f 2/13/5 1/1/5 3/4/5 4/5/5
f 6/11/6 5/10/6 1/1/6 2/13/6
o Cube.001
v 0.888764 0.500000 -1.042224
v 0.888764 -0.500000 -1.042224
v 0.888764 0.500000 0.957776
v 0.888764 -0.500000 0.957776
v -1.111236 0.500000 -1.042224
v -1.111236 -0.500000 -1.042224
v -1.111236 0.500000 0.957776
v -1.111236 -0.500000 0.957776
vt 0.625000 0.500000
vt 0.875000 0.500000
vt 0.875000 0.750000
vt 0.625000 0.750000
vt 0.375000 0.750000
vt 0.625000 1.000000
vt 0.375000 1.000000
vt 0.375000 0.000000
vt 0.625000 0.000000
vt 0.625000 0.250000
vt 0.375000 0.250000
vt 0.125000 0.500000
vt 0.375000 0.500000
vt 0.125000 0.750000
vn 0.0000 1.0000 0.0000
vn 0.0000 0.0000 1.0000
vn -1.0000 0.0000 0.0000
vn 0.0000 -1.0000 0.0000
vn 1.0000 0.0000 0.0000
vn 0.0000 0.0000 -1.0000
usemtl Button
s off
f 9/15/7 13/16/7 15/17/7 11/18/7
f 12/19/8 11/18/8 15/20/8 16/21/8
f 16/22/9 15/23/9 13/24/9 14/25/9
f 14/26/10 10/27/10 12/19/10 16/28/10
f 10/27/11 9/15/11 11/18/11 12/19/11
f 14/25/12 13/24/12 9/15/12 10/27/12
o Text
v -0.012751 0.690054 -0.471781
v 0.051647 0.690054 -0.471781
v 0.051647 0.690054 0.374585
v 0.220920 0.690054 0.374585
v 0.220920 0.690054 0.441435
v -0.207170 0.690054 0.441435
v -0.207170 0.690054 0.374585
v -0.026244 0.690054 0.374585
v -0.026244 0.690054 -0.386531
v -0.039707 0.690054 -0.377536
v -0.053519 0.690054 -0.368746
v -0.067680 0.690054 -0.360159
v -0.082191 0.690054 -0.351777
v -0.097051 0.690054 -0.343600
v -0.112260 0.690054 -0.335627
v -0.127819 0.690054 -0.327858
v -0.143726 0.690054 -0.320294
v -0.159983 0.690054 -0.312934
v -0.176589 0.690054 -0.305779
v -0.193545 0.690054 -0.298828
v -0.210850 0.690054 -0.292082
v -0.224956 0.690054 -0.365066
v -0.207553 0.690054 -0.371148
v -0.190099 0.690054 -0.377741
v -0.172594 0.690054 -0.384845
v -0.155039 0.690054 -0.392460
v -0.137431 0.690054 -0.400586
v -0.119773 0.690054 -0.409224
v -0.102064 0.690054 -0.418372
v -0.084304 0.690054 -0.428032
v -0.066492 0.690054 -0.438203
v -0.048629 0.690054 -0.448885
v -0.030716 0.690054 -0.460077
v -0.012751 0.370054 -0.471781
v 0.051647 0.370054 -0.471781
v 0.051647 0.370054 0.374585
v 0.220920 0.370054 0.374585
v 0.220920 0.370054 0.441435
v -0.207170 0.370054 0.441435
v -0.207170 0.370054 0.374585
v -0.026244 0.370054 0.374585
v -0.026244 0.370054 -0.386531
v -0.039707 0.370054 -0.377536
v -0.053519 0.370054 -0.368746
v -0.067680 0.370054 -0.360159
v -0.082191 0.370054 -0.351777
v -0.097051 0.370054 -0.343600
v -0.112260 0.370054 -0.335627
v -0.127819 0.370054 -0.327858
v -0.143726 0.370054 -0.320294
v -0.159983 0.370054 -0.312934
v -0.176589 0.370054 -0.305779
v -0.193545 0.370054 -0.298828
v -0.210850 0.370054 -0.292082
v -0.224956 0.370054 -0.365066
v -0.207553 0.370054 -0.371148
v -0.190099 0.370054 -0.377741
v -0.172594 0.370054 -0.384845
v -0.155039 0.370054 -0.392460
v -0.137431 0.370054 -0.400586
v -0.119773 0.370054 -0.409224
v -0.102064 0.370054 -0.418372
v -0.084304 0.370054 -0.428032
v -0.066492 0.370054 -0.438203
v -0.048629 0.370054 -0.448885
v -0.030716 0.370054 -0.460077
v -0.012751 0.370054 -0.471781
v -0.012751 0.690054 -0.471781
v 0.051647 0.370054 -0.471781
v 0.051647 0.690054 -0.471781
v 0.051647 0.370054 0.374585
v 0.051647 0.690054 0.374585
v 0.220920 0.370054 0.374585
v 0.220920 0.690054 0.374585
v 0.220920 0.370054 0.441435
v 0.220920 0.690054 0.441435
v -0.207170 0.370054 0.441435
v -0.207170 0.690054 0.441435
v -0.207170 0.370054 0.374585
v -0.207170 0.690054 0.374585
v -0.026244 0.370054 0.374585
v -0.026244 0.690054 0.374585
v -0.026244 0.370054 -0.386531
v -0.026244 0.690054 -0.386531
v -0.039707 0.370054 -0.377536
v -0.039707 0.690054 -0.377536
v -0.053519 0.370054 -0.368746
v -0.053519 0.690054 -0.368746
v -0.067680 0.370054 -0.360159
v -0.067680 0.690054 -0.360159
v -0.082191 0.370054 -0.351777
v -0.082191 0.690054 -0.351777
v -0.097051 0.370054 -0.343600
v -0.097051 0.690054 -0.343600
v -0.112260 0.370054 -0.335627
v -0.112260 0.690054 -0.335627
v -0.127819 0.370054 -0.327858
v -0.127819 0.690054 -0.327858
v -0.143726 0.370054 -0.320294
v -0.143726 0.690054 -0.320294
v -0.159983 0.370054 -0.312934
v -0.159983 0.690054 -0.312934
v -0.176589 0.370054 -0.305779
v -0.176589 0.690054 -0.305779
v -0.193545 0.370054 -0.298828
v -0.193545 0.690054 -0.298828
v -0.210850 0.370054 -0.292082
v -0.210850 0.690054 -0.292082
v -0.224956 0.370054 -0.365066
v -0.224956 0.690054 -0.365066
v -0.207553 0.370054 -0.371148
v -0.207553 0.690054 -0.371148
v -0.190099 0.370054 -0.377741
v -0.190099 0.690054 -0.377741
v -0.172594 0.370054 -0.384845
v -0.172594 0.690054 -0.384845
v -0.155039 0.370054 -0.392460
v -0.155039 0.690054 -0.392460
v -0.137431 0.370054 -0.400586
v -0.137431 0.690054 -0.400586
v -0.119773 0.370054 -0.409224
v -0.119773 0.690054 -0.409224
v -0.102064 0.370054 -0.418372
v -0.102064 0.690054 -0.418372
v -0.084304 0.370054 -0.428032
v -0.084304 0.690054 -0.428032
v -0.066492 0.370054 -0.438203
v -0.066492 0.690054 -0.438203
v -0.048629 0.370054 -0.448885
v -0.048629 0.690054 -0.448885
v -0.030716 0.370054 -0.460077
v -0.030716 0.690054 -0.460077
vt 1.000000 0.000000
vt 0.031250 0.000000
vt 0.000000 0.000000
vt 0.062500 0.000000
vt 0.968750 0.000000
vt 0.250000 0.000000
vt 0.937500 0.000000
vt 0.906250 0.000000
vt 0.875000 0.000000
vt 0.843750 0.000000
vt 0.812500 0.000000
vt 0.781250 0.000000
vt 0.750000 0.000000
vt 0.281250 0.000000
vt 0.218750 0.000000
vt 0.718750 0.000000
vt 0.687500 0.000000
vt 0.312500 0.000000
vt 0.656250 0.000000
vt 0.343750 0.000000
vt 0.625000 0.000000
vt 0.375000 0.000000
vt 0.406250 0.000000
vt 0.437500 0.000000
vt 0.468750 0.000000
vt 0.500000 0.000000
vt 0.531250 0.000000
vt 0.562500 0.000000
vt 0.593750 0.000000
vt 0.156250 0.000000
vt 0.187500 0.000000
vt 0.093750 0.000000
vt 0.125000 0.000000
vt 0.031250 0.000000
vt 1.000000 0.000000
vt 0.000000 0.000000
vt 0.062500 0.000000
vt 0.250000 0.000000
vt 0.968750 0.000000
vt 0.937500 0.000000
vt 0.906250 0.000000
vt 0.875000 0.000000
vt 0.843750 0.000000
vt 0.812500 0.000000
vt 0.781250 0.000000
vt 0.750000 0.000000
vt 0.281250 0.000000
vt 0.218750 0.000000
vt 0.718750 0.000000
vt 0.687500 0.000000
vt 0.312500 0.000000
vt 0.656250 0.000000
vt 0.343750 0.000000
vt 0.625000 0.000000
vt 0.375000 0.000000
vt 0.406250 0.000000
vt 0.437500 0.000000
vt 0.468750 0.000000
vt 0.500000 0.000000
vt 0.531250 0.000000
vt 0.562500 0.000000
vt 0.593750 0.000000
vt 0.156250 0.000000
vt 0.187500 0.000000
vt 0.093750 0.000000
vt 0.125000 0.000000
vt 0.000000 1.000000
vt 0.030303 1.000000
vt 0.030303 0.000000
vt 0.000000 0.000000
vt 0.060606 1.000000
vt 0.060606 0.000000
vt 0.090909 1.000000
vt 0.090909 0.000000
vt 0.121212 1.000000
vt 0.121212 0.000000
vt 0.151515 1.000000
vt 0.151515 0.000000
vt 0.181818 1.000000
vt 0.181818 0.000000
vt 0.212121 1.000000
vt 0.212121 0.000000
vt 0.242424 1.000000
vt 0.242424 0.000000
vt 0.272727 1.000000
vt 0.272727 0.000000
vt 0.303030 1.000000
vt 0.303030 0.000000
vt 0.333333 1.000000
vt 0.333333 0.000000
vt 0.363636 1.000000
vt 0.363636 0.000000
vt 0.393939 1.000000
vt 0.393939 0.000000
vt 0.424242 1.000000
vt 0.424242 0.000000
vt 0.454545 1.000000
vt 0.454545 0.000000
vt 0.484848 1.000000
vt 0.484848 0.000000
vt 0.515152 1.000000
vt 0.515152 0.000000
vt 0.545455 1.000000
vt 0.545455 0.000000
vt 0.575758 1.000000
vt 0.575758 0.000000
vt 0.606061 1.000000
vt 0.606061 0.000000
vt 0.636364 1.000000
vt 0.636364 0.000000
vt 0.666667 1.000000
vt 0.666667 0.000000
vt 0.696970 1.000000
vt 0.696970 0.000000
vt 0.727273 1.000000
vt 0.727273 0.000000
vt 0.757576 1.000000
vt 0.757576 0.000000
vt 0.787879 1.000000
vt 0.787879 0.000000
vt 0.818182 1.000000
vt 0.818182 0.000000
vt 0.848485 1.000000
vt 0.848485 0.000000
vt 0.878788 1.000000
vt 0.878788 0.000000
vt 0.909091 1.000000
vt 0.909091 0.000000
vt 0.939394 1.000000
vt 0.939394 0.000000
vt 0.969697 1.000000
vt 0.969697 0.000000
vt 1.000000 1.000000
vt 1.000000 0.000000
vn 0.0000 1.0000 -0.0000
vn 0.0000 1.0000 -0.0001
vn 0.0000 1.0000 0.0001
vn 0.0000 -1.0000 0.0000
vn 0.0000 -1.0000 0.0002
vn -0.2847 0.0000 -0.9586
vn 0.7071 0.0000 -0.7071
vn 0.7071 0.0000 0.7071
vn -0.7071 0.0000 0.7071
vn -0.7071 0.0000 -0.7071
vn -0.4714 0.0000 0.8819
vn 0.5463 0.0000 0.8376
vn 0.5277 0.0000 0.8494
vn 0.5093 0.0000 0.8605
vn 0.4912 0.0000 0.8710
vn 0.4732 0.0000 0.8809
vn 0.4555 0.0000 0.8902
vn 0.4381 0.0000 0.8989
vn 0.4209 0.0000 0.9071
vn 0.4041 0.0000 0.9147
vn 0.3875 0.0000 0.9218
vn 0.3713 0.0000 0.9285
vn -0.4830 0.0000 0.8756
vn -0.8669 0.0000 -0.4985
vn -0.3417 0.0000 -0.9398
vn -0.3647 0.0000 -0.9311
vn -0.3870 0.0000 -0.9221
vn -0.4085 0.0000 -0.9127
vn -0.4292 0.0000 -0.9032
vn -0.4492 0.0000 -0.8934
vn -0.4684 0.0000 -0.8835
vn -0.4868 0.0000 -0.8735
vn -0.5046 0.0000 -0.8633
vn -0.5216 0.0000 -0.8532
vn -0.5379 0.0000 -0.8430
usemtl Number
s off
f 49/29/13 18/30/13 17/31/13
f 49/29/13 19/32/13 18/30/13
f 48/33/13 25/34/13 49/29/13
f 25/34/13 19/32/13 49/29/13
f 47/35/13 25/34/13 48/33/13
f 46/36/13 25/34/13 47/35/13
f 45/37/13 25/34/13 46/36/13
f 44/38/13 25/34/13 45/37/13
f 43/39/13 25/34/13 44/38/13
f 42/40/13 25/34/13 43/39/13
f 41/41/13 25/34/13 42/40/13
f 41/41/13 26/42/13 25/34/13
f 24/43/13 19/32/13 25/34/13
f 40/44/13 26/42/13 41/41/13
f 39/45/13 26/42/13 40/44/13
f 39/45/13 27/46/13 26/42/13
f 38/47/13 27/46/13 39/45/13
f 38/47/13 28/48/13 27/46/13
f 37/49/13 28/48/13 38/47/13
f 37/49/13 29/50/13 28/48/13
f 37/49/13 30/51/13 29/50/13
f 37/49/13 31/52/13 30/51/13
f 37/49/14 32/53/14 31/52/14
f 37/49/13 33/54/13 32/53/13
f 37/49/13 34/55/13 33/54/13
f 37/49/15 35/56/15 34/55/15
f 37/49/13 36/57/13 35/56/13
f 22/58/13 24/43/13 23/59/13
f 22/58/13 19/32/13 24/43/13
f 22/58/13 20/60/13 19/32/13
f 22/58/13 21/61/13 20/60/13
f 51/62/16 82/63/16 50/64/16
f 52/65/16 82/63/16 51/62/16
f 58/66/16 81/67/16 82/63/16
f 52/65/16 58/66/16 82/63/16
f 58/66/16 80/68/16 81/67/16
f 58/66/16 79/69/16 80/68/16
f 58/66/16 78/70/16 79/69/16
f 58/66/16 77/71/16 78/70/16
f 58/66/16 76/72/16 77/71/16
f 58/66/16 75/73/16 76/72/16
f 58/66/16 74/74/16 75/73/16
f 59/75/16 74/74/16 58/66/16
f 52/65/16 57/76/16 58/66/16
f 59/75/16 73/77/16 74/74/16
f 59/75/16 72/78/16 73/77/16
f 60/79/16 72/78/16 59/75/16
f 60/79/16 71/80/16 72/78/16
f 61/81/16 71/80/16 60/79/16
f 61/81/16 70/82/16 71/80/16
f 62/83/16 70/82/16 61/81/16
f 63/84/16 70/82/16 62/83/16
f 64/85/16 70/82/16 63/84/16
f 65/86/16 70/82/16 64/85/16
f 66/87/16 70/82/16 65/86/16
f 67/88/16 70/82/16 66/87/16
f 68/89/17 70/82/17 67/88/17
f 69/90/16 70/82/16 68/89/16
f 57/76/16 55/91/16 56/92/16
f 52/65/16 55/91/16 57/76/16
f 53/93/16 55/91/16 52/65/16
f 54/94/16 55/91/16 53/93/16
s 1
f 84/95/18 86/96/19 85/97/19 83/98/18
f 86/96/19 88/99/19 87/100/19 85/97/19
f 88/99/19 90/101/19 89/102/19 87/100/19
f 90/101/19 92/103/20 91/104/20 89/102/19
f 92/103/20 94/105/21 93/106/21 91/104/20
f 94/105/21 96/107/22 95/108/22 93/106/21
f 96/107/22 98/109/22 97/110/22 95/108/22
f 98/109/22 100/111/23 99/112/23 97/110/22
f 100/111/23 102/113/24 101/114/24 99/112/23
f 102/113/24 104/115/25 103/116/25 101/114/24
f 104/115/25 106/117/26 105/118/26 103/116/25
f 106/117/26 108/119/27 107/120/27 105/118/26
f 108/119/27 110/121/28 109/122/28 107/120/27
f 110/121/28 112/123/29 111/124/29 109/122/28
f 112/123/29 114/125/30 113/126/30 111/124/29
f 114/125/30 116/127/31 115/128/31 113/126/30
f 116/127/31 118/129/32 117/130/32 115/128/31
f 118/129/32 120/131/33 119/132/33 117/130/32
f 120/131/33 122/133/34 121/134/34 119/132/33
f 122/133/34 124/135/35 123/136/35 121/134/34
f 124/135/35 126/137/36 125/138/36 123/136/35
f 126/137/36 128/139/37 127/140/37 125/138/36
f 128/139/37 130/141/38 129/142/38 127/140/37
f 130/141/38 132/143/39 131/144/39 129/142/38
f 132/143/39 134/145/40 133/146/40 131/144/39
f 134/145/40 136/147/41 135/148/41 133/146/40
f 136/147/41 138/149/42 137/150/42 135/148/41
f 138/149/42 140/151/43 139/152/43 137/150/42
f 140/151/43 142/153/44 141/154/44 139/152/43
f 142/153/44 144/155/45 143/156/45 141/154/44
f 144/155/45 146/157/46 145/158/46 143/156/45
f 146/157/46 148/159/47 147/160/47 145/158/46
f 148/159/47 84/161/18 83/162/18 147/160/47
