# Blender v2.90.1 OBJ File: 'buttons.blend'
# www.blender.org
mtllib button9.mtl
o Cube
v 1.088764 -0.010000 -1.242224
v 1.088764 -0.510000 -1.242224
v 1.088764 -0.010000 1.157776
v 1.088764 -0.510000 1.157776
v -1.311236 -0.010000 -1.242224
v -1.311236 -0.510000 -1.242224
v -1.311236 -0.010000 1.157776
v -1.311236 -0.510000 1.157776
vt 0.625000 0.500000
vt 0.875000 0.500000
vt 0.875000 0.750000
vt 0.625000 0.750000
vt 0.375000 0.750000
vt 0.625000 1.000000
vt 0.375000 1.000000
vt 0.375000 0.000000
vt 0.625000 0.000000
vt 0.625000 0.250000
vt 0.375000 0.250000
vt 0.125000 0.500000
vt 0.375000 0.500000
vt 0.125000 0.750000
vn 0.0000 1.0000 0.0000
vn 0.0000 0.0000 1.0000
vn -1.0000 0.0000 0.0000
vn 0.0000 -1.0000 0.0000
vn 1.0000 0.0000 0.0000
vn 0.0000 0.0000 -1.0000
usemtl Button2
s off
f 1/1/1 5/2/1 7/3/1 3/4/1
f 4/5/2 3/4/2 7/6/2 8/7/2
f 8/8/3 7/9/3 5/10/3 6/11/3
f 6/12/4 2/13/4 4/5/4 8/14/4
f 2/13/5 1/1/5 3/4/5 4/5/5
f 6/11/6 5/10/6 1/1/6 2/13/6
o Cube.001
v 0.888764 0.500000 -1.042224
v 0.888764 -0.500000 -1.042224
v 0.888764 0.500000 0.957776
v 0.888764 -0.500000 0.957776
v -1.111236 0.500000 -1.042224
v -1.111236 -0.500000 -1.042224
v -1.111236 0.500000 0.957776
v -1.111236 -0.500000 0.957776
vt 0.625000 0.500000
vt 0.875000 0.500000
vt 0.875000 0.750000
vt 0.625000 0.750000
vt 0.375000 0.750000
vt 0.625000 1.000000
vt 0.375000 1.000000
vt 0.375000 0.000000
vt 0.625000 0.000000
vt 0.625000 0.250000
vt 0.375000 0.250000
vt 0.125000 0.500000
vt 0.375000 0.500000
vt 0.125000 0.750000
vn 0.0000 1.0000 0.0000
vn 0.0000 0.0000 1.0000
vn -1.0000 0.0000 0.0000
vn 0.0000 -1.0000 0.0000
vn 1.0000 0.0000 0.0000
vn 0.0000 0.0000 -1.0000
usemtl Button
s off
f 9/15/7 13/16/7 15/17/7 11/18/7
f 12/19/8 11/18/8 15/20/8 16/21/8
f 16/22/9 15/23/9 13/24/9 14/25/9
f 14/26/10 10/27/10 12/19/10 16/28/10
f 10/27/11 9/15/11 11/18/11 12/19/11
f 14/25/12 13/24/12 9/15/12 10/27/12
o Text
v -0.243968 0.690054 0.345759
v -0.169758 0.690054 0.307121
v -0.162300 0.690054 0.320345
v -0.154238 0.690054 0.332420
v -0.145571 0.690054 0.343344
v -0.136299 0.690054 0.353119
v -0.126422 0.690054 0.361744
v -0.115940 0.690054 0.369218
v -0.104854 0.690054 0.375543
v -0.093162 0.690054 0.380718
v -0.080866 0.690054 0.384743
v -0.067966 0.690054 0.387618
v -0.054460 0.690054 0.389342
v -0.040350 0.690054 0.389917
v -0.022747 0.690054 0.389189
v -0.005919 0.690054 0.387004
v 0.010133 0.690054 0.383363
v 0.025411 0.690054 0.378265
v 0.039913 0.690054 0.371710
v 0.053640 0.690054 0.363699
v 0.066592 0.690054 0.354231
v 0.078768 0.690054 0.343306
v 0.090170 0.690054 0.330925
v 0.100796 0.690054 0.317087
v 0.110648 0.690054 0.301793
v 0.119724 0.690054 0.285042
v 0.127701 0.690054 0.267746
v 0.135074 0.690054 0.248976
v 0.141841 0.690054 0.228732
v 0.148004 0.690054 0.207015
v 0.153562 0.690054 0.183824
v 0.158516 0.690054 0.159160
v 0.162864 0.690054 0.133022
v 0.166608 0.690054 0.105410
v 0.169747 0.690054 0.076325
v 0.172281 0.690054 0.045766
v 0.174210 0.690054 0.013733
v 0.175535 0.690054 -0.019773
v 0.162851 0.690054 0.001778
v 0.149333 0.690054 0.021455
v 0.134980 0.690054 0.039258
v 0.119792 0.690054 0.055187
v 0.103769 0.690054 0.069242
v 0.086912 0.690054 0.081423
v 0.069220 0.690054 0.091730
v 0.050693 0.690054 0.100163
v 0.031331 0.690054 0.106722
v 0.011134 0.690054 0.111407
v -0.009897 0.690054 0.114218
v -0.031763 0.690054 0.115155
v -0.049771 0.690054 0.114546
v -0.067199 0.690054 0.112719
v -0.084048 0.690054 0.109674
v -0.100318 0.690054 0.105410
v -0.116008 0.690054 0.099929
v -0.131119 0.690054 0.093229
v -0.145651 0.690054 0.085312
v -0.159604 0.690054 0.076176
v -0.172978 0.690054 0.065822
v -0.185772 0.690054 0.054250
v -0.197987 0.690054 0.041460
v -0.209623 0.690054 0.027452
v -0.219321 0.690054 0.014198
v -0.228176 0.690054 0.000398
v -0.236187 0.690054 -0.013946
v -0.243355 0.690054 -0.028836
v -0.249680 0.690054 -0.044271
v -0.255161 0.690054 -0.060251
v -0.259799 0.690054 -0.076777
v -0.263594 0.690054 -0.093847
v -0.266546 0.690054 -0.111463
v -0.268654 0.690054 -0.129623
v -0.269919 0.690054 -0.148329
v -0.270341 0.690054 -0.167580
v -0.269783 0.690054 -0.191687
v -0.268109 0.690054 -0.214941
v -0.265319 0.690054 -0.237344
v -0.261414 0.690054 -0.258895
v -0.256392 0.690054 -0.279594
v -0.250255 0.690054 -0.299442
v -0.243001 0.690054 -0.318437
v -0.234632 0.690054 -0.336581
v -0.225147 0.690054 -0.353873
v -0.214547 0.690054 -0.370313
v -0.202830 0.690054 -0.385901
v -0.189997 0.690054 -0.400638
v -0.178408 0.690054 -0.412393
v -0.166334 0.690054 -0.423126
v -0.153774 0.690054 -0.432836
v -0.140728 0.690054 -0.441525
v -0.127197 0.690054 -0.449191
v -0.113180 0.690054 -0.455835
v -0.098678 0.690054 -0.461457
v -0.083690 0.690054 -0.466057
v -0.068217 0.690054 -0.469635
v -0.052258 0.690054 -0.472190
v -0.035814 0.690054 -0.473724
v -0.018884 0.690054 -0.474235
v 0.003255 0.690054 -0.473430
v 0.024491 0.690054 -0.471015
v 0.044823 0.690054 -0.466990
v 0.064253 0.690054 -0.461355
v 0.082780 0.690054 -0.454110
v 0.100405 0.690054 -0.445256
v 0.117126 0.690054 -0.434791
v 0.132944 0.690054 -0.422717
v 0.147859 0.690054 -0.409032
v 0.161872 0.690054 -0.393738
v 0.174981 0.690054 -0.376834
v 0.187188 0.690054 -0.358319
v 0.197571 0.690054 -0.339814
v 0.207052 0.690054 -0.320073
v 0.215630 0.690054 -0.299097
v 0.223305 0.690054 -0.276886
v 0.230077 0.690054 -0.253439
v 0.235946 0.690054 -0.228758
v 0.240912 0.690054 -0.202841
v 0.244975 0.690054 -0.175690
v 0.248135 0.690054 -0.147303
v 0.250393 0.690054 -0.117681
v 0.251747 0.690054 -0.086824
v 0.252199 0.690054 -0.054731
v 0.250167 0.690054 0.027162
v 0.244072 0.690054 0.101935
v 0.233914 0.690054 0.169586
v 0.219693 0.690054 0.230116
v 0.201409 0.690054 0.283525
v 0.179061 0.690054 0.329813
v 0.152651 0.690054 0.368980
v 0.122177 0.690054 0.401025
v 0.087640 0.690054 0.425949
v 0.049040 0.690054 0.443752
v 0.006377 0.690054 0.454434
v -0.040350 0.690054 0.457995
v -0.063596 0.690054 0.457215
v -0.085701 0.690054 0.454877
v -0.106664 0.690054 0.450980
v -0.126486 0.690054 0.445524
v -0.145166 0.690054 0.438509
v -0.162705 0.690054 0.429936
v -0.179102 0.690054 0.419804
v -0.194358 0.690054 0.408112
v -0.208473 0.690054 0.394862
v -0.221446 0.690054 0.380053
v -0.233278 0.690054 0.363686
v -0.021337 0.690054 0.047078
v -0.001911 0.690054 0.046064
v 0.016909 0.690054 0.043023
v 0.035126 0.690054 0.037955
v 0.052737 0.690054 0.030859
v 0.069743 0.690054 0.021736
v 0.086145 0.690054 0.010586
v 0.101942 0.690054 -0.002592
v 0.117134 0.690054 -0.017797
v 0.131722 0.690054 -0.035029
v 0.145704 0.690054 -0.054289
v 0.159082 0.690054 -0.075575
v 0.171855 0.690054 -0.098890
v 0.170986 0.690054 -0.124712
v 0.169402 0.690054 -0.149436
v 0.167102 0.690054 -0.173062
v 0.164086 0.690054 -0.195588
v 0.160356 0.690054 -0.217015
v 0.155909 0.690054 -0.237344
v 0.150747 0.690054 -0.256574
v 0.144869 0.690054 -0.274705
v 0.138276 0.690054 -0.291737
v 0.130968 0.690054 -0.307670
v 0.122944 0.690054 -0.322505
v 0.114204 0.690054 -0.336240
v 0.105988 0.690054 -0.347408
v 0.097287 0.690054 -0.357604
v 0.088100 0.690054 -0.366829
v 0.078428 0.690054 -0.375083
v 0.068270 0.690054 -0.382366
v 0.057626 0.690054 -0.388678
v 0.046497 0.690054 -0.394019
v 0.034883 0.690054 -0.398389
v 0.022783 0.690054 -0.401788
v 0.010197 0.690054 -0.404215
v -0.002874 0.690054 -0.405672
v -0.016431 0.690054 -0.406157
v -0.030464 0.690054 -0.405655
v -0.043944 0.690054 -0.404147
v -0.056871 0.690054 -0.401634
v -0.069243 0.690054 -0.398116
v -0.081062 0.690054 -0.393593
v -0.092328 0.690054 -0.388065
v -0.103039 0.690054 -0.381531
v -0.113197 0.690054 -0.373993
v -0.122801 0.690054 -0.365449
v -0.131852 0.690054 -0.355900
v -0.140349 0.690054 -0.345346
v -0.148292 0.690054 -0.333787
v -0.154757 0.690054 -0.323075
v -0.160661 0.690054 -0.311793
v -0.166001 0.690054 -0.299940
v -0.170780 0.690054 -0.287516
v -0.174997 0.690054 -0.274522
v -0.178651 0.690054 -0.260957
v -0.181743 0.690054 -0.246821
v -0.184273 0.690054 -0.232114
v -0.186241 0.690054 -0.216837
v -0.187646 0.690054 -0.200989
v -0.188489 0.690054 -0.184570
v -0.188771 0.690054 -0.167580
v -0.188404 0.690054 -0.150514
v -0.187305 0.690054 -0.134070
v -0.185474 0.690054 -0.118247
v -0.182910 0.690054 -0.103047
v -0.179613 0.690054 -0.088468
v -0.175584 0.690054 -0.074511
v -0.170823 0.690054 -0.061175
v -0.165328 0.690054 -0.048462
v -0.159102 0.690054 -0.036370
v -0.152142 0.690054 -0.024901
v -0.144450 0.690054 -0.014053
v -0.136026 0.690054 -0.003827
v -0.128296 0.690054 0.004304
v -0.120233 0.690054 0.011727
v -0.111839 0.690054 0.018444
v -0.103112 0.690054 0.024454
v -0.094053 0.690054 0.029756
v -0.084661 0.690054 0.034352
v -0.074938 0.690054 0.038240
v -0.064882 0.690054 0.041422
v -0.054494 0.690054 0.043896
v -0.043774 0.690054 0.045664
v -0.032722 0.690054 0.046724
v -0.243968 0.370054 0.345759
v -0.169758 0.370054 0.307121
v -0.162300 0.370054 0.320345
v -0.154238 0.370054 0.332420
v -0.145571 0.370054 0.343344
v -0.136299 0.370054 0.353119
v -0.126422 0.370054 0.361744
v -0.115940 0.370054 0.369218
v -0.104854 0.370054 0.375543
v -0.093162 0.370054 0.380718
v -0.080866 0.370054 0.384743
v -0.067966 0.370054 0.387618
v -0.054460 0.370054 0.389342
v -0.040350 0.370054 0.389917
v -0.022747 0.370054 0.389189
v -0.005919 0.370054 0.387004
v 0.010133 0.370054 0.383363
v 0.025411 0.370054 0.378265
v 0.039913 0.370054 0.371710
v 0.053640 0.370054 0.363699
v 0.066592 0.370054 0.354231
v 0.078768 0.370054 0.343306
v 0.090170 0.370054 0.330925
v 0.100796 0.370054 0.317087
v 0.110648 0.370054 0.301793
v 0.119724 0.370054 0.285042
v 0.127701 0.370054 0.267746
v 0.135074 0.370054 0.248976
v 0.141841 0.370054 0.228732
v 0.148004 0.370054 0.207015
v 0.153562 0.370054 0.183824
v 0.158516 0.370054 0.159160
v 0.162864 0.370054 0.133022
v 0.166608 0.370054 0.105410
v 0.169747 0.370054 0.076325
v 0.172281 0.370054 0.045766
v 0.174210 0.370054 0.013733
v 0.175535 0.370054 -0.019773
v 0.162851 0.370054 0.001778
v 0.149333 0.370054 0.021455
v 0.134980 0.370054 0.039258
v 0.119792 0.370054 0.055187
v 0.103769 0.370054 0.069242
v 0.086912 0.370054 0.081423
v 0.069220 0.370054 0.091730
v 0.050693 0.370054 0.100163
v 0.031331 0.370054 0.106722
v 0.011134 0.370054 0.111407
v -0.009897 0.370054 0.114218
v -0.031763 0.370054 0.115155
v -0.049771 0.370054 0.114546
v -0.067199 0.370054 0.112719
v -0.084048 0.370054 0.109674
v -0.100318 0.370054 0.105410
v -0.116008 0.370054 0.099929
v -0.131119 0.370054 0.093229
v -0.145651 0.370054 0.085312
v -0.159604 0.370054 0.076176
v -0.172978 0.370054 0.065822
v -0.185772 0.370054 0.054250
v -0.197987 0.370054 0.041460
v -0.209623 0.370054 0.027452
v -0.219321 0.370054 0.014198
v -0.228176 0.370054 0.000398
v -0.236187 0.370054 -0.013946
v -0.243355 0.370054 -0.028836
v -0.249680 0.370054 -0.044271
v -0.255161 0.370054 -0.060251
v -0.259799 0.370054 -0.076777
v -0.263594 0.370054 -0.093847
v -0.266546 0.370054 -0.111463
v -0.268654 0.370054 -0.129623
v -0.269919 0.370054 -0.148329
v -0.270341 0.370054 -0.167580
v -0.269783 0.370054 -0.191687
v -0.268109 0.370054 -0.214941
v -0.265319 0.370054 -0.237344
v -0.261414 0.370054 -0.258895
v -0.256392 0.370054 -0.279594
v -0.250255 0.370054 -0.299442
v -0.243001 0.370054 -0.318437
v -0.234632 0.370054 -0.336581
v -0.225147 0.370054 -0.353873
v -0.214547 0.370054 -0.370313
v -0.202830 0.370054 -0.385901
v -0.189997 0.370054 -0.400638
v -0.178408 0.370054 -0.412393
v -0.166334 0.370054 -0.423126
v -0.153774 0.370054 -0.432836
v -0.140728 0.370054 -0.441525
v -0.127197 0.370054 -0.449191
v -0.113180 0.370054 -0.455835
v -0.098678 0.370054 -0.461457
v -0.083690 0.370054 -0.466057
v -0.068217 0.370054 -0.469635
v -0.052258 0.370054 -0.472190
v -0.035814 0.370054 -0.473724
v -0.018884 0.370054 -0.474235
v 0.003255 0.370054 -0.473430
v 0.024491 0.370054 -0.471015
v 0.044823 0.370054 -0.466990
v 0.064253 0.370054 -0.461355
v 0.082780 0.370054 -0.454110
v 0.100405 0.370054 -0.445256
v 0.117126 0.370054 -0.434791
v 0.132944 0.370054 -0.422717
v 0.147859 0.370054 -0.409032
v 0.161872 0.370054 -0.393738
v 0.174981 0.370054 -0.376834
v 0.187188 0.370054 -0.358319
v 0.197571 0.370054 -0.339814
v 0.207052 0.370054 -0.320073
v 0.215630 0.370054 -0.299097
v 0.223305 0.370054 -0.276886
v 0.230077 0.370054 -0.253439
v 0.235946 0.370054 -0.228758
v 0.240912 0.370054 -0.202841
v 0.244975 0.370054 -0.175690
v 0.248135 0.370054 -0.147303
v 0.250393 0.370054 -0.117681
v 0.251747 0.370054 -0.086824
v 0.252199 0.370054 -0.054731
v 0.250167 0.370054 0.027162
v 0.244072 0.370054 0.101935
v 0.233914 0.370054 0.169586
v 0.219693 0.370054 0.230116
v 0.201409 0.370054 0.283525
v 0.179061 0.370054 0.329813
v 0.152651 0.370054 0.368980
v 0.122177 0.370054 0.401025
v 0.087640 0.370054 0.425949
v 0.049040 0.370054 0.443752
v 0.006377 0.370054 0.454434
v -0.040350 0.370054 0.457995
v -0.063596 0.370054 0.457215
v -0.085701 0.370054 0.454877
v -0.106664 0.370054 0.450980
v -0.126486 0.370054 0.445524
v -0.145166 0.370054 0.438509
v -0.162705 0.370054 0.429936
v -0.179102 0.370054 0.419804
v -0.194358 0.370054 0.408112
v -0.208473 0.370054 0.394862
v -0.221446 0.370054 0.380053
v -0.233278 0.370054 0.363686
v -0.021337 0.370054 0.047078
v -0.001911 0.370054 0.046064
v 0.016909 0.370054 0.043023
v 0.035126 0.370054 0.037955
v 0.052737 0.370054 0.030859
v 0.069743 0.370054 0.021736
v 0.086145 0.370054 0.010586
v 0.101942 0.370054 -0.002592
v 0.117134 0.370054 -0.017797
v 0.131722 0.370054 -0.035029
v 0.145704 0.370054 -0.054289
v 0.159082 0.370054 -0.075575
v 0.171855 0.370054 -0.098890
v 0.170986 0.370054 -0.124712
v 0.169402 0.370054 -0.149436
v 0.167102 0.370054 -0.173062
v 0.164086 0.370054 -0.195588
v 0.160356 0.370054 -0.217015
v 0.155909 0.370054 -0.237344
v 0.150747 0.370054 -0.256574
v 0.144869 0.370054 -0.274705
v 0.138276 0.370054 -0.291737
v 0.130968 0.370054 -0.307670
v 0.122944 0.370054 -0.322505
v 0.114204 0.370054 -0.336240
v 0.105988 0.370054 -0.347408
v 0.097287 0.370054 -0.357604
v 0.088100 0.370054 -0.366829
v 0.078428 0.370054 -0.375083
v 0.068270 0.370054 -0.382366
v 0.057626 0.370054 -0.388678
v 0.046497 0.370054 -0.394019
v 0.034883 0.370054 -0.398389
v 0.022783 0.370054 -0.401788
v 0.010197 0.370054 -0.404215
v -0.002874 0.370054 -0.405672
v -0.016431 0.370054 -0.406157
v -0.030464 0.370054 -0.405655
v -0.043944 0.370054 -0.404147
v -0.056871 0.370054 -0.401634
v -0.069243 0.370054 -0.398116
v -0.081062 0.370054 -0.393593
v -0.092328 0.370054 -0.388065
v -0.103039 0.370054 -0.381531
v -0.113197 0.370054 -0.373993
v -0.122801 0.370054 -0.365449
v -0.131852 0.370054 -0.355900
v -0.140349 0.370054 -0.345346
v -0.148292 0.370054 -0.333787
v -0.154757 0.370054 -0.323075
v -0.160661 0.370054 -0.311793
v -0.166001 0.370054 -0.299940
v -0.170780 0.370054 -0.287516
v -0.174997 0.370054 -0.274522
v -0.178651 0.370054 -0.260957
v -0.181743 0.370054 -0.246821
v -0.184273 0.370054 -0.232114
v -0.186241 0.370054 -0.216837
v -0.187646 0.370054 -0.200989
v -0.188489 0.370054 -0.184570
v -0.188771 0.370054 -0.167580
v -0.188404 0.370054 -0.150514
v -0.187305 0.370054 -0.134070
v -0.185474 0.370054 -0.118247
v -0.182910 0.370054 -0.103047
v -0.179613 0.370054 -0.088468
v -0.175584 0.370054 -0.074511
v -0.170823 0.370054 -0.061175
v -0.165328 0.370054 -0.048462
v -0.159102 0.370054 -0.036370
v -0.152142 0.370054 -0.024901
v -0.144450 0.370054 -0.014053
v -0.136026 0.370054 -0.003827
v -0.128296 0.370054 0.004304
v -0.120233 0.370054 0.011727
v -0.111839 0.370054 0.018444
v -0.103112 0.370054 0.024454
v -0.094053 0.370054 0.029756
v -0.084661 0.370054 0.034352
v -0.074938 0.370054 0.038240
v -0.064882 0.370054 0.041422
v -0.054494 0.370054 0.043896
v -0.043774 0.370054 0.045664
v -0.032722 0.370054 0.046724
v -0.243968 0.370054 0.345759
v -0.243968 0.690054 0.345759
v -0.169758 0.370054 0.307121
v -0.169758 0.690054 0.307121
v -0.162300 0.370054 0.320345
v -0.162300 0.690054 0.320345
v -0.154238 0.370054 0.332420
v -0.154238 0.690054 0.332420
v -0.145571 0.370054 0.343344
v -0.145571 0.690054 0.343344
v -0.136299 0.370054 0.353119
v -0.136299 0.690054 0.353119
v -0.126422 0.370054 0.361744
v -0.126422 0.690054 0.361744
v -0.115940 0.370054 0.369218
v -0.115940 0.690054 0.369218
v -0.104854 0.370054 0.375543
v -0.104854 0.690054 0.375543
v -0.093162 0.370054 0.380718
v -0.093162 0.690054 0.380718
v -0.080866 0.370054 0.384743
v -0.080866 0.690054 0.384743
v -0.067966 0.370054 0.387618
v -0.067966 0.690054 0.387618
v -0.054460 0.370054 0.389342
v -0.054460 0.690054 0.389342
v -0.040350 0.370054 0.389917
v -0.040350 0.690054 0.389917
v -0.022747 0.370054 0.389189
v -0.022747 0.690054 0.389189
v -0.005919 0.370054 0.387004
v -0.005919 0.690054 0.387004
v 0.010133 0.370054 0.383363
v 0.010133 0.690054 0.383363
v 0.025411 0.370054 0.378265
v 0.025411 0.690054 0.378265
v 0.039913 0.370054 0.371710
v 0.039913 0.690054 0.371710
v 0.053640 0.370054 0.363699
v 0.053640 0.690054 0.363699
v 0.066592 0.370054 0.354231
v 0.066592 0.690054 0.354231
v 0.078768 0.370054 0.343306
v 0.078768 0.690054 0.343306
v 0.090170 0.370054 0.330925
v 0.090170 0.690054 0.330925
v 0.100796 0.370054 0.317087
v 0.100796 0.690054 0.317087
v 0.110648 0.370054 0.301793
v 0.110648 0.690054 0.301793
v 0.119724 0.370054 0.285042
v 0.119724 0.690054 0.285042
v 0.127701 0.370054 0.267746
v 0.127701 0.690054 0.267746
v 0.135074 0.370054 0.248976
v 0.135074 0.690054 0.248976
v 0.141841 0.370054 0.228732
v 0.141841 0.690054 0.228732
v 0.148004 0.370054 0.207015
v 0.148004 0.690054 0.207015
v 0.153562 0.370054 0.183824
v 0.153562 0.690054 0.183824
v 0.158516 0.370054 0.159160
v 0.158516 0.690054 0.159160
v 0.162864 0.370054 0.133022
v 0.162864 0.690054 0.133022
v 0.166608 0.370054 0.105410
v 0.166608 0.690054 0.105410
v 0.169747 0.370054 0.076325
v 0.169747 0.690054 0.076325
v 0.172281 0.370054 0.045766
v 0.172281 0.690054 0.045766
v 0.174210 0.370054 0.013733
v 0.174210 0.690054 0.013733
v 0.175535 0.370054 -0.019773
v 0.175535 0.690054 -0.019773
v 0.162851 0.370054 0.001778
v 0.162851 0.690054 0.001778
v 0.149333 0.370054 0.021455
v 0.149333 0.690054 0.021455
v 0.134980 0.370054 0.039258
v 0.134980 0.690054 0.039258
v 0.119792 0.370054 0.055187
v 0.119792 0.690054 0.055187
v 0.103769 0.370054 0.069242
v 0.103769 0.690054 0.069242
v 0.086912 0.370054 0.081423
v 0.086912 0.690054 0.081423
v 0.069220 0.370054 0.091730
v 0.069220 0.690054 0.091730
v 0.050693 0.370054 0.100163
v 0.050693 0.690054 0.100163
v 0.031331 0.370054 0.106722
v 0.031331 0.690054 0.106722
v 0.011134 0.370054 0.111407
v 0.011134 0.690054 0.111407
v -0.009897 0.370054 0.114218
v -0.009897 0.690054 0.114218
v -0.031763 0.370054 0.115155
v -0.031763 0.690054 0.115155
v -0.049771 0.370054 0.114546
v -0.049771 0.690054 0.114546
v -0.067199 0.370054 0.112719
v -0.067199 0.690054 0.112719
v -0.084048 0.370054 0.109674
v -0.084048 0.690054 0.109674
v -0.100318 0.370054 0.105410
v -0.100318 0.690054 0.105410
v -0.116008 0.370054 0.099929
v -0.116008 0.690054 0.099929
v -0.131119 0.370054 0.093229
v -0.131119 0.690054 0.093229
v -0.145651 0.370054 0.085312
v -0.145651 0.690054 0.085312
v -0.159604 0.370054 0.076176
v -0.159604 0.690054 0.076176
v -0.172978 0.370054 0.065822
v -0.172978 0.690054 0.065822
v -0.185772 0.370054 0.054250
v -0.185772 0.690054 0.054250
v -0.197987 0.370054 0.041460
v -0.197987 0.690054 0.041460
v -0.209623 0.370054 0.027452
v -0.209623 0.690054 0.027452
v -0.219321 0.370054 0.014198
v -0.219321 0.690054 0.014198
v -0.228176 0.370054 0.000398
v -0.228176 0.690054 0.000398
v -0.236187 0.370054 -0.013946
v -0.236187 0.690054 -0.013946
v -0.243355 0.370054 -0.028836
v -0.243355 0.690054 -0.028836
v -0.249680 0.370054 -0.044271
v -0.249680 0.690054 -0.044271
v -0.255161 0.370054 -0.060251
v -0.255161 0.690054 -0.060251
v -0.259799 0.370054 -0.076777
v -0.259799 0.690054 -0.076777
v -0.263594 0.370054 -0.093847
v -0.263594 0.690054 -0.093847
v -0.266546 0.370054 -0.111463
v -0.266546 0.690054 -0.111463
v -0.268654 0.370054 -0.129623
v -0.268654 0.690054 -0.129623
v -0.269919 0.370054 -0.148329
v -0.269919 0.690054 -0.148329
v -0.270341 0.370054 -0.167580
v -0.270341 0.690054 -0.167580
v -0.269783 0.370054 -0.191687
v -0.269783 0.690054 -0.191687
v -0.268109 0.370054 -0.214941
v -0.268109 0.690054 -0.214941
v -0.265319 0.370054 -0.237344
v -0.265319 0.690054 -0.237344
v -0.261414 0.370054 -0.258895
v -0.261414 0.690054 -0.258895
v -0.256392 0.370054 -0.279594
v -0.256392 0.690054 -0.279594
v -0.250255 0.370054 -0.299442
v -0.250255 0.690054 -0.299442
v -0.243001 0.370054 -0.318437
v -0.243001 0.690054 -0.318437
v -0.234632 0.370054 -0.336581
v -0.234632 0.690054 -0.336581
v -0.225147 0.370054 -0.353873
v -0.225147 0.690054 -0.353873
v -0.214547 0.370054 -0.370313
v -0.214547 0.690054 -0.370313
v -0.202830 0.370054 -0.385901
v -0.202830 0.690054 -0.385901
v -0.189997 0.370054 -0.400638
v -0.189997 0.690054 -0.400638
v -0.178408 0.370054 -0.412393
v -0.178408 0.690054 -0.412393
v -0.166334 0.370054 -0.423126
v -0.166334 0.690054 -0.423126
v -0.153774 0.370054 -0.432836
v -0.153774 0.690054 -0.432836
v -0.140728 0.370054 -0.441525
v -0.140728 0.690054 -0.441525
v -0.127197 0.370054 -0.449191
v -0.127197 0.690054 -0.449191
v -0.113180 0.370054 -0.455835
v -0.113180 0.690054 -0.455835
v -0.098678 0.370054 -0.461457
v -0.098678 0.690054 -0.461457
v -0.083690 0.370054 -0.466057
v -0.083690 0.690054 -0.466057
v -0.068217 0.370054 -0.469635
v -0.068217 0.690054 -0.469635
v -0.052258 0.370054 -0.472190
v -0.052258 0.690054 -0.472190
v -0.035814 0.370054 -0.473724
v -0.035814 0.690054 -0.473724
v -0.018884 0.370054 -0.474235
v -0.018884 0.690054 -0.474235
v 0.003255 0.370054 -0.473430
v 0.003255 0.690054 -0.473430
v 0.024491 0.370054 -0.471015
v 0.024491 0.690054 -0.471015
v 0.044823 0.370054 -0.466990
v 0.044823 0.690054 -0.466990
v 0.064253 0.370054 -0.461355
v 0.064253 0.690054 -0.461355
v 0.082780 0.370054 -0.454110
v 0.082780 0.690054 -0.454110
v 0.100405 0.370054 -0.445256
v 0.100405 0.690054 -0.445256
v 0.117126 0.370054 -0.434791
v 0.117126 0.690054 -0.434791
v 0.132944 0.370054 -0.422717
v 0.132944 0.690054 -0.422717
v 0.147859 0.370054 -0.409032
v 0.147859 0.690054 -0.409032
v 0.161872 0.370054 -0.393738
v 0.161872 0.690054 -0.393738
v 0.174981 0.370054 -0.376834
v 0.174981 0.690054 -0.376834
v 0.187188 0.370054 -0.358319
v 0.187188 0.690054 -0.358319
v 0.197571 0.370054 -0.339814
v 0.197571 0.690054 -0.339814
v 0.207052 0.370054 -0.320073
v 0.207052 0.690054 -0.320073
v 0.215630 0.370054 -0.299097
v 0.215630 0.690054 -0.299097
v 0.223305 0.370054 -0.276886
v 0.223305 0.690054 -0.276886
v 0.230077 0.370054 -0.253439
v 0.230077 0.690054 -0.253439
v 0.235946 0.370054 -0.228758
v 0.235946 0.690054 -0.228758
v 0.240912 0.370054 -0.202841
v 0.240912 0.690054 -0.202841
v 0.244975 0.370054 -0.175690
v 0.244975 0.690054 -0.175690
v 0.248135 0.370054 -0.147303
v 0.248135 0.690054 -0.147303
v 0.250393 0.370054 -0.117681
v 0.250393 0.690054 -0.117681
v 0.251747 0.370054 -0.086824
v 0.251747 0.690054 -0.086824
v 0.252199 0.370054 -0.054731
v 0.252199 0.690054 -0.054731
v 0.250167 0.370054 0.027162
v 0.250167 0.690054 0.027162
v 0.244072 0.370054 0.101935
v 0.244072 0.690054 0.101935
v 0.233914 0.370054 0.169586
v 0.233914 0.690054 0.169586
v 0.219693 0.370054 0.230116
v 0.219693 0.690054 0.230116
v 0.201409 0.370054 0.283525
v 0.201409 0.690054 0.283525
v 0.179061 0.370054 0.329813
v 0.179061 0.690054 0.329813
v 0.152651 0.370054 0.368980
v 0.152651 0.690054 0.368980
v 0.122177 0.370054 0.401025
v 0.122177 0.690054 0.401025
v 0.087640 0.370054 0.425949
v 0.087640 0.690054 0.425949
v 0.049040 0.370054 0.443752
v 0.049040 0.690054 0.443752
v 0.006377 0.370054 0.454434
v 0.006377 0.690054 0.454434
v -0.040350 0.370054 0.457995
v -0.040350 0.690054 0.457995
v -0.063596 0.370054 0.457215
v -0.063596 0.690054 0.457215
v -0.085701 0.370054 0.454877
v -0.085701 0.690054 0.454877
v -0.106664 0.370054 0.450980
v -0.106664 0.690054 0.450980
v -0.126486 0.370054 0.445524
v -0.126486 0.690054 0.445524
v -0.145166 0.370054 0.438509
v -0.145166 0.690054 0.438509
v -0.162705 0.370054 0.429936
v -0.162705 0.690054 0.429936
v -0.179102 0.370054 0.419804
v -0.179102 0.690054 0.419804
v -0.194358 0.370054 0.408112
v -0.194358 0.690054 0.408112
v -0.208473 0.370054 0.394862
v -0.208473 0.690054 0.394862
v -0.221446 0.370054 0.380053
v -0.221446 0.690054 0.380053
v -0.233278 0.370054 0.363686
v -0.233278 0.690054 0.363686
v -0.021337 0.370054 0.047078
v -0.021337 0.690054 0.047078
v -0.001911 0.370054 0.046064
v -0.001911 0.690054 0.046064
v 0.016909 0.370054 0.043023
v 0.016909 0.690054 0.043023
v 0.035126 0.370054 0.037955
v 0.035126 0.690054 0.037955
v 0.052737 0.370054 0.030859
v 0.052737 0.690054 0.030859
v 0.069743 0.370054 0.021736
v 0.069743 0.690054 0.021736
v 0.086145 0.370054 0.010586
v 0.086145 0.690054 0.010586
v 0.101942 0.370054 -0.002592
v 0.101942 0.690054 -0.002592
v 0.117134 0.370054 -0.017797
v 0.117134 0.690054 -0.017797
v 0.131722 0.370054 -0.035029
v 0.131722 0.690054 -0.035029
v 0.145704 0.370054 -0.054289
v 0.145704 0.690054 -0.054289
v 0.159082 0.370054 -0.075575
v 0.159082 0.690054 -0.075575
v 0.171855 0.370054 -0.098890
v 0.171855 0.690054 -0.098890
v 0.170986 0.370054 -0.124712
v 0.170986 0.690054 -0.124712
v 0.169402 0.370054 -0.149436
v 0.169402 0.690054 -0.149436
v 0.167102 0.370054 -0.173062
v 0.167102 0.690054 -0.173062
v 0.164086 0.370054 -0.195588
v 0.164086 0.690054 -0.195588
v 0.160356 0.370054 -0.217015
v 0.160356 0.690054 -0.217015
v 0.155909 0.370054 -0.237344
v 0.155909 0.690054 -0.237344
v 0.150747 0.370054 -0.256574
v 0.150747 0.690054 -0.256574
v 0.144869 0.370054 -0.274705
v 0.144869 0.690054 -0.274705
v 0.138276 0.370054 -0.291737
v 0.138276 0.690054 -0.291737
v 0.130968 0.370054 -0.307670
v 0.130968 0.690054 -0.307670
v 0.122944 0.370054 -0.322505
v 0.122944 0.690054 -0.322505
v 0.114204 0.370054 -0.336240
v 0.114204 0.690054 -0.336240
v 0.105988 0.370054 -0.347408
v 0.105988 0.690054 -0.347408
v 0.097287 0.370054 -0.357604
v 0.097287 0.690054 -0.357604
v 0.088100 0.370054 -0.366829
v 0.088100 0.690054 -0.366829
v 0.078428 0.370054 -0.375083
v 0.078428 0.690054 -0.375083
v 0.068270 0.370054 -0.382366
v 0.068270 0.690054 -0.382366
v 0.057626 0.370054 -0.388678
v 0.057626 0.690054 -0.388678
v 0.046497 0.370054 -0.394019
v 0.046497 0.690054 -0.394019
v 0.034883 0.370054 -0.398389
v 0.034883 0.690054 -0.398389
v 0.022783 0.370054 -0.401788
v 0.022783 0.690054 -0.401788
v 0.010197 0.370054 -0.404215
v 0.010197 0.690054 -0.404215
v -0.002874 0.370054 -0.405672
v -0.002874 0.690054 -0.405672
v -0.016431 0.370054 -0.406157
v -0.016431 0.690054 -0.406157
v -0.030464 0.370054 -0.405655
v -0.030464 0.690054 -0.405655
v -0.043944 0.370054 -0.404147
v -0.043944 0.690054 -0.404147
v -0.056871 0.370054 -0.401634
v -0.056871 0.690054 -0.401634
v -0.069243 0.370054 -0.398116
v -0.069243 0.690054 -0.398116
v -0.081062 0.370054 -0.393593
v -0.081062 0.690054 -0.393593
v -0.092328 0.370054 -0.388065
v -0.092328 0.690054 -0.388065
v -0.103039 0.370054 -0.381531
v -0.103039 0.690054 -0.381531
v -0.113197 0.370054 -0.373993
v -0.113197 0.690054 -0.373993
v -0.122801 0.370054 -0.365449
v -0.122801 0.690054 -0.365449
v -0.131852 0.370054 -0.355900
v -0.131852 0.690054 -0.355900
v -0.140349 0.370054 -0.345346
v -0.140349 0.690054 -0.345346
v -0.148292 0.370054 -0.333787
v -0.148292 0.690054 -0.333787
v -0.154757 0.370054 -0.323075
v -0.154757 0.690054 -0.323075
v -0.160661 0.370054 -0.311793
v -0.160661 0.690054 -0.311793
v -0.166001 0.370054 -0.299940
v -0.166001 0.690054 -0.299940
v -0.170780 0.370054 -0.287516
v -0.170780 0.690054 -0.287516
v -0.174997 0.370054 -0.274522
v -0.174997 0.690054 -0.274522
v -0.178651 0.370054 -0.260957
v -0.178651 0.690054 -0.260957
v -0.181743 0.370054 -0.246821
v -0.181743 0.690054 -0.246821
v -0.184273 0.370054 -0.232114
v -0.184273 0.690054 -0.232114
v -0.186241 0.370054 -0.216837
v -0.186241 0.690054 -0.216837
v -0.187646 0.370054 -0.200989
v -0.187646 0.690054 -0.200989
v -0.188489 0.370054 -0.184570
v -0.188489 0.690054 -0.184570
v -0.188771 0.370054 -0.167580
v -0.188771 0.690054 -0.167580
v -0.188404 0.370054 -0.150514
v -0.188404 0.690054 -0.150514
v -0.187305 0.370054 -0.134070
v -0.187305 0.690054 -0.134070
v -0.185474 0.370054 -0.118247
v -0.185474 0.690054 -0.118247
v -0.182910 0.370054 -0.103047
v -0.182910 0.690054 -0.103047
v -0.179613 0.370054 -0.088468
v -0.179613 0.690054 -0.088468
v -0.175584 0.370054 -0.074511
v -0.175584 0.690054 -0.074511
v -0.170823 0.370054 -0.061175
v -0.170823 0.690054 -0.061175
v -0.165328 0.370054 -0.048462
v -0.165328 0.690054 -0.048462
v -0.159102 0.370054 -0.036370
v -0.159102 0.690054 -0.036370
v -0.152142 0.370054 -0.024901
v -0.152142 0.690054 -0.024901
v -0.144450 0.370054 -0.014053
v -0.144450 0.690054 -0.014053
v -0.136026 0.370054 -0.003827
v -0.136026 0.690054 -0.003827
v -0.128296 0.370054 0.004304
v -0.128296 0.690054 0.004304
v -0.120233 0.370054 0.011727
v -0.120233 0.690054 0.011727
v -0.111839 0.370054 0.018444
v -0.111839 0.690054 0.018444
v -0.103112 0.370054 0.024454
v -0.103112 0.690054 0.024454
v -0.094053 0.370054 0.029756
v -0.094053 0.690054 0.029756
v -0.084661 0.370054 0.034352
v -0.084661 0.690054 0.034352
v -0.074938 0.370054 0.038240
v -0.074938 0.690054 0.038240
v -0.064882 0.370054 0.041422
v -0.064882 0.690054 0.041422
v -0.054494 0.370054 0.043896
v -0.054494 0.690054 0.043896
v -0.043774 0.370054 0.045664
v -0.043774 0.690054 0.045664
v -0.032722 0.370054 0.046724
v -0.032722 0.690054 0.046724
vt 0.421053 0.000000
vt 0.429825 0.000000
vt 0.425439 0.000000
vt 0.416667 0.000000
vt 0.434211 0.000000
vt 0.412281 0.000000
vt 0.438596 0.000000
vt 0.407895 0.000000
vt 0.442982 0.000000
vt 0.403509 0.000000
vt 0.399123 0.000000
vt 0.447368 0.000000
vt 0.394737 0.000000
vt 0.451754 0.000000
vt 0.390351 0.000000
vt 0.456140 0.000000
vt 0.385965 0.000000
vt 0.460526 0.000000
vt 0.381579 0.000000
vt 0.377193 0.000000
vt 0.464912 0.000000
vt 0.372807 0.000000
vt 0.793860 0.000000
vt 0.789474 0.000000
vt 0.469298 0.000000
vt 0.798246 0.000000
vt 0.785088 0.000000
vt 0.802632 0.000000
vt 0.780702 0.000000
vt 0.807018 0.000000
vt 0.776316 0.000000
vt 0.811404 0.000000
vt 0.368421 0.000000
vt 0.771930 0.000000
vt 0.815789 0.000000
vt 0.767544 0.000000
vt 0.473684 0.000000
vt 0.820175 0.000000
vt 0.763158 0.000000
vt 0.824561 0.000000
vt 0.364035 0.000000
vt 0.758772 0.000000
vt 0.828947 0.000000
vt 0.478070 0.000000
vt 0.754386 0.000000
vt 0.833333 0.000000
vt 0.359649 0.000000
vt 0.750000 0.000000
vt 0.837719 0.000000
vt 0.482456 0.000000
vt 0.745614 0.000000
vt 0.842105 0.000000
vt 0.355263 0.000000
vt 0.741228 0.000000
vt 0.846491 0.000000
vt 0.486842 0.000000
vt 0.350877 0.000000
vt 0.736842 0.000000
vt 0.850877 0.000000
vt 0.855263 0.000000
vt 0.732456 0.000000
vt 0.491228 0.000000
vt 0.346491 0.000000
vt 0.859649 0.000000
vt 0.728070 0.000000
vt 0.864035 0.000000
vt 0.342105 0.000000
vt 0.495614 0.000000
vt 0.723684 0.000000
vt 0.868421 0.000000
vt 0.337719 0.000000
vt 0.500000 0.000000
vt 0.719298 0.000000
vt 0.872807 0.000000
vt 0.877193 0.000000
vt 0.333333 0.000000
vt 0.714912 0.000000
vt 0.504386 0.000000
vt 0.881579 0.000000
vt 0.328947 0.000000
vt 0.710526 0.000000
vt 0.885965 0.000000
vt 0.508772 0.000000
vt 0.706140 0.000000
vt 0.890351 0.000000
vt 0.324561 0.000000
vt 0.513158 0.000000
vt 0.894737 0.000000
vt 0.701754 0.000000
vt 0.320175 0.000000
vt 0.899123 0.000000
vt 0.517544 0.000000
vt 0.697368 0.000000
vt 0.315789 0.000000
vt 0.903509 0.000000
vt 0.907895 0.000000
vt 0.692982 0.000000
vt 0.311404 0.000000
vt 0.521930 0.000000
vt 0.912281 0.000000
vt 0.307018 0.000000
vt 0.688596 0.000000
vt 0.916667 0.000000
vt 0.526316 0.000000
vt 0.302632 0.000000
vt 0.921053 0.000000
vt 0.684211 0.000000
vt 0.298246 0.000000
vt 0.925439 0.000000
vt 0.530702 0.000000
vt 0.293860 0.000000
vt 0.679825 0.000000
vt 0.929825 0.000000
vt 0.934211 0.000000
vt 0.289474 0.000000
vt 0.535088 0.000000
vt 0.675439 0.000000
vt 0.162281 0.000000
vt 0.938596 0.000000
vt 0.285088 0.000000
vt 0.942982 0.000000
vt 0.671053 0.000000
vt 0.280702 0.000000
vt 0.947368 0.000000
vt 0.166667 0.000000
vt 0.157895 0.000000
vt 0.666667 0.000000
vt 0.951754 0.000000
vt 0.276316 0.000000
vt 0.956140 0.000000
vt 0.662281 0.000000
vt 0.271930 0.000000
vt 0.171053 0.000000
vt 0.960526 0.000000
vt 0.657895 0.000000
vt 0.964912 0.000000
vt 0.153509 0.000000
vt 0.267544 0.000000
vt 0.969298 0.000000
vt 0.175439 0.000000
vt 0.653509 0.000000
vt 0.973684 0.000000
vt 0.539474 0.000000
vt 0.263158 0.000000
vt 0.978070 0.000000
vt 0.649123 0.000000
vt 0.982456 0.000000
vt 0.644737 0.000000
vt 0.986842 0.000000
vt 0.179825 0.000000
vt 0.991228 0.000000
vt 0.258772 0.000000
vt 0.640351 0.000000
vt 0.995614 0.000000
vt 1.000000 0.000000
vt 0.149123 0.000000
vt 0.635965 0.000000
vt 0.254386 0.000000
vt 0.184211 0.000000
vt 0.250000 0.000000
vt 0.188596 0.000000
vt 0.245614 0.000000
vt 0.144737 0.000000
vt 0.192982 0.000000
vt 0.241228 0.000000
vt 0.197368 0.000000
vt 0.236842 0.000000
vt 0.232456 0.000000
vt 0.201754 0.000000
vt 0.543860 0.000000
vt 0.228070 0.000000
vt 0.140351 0.000000
vt 0.206140 0.000000
vt 0.223684 0.000000
vt 0.210526 0.000000
vt 0.219298 0.000000
vt 0.214912 0.000000
vt 0.135965 0.000000
vt 0.131579 0.000000
vt 0.548246 0.000000
vt 0.127193 0.000000
vt 0.122807 0.000000
vt 0.118421 0.000000
vt 0.552632 0.000000
vt 0.114035 0.000000
vt 0.109649 0.000000
vt 0.557018 0.000000
vt 0.105263 0.000000
vt 0.100877 0.000000
vt 0.000000 0.000000
vt 0.008772 0.000000
vt 0.004386 0.000000
vt 0.096491 0.000000
vt 0.013158 0.000000
vt 0.561404 0.000000
vt 0.092105 0.000000
vt 0.017544 0.000000
vt 0.087719 0.000000
vt 0.021930 0.000000
vt 0.631579 0.000000
vt 0.026316 0.000000
vt 0.083333 0.000000
vt 0.030702 0.000000
vt 0.627193 0.000000
vt 0.078947 0.000000
vt 0.565789 0.000000
vt 0.035088 0.000000
vt 0.074561 0.000000
vt 0.039474 0.000000
vt 0.070175 0.000000
vt 0.622807 0.000000
vt 0.043860 0.000000
vt 0.065789 0.000000
vt 0.048246 0.000000
vt 0.061404 0.000000
vt 0.052632 0.000000
vt 0.057018 0.000000
vt 0.618421 0.000000
vt 0.570175 0.000000
vt 0.614035 0.000000
vt 0.609649 0.000000
vt 0.574561 0.000000
vt 0.605263 0.000000
vt 0.600877 0.000000
vt 0.578947 0.000000
vt 0.596491 0.000000
vt 0.592105 0.000000
vt 0.583333 0.000000
vt 0.587719 0.000000
vt 0.429825 0.000000
vt 0.421053 0.000000
vt 0.425439 0.000000
vt 0.416667 0.000000
vt 0.434211 0.000000
vt 0.412281 0.000000
vt 0.438596 0.000000
vt 0.407895 0.000000
vt 0.442982 0.000000
vt 0.403509 0.000000
vt 0.399123 0.000000
vt 0.447368 0.000000
vt 0.394737 0.000000
vt 0.451754 0.000000
vt 0.390351 0.000000
vt 0.456140 0.000000
vt 0.385965 0.000000
vt 0.460526 0.000000
vt 0.381579 0.000000
vt 0.377193 0.000000
vt 0.464912 0.000000
vt 0.793860 0.000000
vt 0.372807 0.000000
vt 0.789474 0.000000
vt 0.469298 0.000000
vt 0.798246 0.000000
vt 0.785088 0.000000
vt 0.802632 0.000000
vt 0.780702 0.000000
vt 0.807018 0.000000
vt 0.776316 0.000000
vt 0.811404 0.000000
vt 0.368421 0.000000
vt 0.771930 0.000000
vt 0.815789 0.000000
vt 0.767544 0.000000
vt 0.473684 0.000000
vt 0.820175 0.000000
vt 0.763158 0.000000
vt 0.824561 0.000000
vt 0.364035 0.000000
vt 0.758772 0.000000
vt 0.828947 0.000000
vt 0.478070 0.000000
vt 0.754386 0.000000
vt 0.833333 0.000000
vt 0.359649 0.000000
vt 0.750000 0.000000
vt 0.837719 0.000000
vt 0.482456 0.000000
vt 0.745614 0.000000
vt 0.842105 0.000000
vt 0.355263 0.000000
vt 0.741228 0.000000
vt 0.846491 0.000000
vt 0.486842 0.000000
vt 0.350877 0.000000
vt 0.736842 0.000000
vt 0.850877 0.000000
vt 0.855263 0.000000
vt 0.732456 0.000000
vt 0.491228 0.000000
vt 0.346491 0.000000
vt 0.859649 0.000000
vt 0.728070 0.000000
vt 0.864035 0.000000
vt 0.342105 0.000000
vt 0.495614 0.000000
vt 0.723684 0.000000
vt 0.868421 0.000000
vt 0.337719 0.000000
vt 0.500000 0.000000
vt 0.719298 0.000000
vt 0.872807 0.000000
vt 0.877193 0.000000
vt 0.333333 0.000000
vt 0.714912 0.000000
vt 0.504386 0.000000
vt 0.881579 0.000000
vt 0.328947 0.000000
vt 0.710526 0.000000
vt 0.885965 0.000000
vt 0.508772 0.000000
vt 0.706140 0.000000
vt 0.890351 0.000000
vt 0.324561 0.000000
vt 0.513158 0.000000
vt 0.894737 0.000000
vt 0.701754 0.000000
vt 0.320175 0.000000
vt 0.899123 0.000000
vt 0.517544 0.000000
vt 0.697368 0.000000
vt 0.315789 0.000000
vt 0.903509 0.000000
vt 0.907895 0.000000
vt 0.692982 0.000000
vt 0.311404 0.000000
vt 0.521930 0.000000
vt 0.912281 0.000000
vt 0.307018 0.000000
vt 0.688596 0.000000
vt 0.916667 0.000000
vt 0.526316 0.000000
vt 0.302632 0.000000
vt 0.921053 0.000000
vt 0.684211 0.000000
vt 0.298246 0.000000
vt 0.925439 0.000000
vt 0.530702 0.000000
vt 0.293860 0.000000
vt 0.679825 0.000000
vt 0.929825 0.000000
vt 0.934211 0.000000
vt 0.289474 0.000000
vt 0.535088 0.000000
vt 0.162281 0.000000
vt 0.675439 0.000000
vt 0.938596 0.000000
vt 0.285088 0.000000
vt 0.942982 0.000000
vt 0.671053 0.000000
vt 0.280702 0.000000
vt 0.947368 0.000000
vt 0.166667 0.000000
vt 0.157895 0.000000
vt 0.666667 0.000000
vt 0.951754 0.000000
vt 0.276316 0.000000
vt 0.956140 0.000000
vt 0.662281 0.000000
vt 0.271930 0.000000
vt 0.171053 0.000000
vt 0.960526 0.000000
vt 0.657895 0.000000
vt 0.964912 0.000000
vt 0.153509 0.000000
vt 0.267544 0.000000
vt 0.969298 0.000000
vt 0.175439 0.000000
vt 0.653509 0.000000
vt 0.973684 0.000000
vt 0.539474 0.000000
vt 0.263158 0.000000
vt 0.978070 0.000000
vt 0.649123 0.000000
vt 0.982456 0.000000
vt 0.644737 0.000000
vt 0.986842 0.000000
vt 0.179825 0.000000
vt 0.991228 0.000000
vt 0.258772 0.000000
vt 0.640351 0.000000
vt 0.995614 0.000000
vt 1.000000 0.000000
vt 0.149123 0.000000
vt 0.635965 0.000000
vt 0.254386 0.000000
vt 0.184211 0.000000
vt 0.250000 0.000000
vt 0.188596 0.000000
vt 0.245614 0.000000
vt 0.144737 0.000000
vt 0.192982 0.000000
vt 0.241228 0.000000
vt 0.197368 0.000000
vt 0.236842 0.000000
vt 0.232456 0.000000
vt 0.201754 0.000000
vt 0.543860 0.000000
vt 0.228070 0.000000
vt 0.140351 0.000000
vt 0.206140 0.000000
vt 0.223684 0.000000
vt 0.210526 0.000000
vt 0.219298 0.000000
vt 0.214912 0.000000
vt 0.135965 0.000000
vt 0.131579 0.000000
vt 0.548246 0.000000
vt 0.127193 0.000000
vt 0.122807 0.000000
vt 0.118421 0.000000
vt 0.552632 0.000000
vt 0.114035 0.000000
vt 0.109649 0.000000
vt 0.557018 0.000000
vt 0.105263 0.000000
vt 0.100877 0.000000
vt 0.008772 0.000000
vt 0.000000 0.000000
vt 0.004386 0.000000
vt 0.096491 0.000000
vt 0.013158 0.000000
vt 0.561404 0.000000
vt 0.092105 0.000000
vt 0.017544 0.000000
vt 0.087719 0.000000
vt 0.021930 0.000000
vt 0.631579 0.000000
vt 0.026316 0.000000
vt 0.083333 0.000000
vt 0.030702 0.000000
vt 0.627193 0.000000
vt 0.078947 0.000000
vt 0.565789 0.000000
vt 0.035088 0.000000
vt 0.074561 0.000000
vt 0.039474 0.000000
vt 0.070175 0.000000
vt 0.622807 0.000000
vt 0.043860 0.000000
vt 0.065789 0.000000
vt 0.048246 0.000000
vt 0.061404 0.000000
vt 0.052632 0.000000
vt 0.057018 0.000000
vt 0.618421 0.000000
vt 0.570175 0.000000
vt 0.614035 0.000000
vt 0.609649 0.000000
vt 0.574561 0.000000
vt 0.605263 0.000000
vt 0.600877 0.000000
vt 0.578947 0.000000
vt 0.596491 0.000000
vt 0.592105 0.000000
vt 0.583333 0.000000
vt 0.587719 0.000000
vt 0.000000 1.000000
vt 0.006897 1.000000
vt 0.006897 0.000000
vt 0.000000 0.000000
vt 0.013793 1.000000
vt 0.013793 0.000000
vt 0.020690 1.000000
vt 0.020690 0.000000
vt 0.027586 1.000000
vt 0.027586 0.000000
vt 0.034483 1.000000
vt 0.034483 0.000000
vt 0.041379 1.000000
vt 0.041379 0.000000
vt 0.048276 1.000000
vt 0.048276 0.000000
vt 0.055172 1.000000
vt 0.055172 0.000000
vt 0.062069 1.000000
vt 0.062069 0.000000
vt 0.068966 1.000000
vt 0.068966 0.000000
vt 0.075862 1.000000
vt 0.075862 0.000000
vt 0.082759 1.000000
vt 0.082759 0.000000
vt 0.089655 1.000000
vt 0.089655 0.000000
vt 0.096552 1.000000
vt 0.096552 0.000000
vt 0.103448 1.000000
vt 0.103448 0.000000
vt 0.110345 1.000000
vt 0.110345 0.000000
vt 0.117241 1.000000
vt 0.117241 0.000000
vt 0.124138 1.000000
vt 0.124138 0.000000
vt 0.131034 1.000000
vt 0.131034 0.000000
vt 0.137931 1.000000
vt 0.137931 0.000000
vt 0.144828 1.000000
vt 0.144828 0.000000
vt 0.151724 1.000000
vt 0.151724 0.000000
vt 0.158621 1.000000
vt 0.158621 0.000000
vt 0.165517 1.000000
vt 0.165517 0.000000
vt 0.172414 1.000000
vt 0.172414 0.000000
vt 0.179310 1.000000
vt 0.179310 0.000000
vt 0.186207 1.000000
vt 0.186207 0.000000
vt 0.193103 1.000000
vt 0.193103 0.000000
vt 0.200000 1.000000
vt 0.200000 0.000000
vt 0.206897 1.000000
vt 0.206897 0.000000
vt 0.213793 1.000000
vt 0.213793 0.000000
vt 0.220690 1.000000
vt 0.220690 0.000000
vt 0.227586 1.000000
vt 0.227586 0.000000
vt 0.234483 1.000000
vt 0.234483 0.000000
vt 0.241379 1.000000
vt 0.241379 0.000000
vt 0.248276 1.000000
vt 0.248276 0.000000
vt 0.255172 1.000000
vt 0.255172 0.000000
vt 0.262069 1.000000
vt 0.262069 0.000000
vt 0.268966 1.000000
vt 0.268966 0.000000
vt 0.275862 1.000000
vt 0.275862 0.000000
vt 0.282759 1.000000
vt 0.282759 0.000000
vt 0.289655 1.000000
vt 0.289655 0.000000
vt 0.296552 1.000000
vt 0.296552 0.000000
vt 0.303448 1.000000
vt 0.303448 0.000000
vt 0.310345 1.000000
vt 0.310345 0.000000
vt 0.317241 1.000000
vt 0.317241 0.000000
vt 0.324138 1.000000
vt 0.324138 0.000000
vt 0.331034 1.000000
vt 0.331034 0.000000
vt 0.337931 1.000000
vt 0.337931 0.000000
vt 0.344828 1.000000
vt 0.344828 0.000000
vt 0.351724 1.000000
vt 0.351724 0.000000
vt 0.358621 1.000000
vt 0.358621 0.000000
vt 0.365517 1.000000
vt 0.365517 0.000000
vt 0.372414 1.000000
vt 0.372414 0.000000
vt 0.379310 1.000000
vt 0.379310 0.000000
vt 0.386207 1.000000
vt 0.386207 0.000000
vt 0.393103 1.000000
vt 0.393103 0.000000
vt 0.400000 1.000000
vt 0.400000 0.000000
vt 0.406897 1.000000
vt 0.406897 0.000000
vt 0.413793 1.000000
vt 0.413793 0.000000
vt 0.420690 1.000000
vt 0.420690 0.000000
vt 0.427586 1.000000
vt 0.427586 0.000000
vt 0.434483 1.000000
vt 0.434483 0.000000
vt 0.441379 1.000000
vt 0.441379 0.000000
vt 0.448276 1.000000
vt 0.448276 0.000000
vt 0.455172 1.000000
vt 0.455172 0.000000
vt 0.462069 1.000000
vt 0.462069 0.000000
vt 0.468966 1.000000
vt 0.468966 0.000000
vt 0.475862 1.000000
vt 0.475862 0.000000
vt 0.482759 1.000000
vt 0.482759 0.000000
vt 0.489655 1.000000
vt 0.489655 0.000000
vt 0.496552 1.000000
vt 0.496552 0.000000
vt 0.503448 1.000000
vt 0.503448 0.000000
vt 0.510345 1.000000
vt 0.510345 0.000000
vt 0.517241 1.000000
vt 0.517241 0.000000
vt 0.524138 1.000000
vt 0.524138 0.000000
vt 0.531034 1.000000
vt 0.531034 0.000000
vt 0.537931 1.000000
vt 0.537931 0.000000
vt 0.544828 1.000000
vt 0.544828 0.000000
vt 0.551724 1.000000
vt 0.551724 0.000000
vt 0.558621 1.000000
vt 0.558621 0.000000
vt 0.565517 1.000000
vt 0.565517 0.000000
vt 0.572414 1.000000
vt 0.572414 0.000000
vt 0.579310 1.000000
vt 0.579310 0.000000
vt 0.586207 1.000000
vt 0.586207 0.000000
vt 0.593103 1.000000
vt 0.593103 0.000000
vt 0.600000 1.000000
vt 0.600000 0.000000
vt 0.606897 1.000000
vt 0.606897 0.000000
vt 0.613793 1.000000
vt 0.613793 0.000000
vt 0.620690 1.000000
vt 0.620690 0.000000
vt 0.627586 1.000000
vt 0.627586 0.000000
vt 0.634483 1.000000
vt 0.634483 0.000000
vt 0.641379 1.000000
vt 0.641379 0.000000
vt 0.648276 1.000000
vt 0.648276 0.000000
vt 0.655172 1.000000
vt 0.655172 0.000000
vt 0.662069 1.000000
vt 0.662069 0.000000
vt 0.668966 1.000000
vt 0.668966 0.000000
vt 0.675862 1.000000
vt 0.675862 0.000000
vt 0.682759 1.000000
vt 0.682759 0.000000
vt 0.689655 1.000000
vt 0.689655 0.000000
vt 0.696552 1.000000
vt 0.696552 0.000000
vt 0.703448 1.000000
vt 0.703448 0.000000
vt 0.710345 1.000000
vt 0.710345 0.000000
vt 0.717241 1.000000
vt 0.717241 0.000000
vt 0.724138 1.000000
vt 0.724138 0.000000
vt 0.731034 1.000000
vt 0.731034 0.000000
vt 0.737931 1.000000
vt 0.737931 0.000000
vt 0.744828 1.000000
vt 0.744828 0.000000
vt 0.751724 1.000000
vt 0.751724 0.000000
vt 0.758621 1.000000
vt 0.758621 0.000000
vt 0.765517 1.000000
vt 0.765517 0.000000
vt 0.772414 1.000000
vt 0.772414 0.000000
vt 0.779310 1.000000
vt 0.779310 0.000000
vt 0.786207 1.000000
vt 0.786207 0.000000
vt 0.793103 1.000000
vt 0.793103 0.000000
vt 0.800000 1.000000
vt 0.800000 0.000000
vt 0.806897 1.000000
vt 0.806897 0.000000
vt 0.813793 1.000000
vt 0.813793 0.000000
vt 0.820690 1.000000
vt 0.820690 0.000000
vt 0.827586 1.000000
vt 0.827586 0.000000
vt 0.834483 1.000000
vt 0.834483 0.000000
vt 0.841379 1.000000
vt 0.841379 0.000000
vt 0.848276 1.000000
vt 0.848276 0.000000
vt 0.855172 1.000000
vt 0.855172 0.000000
vt 0.862069 1.000000
vt 0.862069 0.000000
vt 0.868966 1.000000
vt 0.868966 0.000000
vt 0.875862 1.000000
vt 0.875862 0.000000
vt 0.882759 1.000000
vt 0.882759 0.000000
vt 0.889655 1.000000
vt 0.889655 0.000000
vt 0.896552 1.000000
vt 0.896552 0.000000
vt 0.903448 1.000000
vt 0.903448 0.000000
vt 0.910345 1.000000
vt 0.910345 0.000000
vt 0.917241 1.000000
vt 0.917241 0.000000
vt 0.924138 1.000000
vt 0.924138 0.000000
vt 0.931035 1.000000
vt 0.931035 0.000000
vt 0.937931 1.000000
vt 0.937931 0.000000
vt 0.944828 1.000000
vt 0.944828 0.000000
vt 0.951724 1.000000
vt 0.951724 0.000000
vt 0.958621 1.000000
vt 0.958621 0.000000
vt 0.965517 1.000000
vt 0.965517 0.000000
vt 0.972414 1.000000
vt 0.972414 0.000000
vt 0.979310 1.000000
vt 0.979310 0.000000
vt 0.986207 1.000000
vt 0.986207 0.000000
vt 0.993103 1.000000
vt 0.993103 0.000000
vt 1.000000 1.000000
vt 1.000000 0.000000
vt 0.000000 1.000000
vt 0.011905 1.000000
vt 0.011905 0.000000
vt 0.000000 0.000000
vt 0.023810 1.000000
vt 0.023810 0.000000
vt 0.035714 1.000000
vt 0.035714 0.000000
vt 0.047619 1.000000
vt 0.047619 0.000000
vt 0.059524 1.000000
vt 0.059524 0.000000
vt 0.071429 1.000000
vt 0.071429 0.000000
vt 0.083333 1.000000
vt 0.083333 0.000000
vt 0.095238 1.000000
vt 0.095238 0.000000
vt 0.107143 1.000000
vt 0.107143 0.000000
vt 0.119048 1.000000
vt 0.119048 0.000000
vt 0.130952 1.000000
vt 0.130952 0.000000
vt 0.142857 1.000000
vt 0.142857 0.000000
vt 0.154762 1.000000
vt 0.154762 0.000000
vt 0.166667 1.000000
vt 0.166667 0.000000
vt 0.178571 1.000000
vt 0.178571 0.000000
vt 0.190476 1.000000
vt 0.190476 0.000000
vt 0.202381 1.000000
vt 0.202381 0.000000
vt 0.214286 1.000000
vt 0.214286 0.000000
vt 0.226190 1.000000
vt 0.226190 0.000000
vt 0.238095 1.000000
vt 0.238095 0.000000
vt 0.250000 1.000000
vt 0.250000 0.000000
vt 0.261905 1.000000
vt 0.261905 0.000000
vt 0.273810 1.000000
vt 0.273810 0.000000
vt 0.285714 1.000000
vt 0.285714 0.000000
vt 0.297619 1.000000
vt 0.297619 0.000000
vt 0.309524 1.000000
vt 0.309524 0.000000
vt 0.321429 1.000000
vt 0.321429 0.000000
vt 0.333333 1.000000
vt 0.333333 0.000000
vt 0.345238 1.000000
vt 0.345238 0.000000
vt 0.357143 1.000000
vt 0.357143 0.000000
vt 0.369048 1.000000
vt 0.369048 0.000000
vt 0.380952 1.000000
vt 0.380952 0.000000
vt 0.392857 1.000000
vt 0.392857 0.000000
vt 0.404762 1.000000
vt 0.404762 0.000000
vt 0.416667 1.000000
vt 0.416667 0.000000
vt 0.428571 1.000000
vt 0.428571 0.000000
vt 0.440476 1.000000
vt 0.440476 0.000000
vt 0.452381 1.000000
vt 0.452381 0.000000
vt 0.464286 1.000000
vt 0.464286 0.000000
vt 0.476190 1.000000
vt 0.476190 0.000000
vt 0.488095 1.000000
vt 0.488095 0.000000
vt 0.500000 1.000000
vt 0.500000 0.000000
vt 0.511905 1.000000
vt 0.511905 0.000000
vt 0.523810 1.000000
vt 0.523810 0.000000
vt 0.535714 1.000000
vt 0.535714 0.000000
vt 0.547619 1.000000
vt 0.547619 0.000000
vt 0.559524 1.000000
vt 0.559524 0.000000
vt 0.571429 1.000000
vt 0.571429 0.000000
vt 0.583333 1.000000
vt 0.583333 0.000000
vt 0.595238 1.000000
vt 0.595238 0.000000
vt 0.607143 1.000000
vt 0.607143 0.000000
vt 0.619048 1.000000
vt 0.619048 0.000000
vt 0.630952 1.000000
vt 0.630952 0.000000
vt 0.642857 1.000000
vt 0.642857 0.000000
vt 0.654762 1.000000
vt 0.654762 0.000000
vt 0.666667 1.000000
vt 0.666667 0.000000
vt 0.678571 1.000000
vt 0.678571 0.000000
vt 0.690476 1.000000
vt 0.690476 0.000000
vt 0.702381 1.000000
vt 0.702381 0.000000
vt 0.714286 1.000000
vt 0.714286 0.000000
vt 0.726190 1.000000
vt 0.726190 0.000000
vt 0.738095 1.000000
vt 0.738095 0.000000
vt 0.750000 1.000000
vt 0.750000 0.000000
vt 0.761905 1.000000
vt 0.761905 0.000000
vt 0.773810 1.000000
vt 0.773810 0.000000
vt 0.785714 1.000000
vt 0.785714 0.000000
vt 0.797619 1.000000
vt 0.797619 0.000000
vt 0.809524 1.000000
vt 0.809524 0.000000
vt 0.821429 1.000000
vt 0.821429 0.000000
vt 0.833333 1.000000
vt 0.833333 0.000000
vt 0.845238 1.000000
vt 0.845238 0.000000
vt 0.857143 1.000000
vt 0.857143 0.000000
vt 0.869048 1.000000
vt 0.869048 0.000000
vt 0.880952 1.000000
vt 0.880952 0.000000
vt 0.892857 1.000000
vt 0.892857 0.000000
vt 0.904762 1.000000
vt 0.904762 0.000000
vt 0.916667 1.000000
vt 0.916667 0.000000
vt 0.928571 1.000000
vt 0.928571 0.000000
vt 0.940476 1.000000
vt 0.940476 0.000000
vt 0.952381 1.000000
vt 0.952381 0.000000
vt 0.964286 1.000000
vt 0.964286 0.000000
vt 0.976190 1.000000
vt 0.976190 0.000000
vt 0.988095 1.000000
vt 0.988095 0.000000
vt 1.000000 1.000000
vt 1.000000 0.000000
vn 0.0000 1.0000 0.0001
vn 0.0000 1.0000 0.0000
vn 0.0000 1.0000 0.0004
vn 0.0000 1.0000 -0.0001
vn 0.0000 -1.0000 0.0000
vn 0.0000 -1.0000 0.0001
vn -0.9620 0.0000 -0.2730
vn 0.2846 0.0000 -0.9586
vn 0.8519 0.0000 -0.5236
vn 0.8082 0.0000 -0.5889
vn 0.7552 0.0000 -0.6555
vn 0.6924 0.0000 -0.7215
vn 0.6199 0.0000 -0.7846
vn 0.5387 0.0000 -0.8424
vn 0.4507 0.0000 -0.8926
vn 0.3583 0.0000 -0.9336
vn 0.2646 0.0000 -0.9644
vn 0.1723 0.0000 -0.9850
vn 0.0838 0.0000 -0.9965
vn -0.0003 0.0000 -1.0000
vn -0.0851 0.0000 -0.9964
vn -0.1752 0.0000 -0.9845
vn -0.2692 0.0000 -0.9631
vn -0.3647 0.0000 -0.9311
vn -0.4586 0.0000 -0.8886
vn -0.5478 0.0000 -0.8366
vn -0.6297 0.0000 -0.7768
vn -0.7025 0.0000 -0.7117
vn -0.7651 0.0000 -0.6438
vn -0.8176 0.0000 -0.5758
vn -0.8606 0.0000 -0.5093
vn -0.8941 0.0000 -0.4478
vn -0.9198 0.0000 -0.3923
vn -0.9399 0.0000 -0.3414
vn -0.9554 0.0000 -0.2951
vn -0.9674 0.0000 -0.2531
vn -0.9766 0.0000 -0.2150
vn -0.9836 0.0000 -0.1805
vn -0.9888 0.0000 -0.1492
vn -0.9926 0.0000 -0.1208
vn -0.9955 0.0000 -0.0950
vn -0.9974 0.0000 -0.0714
vn -0.9987 0.0000 -0.0498
vn -0.2818 0.0000 0.9594
vn 0.8435 0.0000 0.5370
vn 0.8019 0.0000 0.5974
vn 0.7518 0.0000 0.6594
vn 0.6923 0.0000 0.7216
vn 0.6232 0.0000 0.7820
vn 0.5452 0.0000 0.8383
vn 0.4594 0.0000 0.8882
vn 0.3680 0.0000 0.9298
vn 0.2737 0.0000 0.9618
vn 0.1794 0.0000 0.9838
vn 0.0877 0.0000 0.9961
vn 0.0045 0.0000 1.0000
vn -0.0691 0.0000 0.9976
vn -0.1411 0.0000 0.9900
vn -0.2158 0.0000 0.9764
vn -0.2918 0.0000 0.9565
vn -0.3678 0.0000 0.9299
vn -0.4422 0.0000 0.8969
vn -0.5135 0.0000 0.8581
vn -0.5804 0.0000 0.8143
vn -0.6419 0.0000 0.7667
vn -0.6974 0.0000 0.7166
vn -0.7466 0.0000 0.6652
vn -0.7885 0.0000 0.6150
vn -0.8247 0.0000 0.5655
vn -0.8577 0.0000 0.5141
vn -0.8874 0.0000 0.4609
vn -0.9136 0.0000 0.4066
vn -0.9360 0.0000 0.3519
vn -0.9547 0.0000 0.2974
vn -0.9698 0.0000 0.2437
vn -0.9815 0.0000 0.1912
vn -0.9901 0.0000 0.1403
vn -0.9958 0.0000 0.0914
vn -0.9990 0.0000 0.0447
vn -1.0000 0.0000 -0.0006
vn -0.9989 0.0000 -0.0475
vn -0.9952 0.0000 -0.0977
vn -0.9885 0.0000 -0.1510
vn -0.9783 0.0000 -0.2071
vn -0.9640 0.0000 -0.2657
vn -0.9453 0.0000 -0.3262
vn -0.9216 0.0000 -0.3880
vn -0.8929 0.0000 -0.4501
vn -0.8591 0.0000 -0.5117
vn -0.8204 0.0000 -0.5717
vn -0.7772 0.0000 -0.6292
vn -0.7335 0.0000 -0.6797
vn -0.6886 0.0000 -0.7251
vn -0.6384 0.0000 -0.7697
vn -0.5833 0.0000 -0.8122
vn -0.5240 0.0000 -0.8517
vn -0.4609 0.0000 -0.8874
vn -0.3952 0.0000 -0.9186
vn -0.3276 0.0000 -0.9448
vn -0.2595 0.0000 -0.9657
vn -0.1918 0.0000 -0.9814
vn -0.1255 0.0000 -0.9921
vn -0.0615 0.0000 -0.9981
vn 0.0031 0.0000 -1.0000
vn 0.0747 0.0000 -0.9972
vn 0.1537 0.0000 -0.9881
vn 0.2365 0.0000 -0.9716
vn 0.3217 0.0000 -0.9468
vn 0.4070 0.0000 -0.9134
vn 0.4902 0.0000 -0.8715
vn 0.5692 0.0000 -0.8221
vn 0.6420 0.0000 -0.7666
vn 0.7073 0.0000 -0.7068
vn 0.7644 0.0000 -0.6447
vn 0.8131 0.0000 -0.5820
vn 0.8540 0.0000 -0.5202
vn 0.8872 0.0000 -0.4613
vn 0.9139 0.0000 -0.4059
vn 0.9357 0.0000 -0.3527
vn 0.9532 0.0000 -0.3021
vn 0.9671 0.0000 -0.2545
vn 0.9777 0.0000 -0.2098
vn 0.9857 0.0000 -0.1681
vn 0.9916 0.0000 -0.1293
vn 0.9956 0.0000 -0.0933
vn 0.9982 0.0000 -0.0599
vn 0.9996 0.0000 -0.0290
vn 1.0000 0.0000 0.0053
vn 0.9986 0.0000 0.0530
vn 0.9933 0.0000 0.1149
vn 0.9820 0.0000 0.1888
vn 0.9610 0.0000 0.2766
vn 0.9250 0.0000 0.3800
vn 0.8670 0.0000 0.4982
vn 0.7796 0.0000 0.6263
vn 0.6577 0.0000 0.7532
vn 0.5043 0.0000 0.8635
vn 0.3323 0.0000 0.9432
vn 0.1600 0.0000 0.9871
vn 0.0212 0.0000 0.9998
vn -0.0694 0.0000 0.9976
vn -0.1441 0.0000 0.9896
vn -0.2243 0.0000 0.9745
vn -0.3088 0.0000 0.9511
vn -0.3958 0.0000 0.9183
vn -0.4830 0.0000 0.8756
vn -0.5677 0.0000 0.8232
vn -0.6471 0.0000 0.7624
vn -0.7191 0.0000 0.6948
vn -0.7822 0.0000 0.6231
vn -0.8354 0.0000 0.5495
vn -0.0105 0.0000 -0.9999
vn -0.1060 0.0000 -0.9944
vn -0.2141 0.0000 -0.9768
vn -0.3214 0.0000 -0.9469
vn -0.4238 0.0000 -0.9057
vn -0.5181 0.0000 -0.8553
vn -0.6021 0.0000 -0.7984
vn -0.6747 0.0000 -0.7381
vn -0.7359 0.0000 -0.6770
vn -0.7868 0.0000 -0.6172
vn -0.8284 0.0000 -0.5601
vn -0.8622 0.0000 -0.5065
vn -0.9728 0.0000 -0.2316
vn -0.9988 0.0000 0.0488
vn -0.9967 0.0000 0.0804
vn -0.9934 0.0000 0.1148
vn -0.9883 0.0000 0.1521
vn -0.9813 0.0000 0.1926
vn -0.9716 0.0000 0.2365
vn -0.9588 0.0000 0.2839
vn -0.9423 0.0000 0.3348
vn -0.9212 0.0000 0.3891
vn -0.8947 0.0000 0.4466
vn -0.8621 0.0000 0.5066
vn -0.8251 0.0000 0.5650
vn -0.7836 0.0000 0.6213
vn -0.7352 0.0000 0.6779
vn -0.6794 0.0000 0.7337
vn -0.6164 0.0000 0.7874
vn -0.5469 0.0000 0.8372
vn -0.4718 0.0000 0.8817
vn -0.3928 0.0000 0.9196
vn -0.3116 0.0000 0.9502
vn -0.2301 0.0000 0.9731
vn -0.1502 0.0000 0.9886
vn -0.0733 0.0000 0.9973
vn 0.0000 0.0000 1.0000
vn 0.0735 0.0000 0.9973
vn 0.1511 0.0000 0.9885
vn 0.2324 0.0000 0.9726
vn 0.3157 0.0000 0.9488
vn 0.3994 0.0000 0.9168
vn 0.4811 0.0000 0.8766
vn 0.5589 0.0000 0.8292
vn 0.6309 0.0000 0.7758
vn 0.6958 0.0000 0.7182
vn 0.7530 0.0000 0.6580
vn 0.8021 0.0000 0.5972
vn 0.8405 0.0000 0.5418
vn 0.8715 0.0000 0.4904
vn 0.8993 0.0000 0.4374
vn 0.9229 0.0000 0.3851
vn 0.9426 0.0000 0.3339
vn 0.9587 0.0000 0.2845
vn 0.9715 0.0000 0.2369
vn 0.9814 0.0000 0.1917
vn 0.9889 0.0000 0.1487
vn 0.9941 0.0000 0.1080
vn 0.9976 0.0000 0.0698
vn 0.9994 0.0000 0.0339
vn 1.0000 0.0000 -0.0024
vn 0.9990 0.0000 -0.0441
vn 0.9958 0.0000 -0.0908
vn 0.9901 0.0000 -0.1407
vn 0.9811 0.0000 -0.1935
vn 0.9685 0.0000 -0.2490
vn 0.9517 0.0000 -0.3070
vn 0.9303 0.0000 -0.3667
vn 0.9040 0.0000 -0.4275
vn 0.8725 0.0000 -0.4886
vn 0.8358 0.0000 -0.5489
vn 0.7943 0.0000 -0.6075
vn 0.7487 0.0000 -0.6628
vn 0.7014 0.0000 -0.7127
vn 0.6514 0.0000 -0.7587
vn 0.5963 0.0000 -0.8027
vn 0.5365 0.0000 -0.8439
vn 0.4727 0.0000 -0.8812
vn 0.4057 0.0000 -0.9140
vn 0.3367 0.0000 -0.9416
vn 0.2669 0.0000 -0.9637
vn 0.1973 0.0000 -0.9803
vn 0.1292 0.0000 -0.9916
vn 0.0633 0.0000 -0.9980
usemtl Number
s off
f 113/29/13 115/30/13 114/31/13
f 112/32/14 115/30/14 113/29/14
f 112/32/14 116/33/14 115/30/14
f 111/34/14 116/33/14 112/32/14
f 111/34/14 117/35/14 116/33/14
f 110/36/14 117/35/14 111/34/14
f 110/36/14 118/37/14 117/35/14
f 109/38/14 118/37/14 110/36/14
f 108/39/14 118/37/14 109/38/14
f 108/39/14 119/40/14 118/37/14
f 107/41/14 119/40/14 108/39/14
f 107/41/14 120/42/14 119/40/14
f 106/43/14 120/42/14 107/41/14
f 106/43/14 121/44/14 120/42/14
f 105/45/14 121/44/14 106/43/14
f 105/45/14 122/46/14 121/44/14
f 104/47/14 122/46/14 105/45/14
f 103/48/14 122/46/14 104/47/14
f 103/48/14 123/49/14 122/46/14
f 102/50/14 198/51/14 103/48/14
f 198/51/14 123/49/14 103/48/14
f 198/51/14 197/52/14 123/49/14
f 197/52/14 124/53/14 123/49/14
f 102/50/15 199/54/15 198/51/15
f 196/55/14 124/53/14 197/52/14
f 102/50/16 200/56/16 199/54/16
f 195/57/14 124/53/14 196/55/14
f 102/50/14 201/58/14 200/56/14
f 194/59/14 124/53/14 195/57/14
f 102/50/14 202/60/14 201/58/14
f 101/61/14 202/60/14 102/50/14
f 193/62/14 124/53/14 194/59/14
f 101/61/14 203/63/14 202/60/14
f 192/64/14 124/53/14 193/62/14
f 192/64/14 125/65/14 124/53/14
f 101/61/14 204/66/14 203/63/14
f 191/67/14 125/65/14 192/64/14
f 101/61/14 205/68/14 204/66/14
f 100/69/14 205/68/14 101/61/14
f 190/70/14 125/65/14 191/67/14
f 100/69/14 206/71/14 205/68/14
f 190/70/14 126/72/14 125/65/14
f 189/73/14 126/72/14 190/70/14
f 100/69/14 207/74/14 206/71/14
f 99/75/14 207/74/14 100/69/14
f 188/76/14 126/72/14 189/73/14
f 99/75/14 208/77/14 207/74/14
f 188/76/14 127/78/14 126/72/14
f 187/79/14 127/78/14 188/76/14
f 99/75/14 209/80/14 208/77/14
f 98/81/14 209/80/14 99/75/14
f 186/82/14 127/78/14 187/79/14
f 98/81/14 210/83/14 209/80/14
f 186/82/14 128/84/14 127/78/14
f 97/85/14 210/83/14 98/81/14
f 185/86/14 128/84/14 186/82/14
f 97/85/14 211/87/14 210/83/14
f 97/85/14 212/88/14 211/87/14
f 184/89/14 128/84/14 185/86/14
f 184/89/14 129/90/14 128/84/14
f 96/91/14 212/88/14 97/85/14
f 96/91/14 213/92/14 212/88/14
f 183/93/14 129/90/14 184/89/14
f 96/91/14 214/94/14 213/92/14
f 95/95/14 214/94/14 96/91/14
f 183/93/14 130/96/14 129/90/14
f 182/97/14 130/96/14 183/93/14
f 95/95/14 215/98/14 214/94/14
f 94/99/14 215/98/14 95/95/14
f 182/97/14 131/100/14 130/96/14
f 181/101/14 131/100/14 182/97/14
f 94/99/14 216/102/14 215/98/14
f 94/99/14 217/103/14 216/102/14
f 93/104/14 217/103/14 94/99/14
f 180/105/14 131/100/14 181/101/14
f 180/105/14 132/106/14 131/100/14
f 93/104/14 218/107/14 217/103/14
f 92/108/14 218/107/14 93/104/14
f 179/109/14 132/106/14 180/105/14
f 92/108/14 219/110/14 218/107/14
f 179/109/14 133/111/14 132/106/14
f 178/112/14 133/111/14 179/109/14
f 92/108/14 220/113/14 219/110/14
f 91/114/14 220/113/14 92/108/14
f 178/112/14 134/115/14 133/111/14
f 91/114/14 221/116/14 220/113/14
f 177/117/14 134/115/14 178/112/14
f 90/118/14 221/116/14 91/114/14
f 90/118/14 222/119/14 221/116/14
f 177/117/14 135/120/14 134/115/14
f 176/121/14 135/120/14 177/117/14
f 89/122/14 222/119/14 90/118/14
f 89/122/14 223/123/14 222/119/14
f 89/122/14 224/124/14 223/123/14
f 175/125/14 135/120/14 176/121/14
f 88/126/14 224/124/14 89/122/14
f 175/125/14 136/127/14 135/120/14
f 88/126/14 225/128/14 224/124/14
f 87/129/14 225/128/14 88/126/14
f 174/130/14 136/127/14 175/125/14
f 87/129/14 226/131/14 225/128/14
f 174/130/14 137/132/14 136/127/14
f 86/133/14 226/131/14 87/129/14
f 86/133/14 227/134/14 226/131/14
f 173/135/14 137/132/14 174/130/14
f 85/136/14 227/134/14 86/133/14
f 85/136/14 228/137/14 227/134/14
f 173/135/14 138/138/14 137/132/14
f 84/139/14 228/137/14 85/136/14
f 172/140/14 138/138/14 173/135/14
f 84/139/14 229/141/14 228/137/14
f 84/139/14 230/142/14 229/141/14
f 83/143/14 230/142/14 84/139/14
f 172/140/14 139/144/14 138/138/14
f 171/145/14 54/146/14 172/140/14
f 54/146/14 139/144/14 172/140/14
f 83/143/14 231/147/14 230/142/14
f 82/148/14 231/147/14 83/143/14
f 82/148/14 232/149/14 231/147/14
f 170/150/14 54/146/14 171/145/14
f 81/151/14 232/149/14 82/148/14
f 81/151/14 233/152/14 232/149/14
f 170/150/14 55/153/14 54/146/14
f 53/154/14 139/144/14 54/146/14
f 169/155/14 55/153/14 170/150/14
f 81/151/14 234/156/14 233/152/14
f 80/157/14 234/156/14 81/151/14
f 80/157/14 235/158/14 234/156/14
f 168/159/14 55/153/14 169/155/14
f 79/160/14 235/158/14 80/157/14
f 168/159/14 56/161/14 55/153/14
f 79/160/14 236/162/14 235/158/14
f 167/163/14 56/161/14 168/159/14
f 79/160/14 237/164/14 236/162/14
f 52/165/14 139/144/14 53/154/14
f 78/166/14 237/164/14 79/160/14
f 78/166/14 238/167/14 237/164/14
f 167/163/14 57/168/14 56/161/14
f 166/169/14 57/168/14 167/163/14
f 78/166/14 239/170/14 238/167/14
f 52/165/14 140/171/14 139/144/14
f 77/172/14 239/170/14 78/166/14
f 77/172/14 240/173/14 239/170/14
f 165/174/14 57/168/14 166/169/14
f 77/172/14 241/175/14 240/173/14
f 164/176/14 57/168/14 165/174/14
f 77/172/14 242/177/14 241/175/14
f 164/176/14 58/178/14 57/168/14
f 77/172/14 243/179/14 242/177/14
f 76/180/14 243/179/14 77/172/14
f 163/181/14 58/178/14 164/176/14
f 76/180/14 244/182/14 243/179/14
f 76/180/14 245/183/14 244/182/14
f 51/184/14 140/171/14 52/165/14
f 162/185/14 58/178/14 163/181/14
f 76/180/16 162/185/16 245/183/16
f 76/180/14 58/178/14 162/185/14
f 75/186/14 58/178/14 76/180/14
f 75/186/14 59/187/14 58/178/14
f 74/188/14 59/187/14 75/186/14
f 74/188/14 60/189/14 59/187/14
f 73/190/14 60/189/14 74/188/14
f 50/191/14 140/171/14 51/184/14
f 73/190/14 61/192/14 60/189/14
f 72/193/14 61/192/14 73/190/14
f 72/193/14 62/194/14 61/192/14
f 71/195/14 62/194/14 72/193/14
f 70/196/14 62/194/14 71/195/14
f 70/196/14 63/197/14 62/194/14
f 50/191/14 141/198/14 140/171/14
f 69/199/14 63/197/14 70/196/14
f 49/200/14 141/198/14 50/191/14
f 69/199/14 64/201/14 63/197/14
f 68/202/14 64/201/14 69/199/14
f 68/202/14 65/203/14 64/201/14
f 67/204/14 65/203/14 68/202/14
f 67/204/16 66/205/16 65/203/16
f 48/206/14 141/198/14 49/200/14
f 47/207/14 141/198/14 48/206/14
f 47/207/14 142/208/14 141/198/14
f 46/209/14 142/208/14 47/207/14
f 45/210/14 142/208/14 46/209/14
f 44/211/14 142/208/14 45/210/14
f 44/211/14 143/212/14 142/208/14
f 43/213/14 143/212/14 44/211/14
f 42/214/14 143/212/14 43/213/14
f 42/214/14 144/215/14 143/212/14
f 41/216/14 144/215/14 42/214/14
f 40/217/14 144/215/14 41/216/14
f 17/218/14 19/219/14 18/220/14
f 39/221/14 144/215/14 40/217/14
f 17/218/14 20/222/14 19/219/14
f 39/221/14 145/223/14 144/215/14
f 38/224/14 145/223/14 39/221/14
f 17/218/14 21/225/14 20/222/14
f 37/226/14 145/223/14 38/224/14
f 17/218/14 22/227/14 21/225/14
f 161/228/14 22/227/14 17/218/14
f 161/228/14 23/229/14 22/227/14
f 36/230/14 145/223/14 37/226/14
f 161/228/14 24/231/14 23/229/14
f 160/232/14 24/231/14 161/228/14
f 35/233/14 145/223/14 36/230/14
f 35/233/14 146/234/14 145/223/14
f 160/232/14 25/235/14 24/231/14
f 34/236/14 146/234/14 35/233/14
f 160/232/14 26/237/14 25/235/14
f 33/238/14 146/234/14 34/236/14
f 159/239/14 26/237/14 160/232/14
f 159/239/14 27/240/14 26/237/14
f 32/241/14 146/234/14 33/238/14
f 159/239/14 28/242/14 27/240/14
f 31/243/14 146/234/14 32/241/14
f 159/239/14 29/244/14 28/242/14
f 30/245/14 146/234/14 31/243/14
f 159/239/14 30/245/14 29/244/14
f 159/239/14 146/234/14 30/245/14
f 158/246/14 146/234/14 159/239/14
f 158/246/14 147/247/14 146/234/14
f 157/248/14 147/247/14 158/246/14
f 156/249/14 147/247/14 157/248/14
f 156/249/14 148/250/14 147/247/14
f 155/251/14 148/250/14 156/249/14
f 154/252/14 148/250/14 155/251/14
f 154/252/14 149/253/14 148/250/14
f 153/254/14 149/253/14 154/252/14
f 152/255/14 149/253/14 153/254/14
f 152/255/14 150/256/14 149/253/14
f 151/257/14 150/256/14 152/255/14
f 344/258/17 342/259/17 343/260/17
f 344/258/17 341/261/17 342/259/17
f 345/262/17 341/261/17 344/258/17
f 345/262/17 340/263/17 341/261/17
f 346/264/17 340/263/17 345/262/17
f 346/264/17 339/265/17 340/263/17
f 347/266/17 339/265/17 346/264/17
f 347/266/17 338/267/17 339/265/17
f 347/266/17 337/268/17 338/267/17
f 348/269/17 337/268/17 347/266/17
f 348/269/17 336/270/17 337/268/17
f 349/271/17 336/270/17 348/269/17
f 349/271/17 335/272/17 336/270/17
f 350/273/17 335/272/17 349/271/17
f 350/273/17 334/274/17 335/272/17
f 351/275/17 334/274/17 350/273/17
f 351/275/17 333/276/17 334/274/17
f 351/275/17 332/277/17 333/276/17
f 352/278/17 332/277/17 351/275/17
f 427/279/17 331/280/17 332/277/17
f 352/278/17 427/279/17 332/277/17
f 426/281/18 427/279/18 352/278/18
f 353/282/17 426/281/17 352/278/17
f 428/283/17 331/280/17 427/279/17
f 353/282/17 425/284/17 426/281/17
f 429/285/17 331/280/17 428/283/17
f 353/282/17 424/286/17 425/284/17
f 430/287/17 331/280/17 429/285/17
f 353/282/17 423/288/17 424/286/17
f 431/289/17 331/280/17 430/287/17
f 431/289/17 330/290/17 331/280/17
f 353/282/17 422/291/17 423/288/17
f 432/292/17 330/290/17 431/289/17
f 353/282/17 421/293/17 422/291/17
f 354/294/17 421/293/17 353/282/17
f 433/295/17 330/290/17 432/292/17
f 354/294/17 420/296/17 421/293/17
f 434/297/17 330/290/17 433/295/17
f 434/297/17 329/298/17 330/290/17
f 354/294/17 419/299/17 420/296/17
f 435/300/17 329/298/17 434/297/17
f 355/301/17 419/299/17 354/294/17
f 355/301/17 418/302/17 419/299/17
f 436/303/17 329/298/17 435/300/17
f 436/303/17 328/304/17 329/298/17
f 355/301/17 417/305/17 418/302/17
f 437/306/17 328/304/17 436/303/17
f 356/307/17 417/305/17 355/301/17
f 356/307/17 416/308/17 417/305/17
f 438/309/17 328/304/17 437/306/17
f 438/309/17 327/310/17 328/304/17
f 356/307/17 415/311/17 416/308/17
f 439/312/17 327/310/17 438/309/17
f 357/313/17 415/311/17 356/307/17
f 439/312/17 326/314/17 327/310/17
f 357/313/17 414/315/17 415/311/17
f 440/316/17 326/314/17 439/312/17
f 441/317/17 326/314/17 440/316/17
f 357/313/17 413/318/17 414/315/17
f 358/319/17 413/318/17 357/313/17
f 441/317/17 325/320/17 326/314/17
f 442/321/17 325/320/17 441/317/17
f 358/319/17 412/322/17 413/318/17
f 443/323/17 325/320/17 442/321/17
f 443/323/17 324/324/17 325/320/17
f 359/325/17 412/322/17 358/319/17
f 359/325/17 411/326/17 412/322/17
f 444/327/17 324/324/17 443/323/17
f 444/327/17 323/328/17 324/324/17
f 360/329/17 411/326/17 359/325/17
f 360/329/17 410/330/17 411/326/17
f 445/331/17 323/328/17 444/327/17
f 446/332/17 323/328/17 445/331/17
f 446/332/17 322/333/17 323/328/17
f 360/329/17 409/334/17 410/330/17
f 361/335/17 409/334/17 360/329/17
f 447/336/17 322/333/17 446/332/17
f 447/336/17 321/337/17 322/333/17
f 361/335/17 408/338/17 409/334/17
f 448/339/17 321/337/17 447/336/17
f 362/340/17 408/338/17 361/335/17
f 362/340/17 407/341/17 408/338/17
f 449/342/17 321/337/17 448/339/17
f 449/342/17 320/343/17 321/337/17
f 363/344/17 407/341/17 362/340/17
f 450/345/17 320/343/17 449/342/17
f 363/344/17 406/346/17 407/341/17
f 450/345/17 319/347/17 320/343/17
f 451/348/17 319/347/17 450/345/17
f 364/349/17 406/346/17 363/344/17
f 364/349/17 405/350/17 406/346/17
f 451/348/17 318/351/17 319/347/17
f 452/352/17 318/351/17 451/348/17
f 453/353/17 318/351/17 452/352/17
f 364/349/17 404/354/17 405/350/17
f 453/353/17 317/355/17 318/351/17
f 365/356/17 404/354/17 364/349/17
f 454/357/17 317/355/17 453/353/17
f 454/357/17 316/358/17 317/355/17
f 365/356/17 403/359/17 404/354/17
f 455/360/17 316/358/17 454/357/17
f 366/361/17 403/359/17 365/356/17
f 455/360/17 315/362/17 316/358/17
f 456/363/17 315/362/17 455/360/17
f 366/361/17 402/364/17 403/359/17
f 456/363/17 314/365/17 315/362/17
f 457/366/17 314/365/17 456/363/17
f 367/367/17 402/364/17 366/361/17
f 457/366/17 313/368/17 314/365/17
f 367/367/17 401/369/17 402/364/17
f 458/370/17 313/368/17 457/366/17
f 459/371/17 313/368/17 458/370/17
f 459/371/17 312/372/17 313/368/17
f 368/373/17 401/369/17 367/367/17
f 283/374/17 400/375/17 401/369/17
f 368/373/17 283/374/17 401/369/17
f 460/376/17 312/372/17 459/371/17
f 460/376/17 311/377/17 312/372/17
f 461/378/17 311/377/17 460/376/17
f 283/374/17 399/379/17 400/375/17
f 461/378/17 310/380/17 311/377/17
f 462/381/17 310/380/17 461/378/17
f 284/382/17 399/379/17 283/374/17
f 368/373/17 282/383/17 283/374/17
f 284/382/17 398/384/17 399/379/17
f 463/385/17 310/380/17 462/381/17
f 463/385/17 309/386/17 310/380/17
f 464/387/17 309/386/17 463/385/17
f 284/382/17 397/388/17 398/384/17
f 464/387/17 308/389/17 309/386/17
f 285/390/17 397/388/17 284/382/17
f 465/391/17 308/389/17 464/387/17
f 285/390/17 396/392/17 397/388/17
f 466/393/17 308/389/17 465/391/17
f 368/373/17 281/394/17 282/383/17
f 466/393/17 307/395/17 308/389/17
f 467/396/17 307/395/17 466/393/17
f 286/397/17 396/392/17 285/390/17
f 286/397/17 395/398/17 396/392/17
f 468/399/17 307/395/17 467/396/17
f 369/400/17 281/394/17 368/373/17
f 468/399/17 306/401/17 307/395/17
f 469/402/17 306/401/17 468/399/17
f 286/397/17 394/403/17 395/398/17
f 470/404/17 306/401/17 469/402/17
f 286/397/17 393/405/17 394/403/17
f 471/406/17 306/401/17 470/404/17
f 287/407/17 393/405/17 286/397/17
f 472/408/17 306/401/17 471/406/17
f 472/408/17 305/409/17 306/401/17
f 287/407/17 392/410/17 393/405/17
f 473/411/17 305/409/17 472/408/17
f 474/412/17 305/409/17 473/411/17
f 369/400/17 280/413/17 281/394/17
f 287/407/17 391/414/17 392/410/17
f 391/414/17 305/409/17 474/412/17
f 287/407/17 305/409/17 391/414/17
f 287/407/17 304/415/17 305/409/17
f 288/416/17 304/415/17 287/407/17
f 288/416/17 303/417/17 304/415/17
f 289/418/17 303/417/17 288/416/17
f 289/418/17 302/419/17 303/417/17
f 369/400/17 279/420/17 280/413/17
f 290/421/17 302/419/17 289/418/17
f 290/421/17 301/422/17 302/419/17
f 291/423/17 301/422/17 290/421/17
f 291/423/17 300/424/17 301/422/17
f 291/423/17 299/425/17 300/424/17
f 292/426/17 299/425/17 291/423/17
f 370/427/17 279/420/17 369/400/17
f 292/426/17 298/428/17 299/425/17
f 370/427/17 278/429/17 279/420/17
f 293/430/17 298/428/17 292/426/17
f 293/430/17 297/431/17 298/428/17
f 294/432/17 297/431/17 293/430/17
f 294/432/17 296/433/17 297/431/17
f 295/434/18 296/433/18 294/432/18
f 370/427/17 277/435/17 278/429/17
f 370/427/17 276/436/17 277/435/17
f 371/437/17 276/436/17 370/427/17
f 371/437/17 275/438/17 276/436/17
f 371/437/17 274/439/17 275/438/17
f 371/437/17 273/440/17 274/439/17
f 372/441/17 273/440/17 371/437/17
f 372/441/17 272/442/17 273/440/17
f 372/441/17 271/443/17 272/442/17
f 373/444/17 271/443/17 372/441/17
f 373/444/17 270/445/17 271/443/17
f 373/444/17 269/446/17 270/445/17
f 248/447/17 246/448/17 247/449/17
f 373/444/17 268/450/17 269/446/17
f 249/451/17 246/448/17 248/447/17
f 374/452/17 268/450/17 373/444/17
f 374/452/17 267/453/17 268/450/17
f 250/454/17 246/448/17 249/451/17
f 374/452/17 266/455/17 267/453/17
f 251/456/17 246/448/17 250/454/17
f 251/456/17 390/457/17 246/448/17
f 252/458/17 390/457/17 251/456/17
f 374/452/17 265/459/17 266/455/17
f 253/460/17 390/457/17 252/458/17
f 253/460/17 389/461/17 390/457/17
f 374/452/17 264/462/17 265/459/17
f 375/463/17 264/462/17 374/452/17
f 254/464/17 389/461/17 253/460/17
f 375/463/17 263/465/17 264/462/17
f 255/466/17 389/461/17 254/464/17
f 375/463/17 262/467/17 263/465/17
f 255/466/17 388/468/17 389/461/17
f 256/469/17 388/468/17 255/466/17
f 375/463/17 261/470/17 262/467/17
f 257/471/17 388/468/17 256/469/17
f 375/463/17 260/472/17 261/470/17
f 258/473/17 388/468/17 257/471/17
f 375/463/17 259/474/17 260/472/17
f 259/474/17 388/468/17 258/473/17
f 375/463/17 388/468/17 259/474/17
f 375/463/17 387/475/17 388/468/17
f 376/476/17 387/475/17 375/463/17
f 376/476/17 386/477/17 387/475/17
f 376/476/17 385/478/17 386/477/17
f 377/479/17 385/478/17 376/476/17
f 377/479/17 384/480/17 385/478/17
f 377/479/17 383/481/17 384/480/17
f 378/482/17 383/481/17 377/479/17
f 378/482/17 382/483/17 383/481/17
f 378/482/17 381/484/17 382/483/17
f 379/485/17 381/484/17 378/482/17
f 379/485/18 380/486/18 381/484/18
s 1
f 476/487/19 478/488/20 477/489/20 475/490/19
f 478/488/20 480/491/21 479/492/21 477/489/20
f 480/491/21 482/493/22 481/494/22 479/492/21
f 482/493/22 484/495/23 483/496/23 481/494/22
f 484/495/23 486/497/24 485/498/24 483/496/23
f 486/497/24 488/499/25 487/500/25 485/498/24
f 488/499/25 490/501/26 489/502/26 487/500/25
f 490/501/26 492/503/27 491/504/27 489/502/26
f 492/503/27 494/505/28 493/506/28 491/504/27
f 494/505/28 496/507/29 495/508/29 493/506/28
f 496/507/29 498/509/30 497/510/30 495/508/29
f 498/509/30 500/511/31 499/512/31 497/510/30
f 500/511/31 502/513/32 501/514/32 499/512/31
f 502/513/32 504/515/33 503/516/33 501/514/32
f 504/515/33 506/517/34 505/518/34 503/516/33
f 506/517/34 508/519/35 507/520/35 505/518/34
f 508/519/35 510/521/36 509/522/36 507/520/35
f 510/521/36 512/523/37 511/524/37 509/522/36
f 512/523/37 514/525/38 513/526/38 511/524/37
f 514/525/38 516/527/39 515/528/39 513/526/38
f 516/527/39 518/529/40 517/530/40 515/528/39
f 518/529/40 520/531/41 519/532/41 517/530/40
f 520/531/41 522/533/42 521/534/42 519/532/41
f 522/533/42 524/535/43 523/536/43 521/534/42
f 524/535/43 526/537/44 525/538/44 523/536/43
f 526/537/44 528/539/45 527/540/45 525/538/44
f 528/539/45 530/541/46 529/542/46 527/540/45
f 530/541/46 532/543/47 531/544/47 529/542/46
f 532/543/47 534/545/48 533/546/48 531/544/47
f 534/545/48 536/547/49 535/548/49 533/546/48
f 536/547/49 538/549/50 537/550/50 535/548/49
f 538/549/50 540/551/51 539/552/51 537/550/50
f 540/551/51 542/553/52 541/554/52 539/552/51
f 542/553/52 544/555/53 543/556/53 541/554/52
f 544/555/53 546/557/54 545/558/54 543/556/53
f 546/557/54 548/559/55 547/560/55 545/558/54
f 548/559/55 550/561/56 549/562/56 547/560/55
f 550/561/56 552/563/57 551/564/57 549/562/56
f 552/563/57 554/565/58 553/566/58 551/564/57
f 554/565/58 556/567/59 555/568/59 553/566/58
f 556/567/59 558/569/60 557/570/60 555/568/59
f 558/569/60 560/571/61 559/572/61 557/570/60
f 560/571/61 562/573/62 561/574/62 559/572/61
f 562/573/62 564/575/63 563/576/63 561/574/62
f 564/575/63 566/577/64 565/578/64 563/576/63
f 566/577/64 568/579/65 567/580/65 565/578/64
f 568/579/65 570/581/66 569/582/66 567/580/65
f 570/581/66 572/583/67 571/584/67 569/582/66
f 572/583/67 574/585/68 573/586/68 571/584/67
f 574/585/68 576/587/69 575/588/69 573/586/68
f 576/587/69 578/589/70 577/590/70 575/588/69
f 578/589/70 580/591/71 579/592/71 577/590/70
f 580/591/71 582/593/72 581/594/72 579/592/71
f 582/593/72 584/595/73 583/596/73 581/594/72
f 584/595/73 586/597/74 585/598/74 583/596/73
f 586/597/74 588/599/75 587/600/75 585/598/74
f 588/599/75 590/601/76 589/602/76 587/600/75
f 590/601/76 592/603/77 591/604/77 589/602/76
f 592/603/77 594/605/78 593/606/78 591/604/77
f 594/605/78 596/607/79 595/608/79 593/606/78
f 596/607/79 598/609/80 597/610/80 595/608/79
f 598/609/80 600/611/81 599/612/81 597/610/80
f 600/611/81 602/613/82 601/614/82 599/612/81
f 602/613/82 604/615/83 603/616/83 601/614/82
f 604/615/83 606/617/84 605/618/84 603/616/83
f 606/617/84 608/619/85 607/620/85 605/618/84
f 608/619/85 610/621/86 609/622/86 607/620/85
f 610/621/86 612/623/87 611/624/87 609/622/86
f 612/623/87 614/625/88 613/626/88 611/624/87
f 614/625/88 616/627/89 615/628/89 613/626/88
f 616/627/89 618/629/90 617/630/90 615/628/89
f 618/629/90 620/631/91 619/632/91 617/630/90
f 620/631/91 622/633/92 621/634/92 619/632/91
f 622/633/92 624/635/93 623/636/93 621/634/92
f 624/635/93 626/637/94 625/638/94 623/636/93
f 626/637/94 628/639/95 627/640/95 625/638/94
f 628/639/95 630/641/96 629/642/96 627/640/95
f 630/641/96 632/643/97 631/644/97 629/642/96
f 632/643/97 634/645/98 633/646/98 631/644/97
f 634/645/98 636/647/99 635/648/99 633/646/98
f 636/647/99 638/649/100 637/650/100 635/648/99
f 638/649/100 640/651/101 639/652/101 637/650/100
f 640/651/101 642/653/102 641/654/102 639/652/101
f 642/653/102 644/655/103 643/656/103 641/654/102
f 644/655/103 646/657/104 645/658/104 643/656/103
f 646/657/104 648/659/105 647/660/105 645/658/104
f 648/659/105 650/661/106 649/662/106 647/660/105
f 650/661/106 652/663/107 651/664/107 649/662/106
f 652/663/107 654/665/108 653/666/108 651/664/107
f 654/665/108 656/667/109 655/668/109 653/666/108
f 656/667/109 658/669/110 657/670/110 655/668/109
f 658/669/110 660/671/111 659/672/111 657/670/110
f 660/671/111 662/673/112 661/674/112 659/672/111
f 662/673/112 664/675/113 663/676/113 661/674/112
f 664/675/113 666/677/114 665/678/114 663/676/113
f 666/677/114 668/679/115 667/680/115 665/678/114
f 668/679/115 670/681/116 669/682/116 667/680/115
f 670/681/116 672/683/117 671/684/117 669/682/116
f 672/683/117 674/685/118 673/686/118 671/684/117
f 674/685/118 676/687/119 675/688/119 673/686/118
f 676/687/119 678/689/120 677/690/120 675/688/119
f 678/689/120 680/691/121 679/692/121 677/690/120
f 680/691/121 682/693/122 681/694/122 679/692/121
f 682/693/122 684/695/123 683/696/123 681/694/122
f 684/695/123 686/697/124 685/698/124 683/696/123
f 686/697/124 688/699/125 687/700/125 685/698/124
f 688/699/125 690/701/126 689/702/126 687/700/125
f 690/701/126 692/703/127 691/704/127 689/702/126
f 692/703/127 694/705/128 693/706/128 691/704/127
f 694/705/128 696/707/129 695/708/129 693/706/128
f 696/707/129 698/709/130 697/710/130 695/708/129
f 698/709/130 700/711/131 699/712/131 697/710/130
f 700/711/131 702/713/132 701/714/132 699/712/131
f 702/713/132 704/715/133 703/716/133 701/714/132
f 704/715/133 706/717/134 705/718/134 703/716/133
f 706/717/134 708/719/135 707/720/135 705/718/134
f 708/719/135 710/721/136 709/722/136 707/720/135
f 710/721/136 712/723/137 711/724/137 709/722/136
f 712/723/137 714/725/138 713/726/138 711/724/137
f 714/725/138 716/727/139 715/728/139 713/726/138
f 716/727/139 718/729/140 717/730/140 715/728/139
f 718/729/140 720/731/141 719/732/141 717/730/140
f 720/731/141 722/733/142 721/734/142 719/732/141
f 722/733/142 724/735/143 723/736/143 721/734/142
f 724/735/143 726/737/144 725/738/144 723/736/143
f 726/737/144 728/739/145 727/740/145 725/738/144
f 728/739/145 730/741/146 729/742/146 727/740/145
f 730/741/146 732/743/147 731/744/147 729/742/146
f 732/743/147 734/745/148 733/746/148 731/744/147
f 734/745/148 736/747/149 735/748/149 733/746/148
f 736/747/149 738/749/150 737/750/150 735/748/149
f 738/749/150 740/751/151 739/752/151 737/750/150
f 740/751/151 742/753/152 741/754/152 739/752/151
f 742/753/152 744/755/153 743/756/153 741/754/152
f 744/755/153 746/757/154 745/758/154 743/756/153
f 746/757/154 748/759/155 747/760/155 745/758/154
f 748/759/155 750/761/156 749/762/156 747/760/155
f 750/761/156 752/763/157 751/764/157 749/762/156
f 752/763/157 754/765/158 753/766/158 751/764/157
f 754/765/158 756/767/159 755/768/159 753/766/158
f 756/767/159 758/769/160 757/770/160 755/768/159
f 758/769/160 760/771/161 759/772/161 757/770/160
f 760/771/161 762/773/162 761/774/162 759/772/161
f 762/773/162 764/775/163 763/776/163 761/774/162
f 764/775/163 476/777/19 475/778/19 763/776/163
f 766/779/164 768/780/165 767/781/165 765/782/164
f 768/780/165 770/783/166 769/784/166 767/781/165
f 770/783/166 772/785/167 771/786/167 769/784/166
f 772/785/167 774/787/168 773/788/168 771/786/167
f 774/787/168 776/789/169 775/790/169 773/788/168
f 776/789/169 778/791/170 777/792/170 775/790/169
f 778/791/170 780/793/171 779/794/171 777/792/170
f 780/793/171 782/795/172 781/796/172 779/794/171
f 782/795/172 784/797/173 783/798/173 781/796/172
f 784/797/173 786/799/174 785/800/174 783/798/173
f 786/799/174 788/801/175 787/802/175 785/800/174
f 788/801/175 790/803/176 789/804/176 787/802/175
f 790/803/176 792/805/177 791/806/177 789/804/176
f 792/805/177 794/807/178 793/808/178 791/806/177
f 794/807/178 796/809/179 795/810/179 793/808/178
f 796/809/179 798/811/180 797/812/180 795/810/179
f 798/811/180 800/813/181 799/814/181 797/812/180
f 800/813/181 802/815/182 801/816/182 799/814/181
f 802/815/182 804/817/183 803/818/183 801/816/182
f 804/817/183 806/819/184 805/820/184 803/818/183
f 806/819/184 808/821/185 807/822/185 805/820/184
f 808/821/185 810/823/186 809/824/186 807/822/185
f 810/823/186 812/825/187 811/826/187 809/824/186
f 812/825/187 814/827/188 813/828/188 811/826/187
f 814/827/188 816/829/189 815/830/189 813/828/188
f 816/829/189 818/831/190 817/832/190 815/830/189
f 818/831/190 820/833/191 819/834/191 817/832/190
f 820/833/191 822/835/192 821/836/192 819/834/191
f 822/835/192 824/837/193 823/838/193 821/836/192
f 824/837/193 826/839/194 825/840/194 823/838/193
f 826/839/194 828/841/195 827/842/195 825/840/194
f 828/841/195 830/843/196 829/844/196 827/842/195
f 830/843/196 832/845/197 831/846/197 829/844/196
f 832/845/197 834/847/198 833/848/198 831/846/197
f 834/847/198 836/849/199 835/850/199 833/848/198
f 836/849/199 838/851/200 837/852/200 835/850/199
f 838/851/200 840/853/201 839/854/201 837/852/200
f 840/853/201 842/855/202 841/856/202 839/854/201
f 842/855/202 844/857/203 843/858/203 841/856/202
f 844/857/203 846/859/204 845/860/204 843/858/203
f 846/859/204 848/861/205 847/862/205 845/860/204
f 848/861/205 850/863/206 849/864/206 847/862/205
f 850/863/206 852/865/207 851/866/207 849/864/206
f 852/865/207 854/867/208 853/868/208 851/866/207
f 854/867/208 856/869/209 855/870/209 853/868/208
f 856/869/209 858/871/210 857/872/210 855/870/209
f 858/871/210 860/873/211 859/874/211 857/872/210
f 860/873/211 862/875/212 861/876/212 859/874/211
f 862/875/212 864/877/213 863/878/213 861/876/212
f 864/877/213 866/879/214 865/880/214 863/878/213
f 866/879/214 868/881/215 867/882/215 865/880/214
f 868/881/215 870/883/216 869/884/216 867/882/215
f 870/883/216 872/885/217 871/886/217 869/884/216
f 872/885/217 874/887/218 873/888/218 871/886/217
f 874/887/218 876/889/219 875/890/219 873/888/218
f 876/889/219 878/891/220 877/892/220 875/890/219
f 878/891/220 880/893/221 879/894/221 877/892/220
f 880/893/221 882/895/222 881/896/222 879/894/221
f 882/895/222 884/897/223 883/898/223 881/896/222
f 884/897/223 886/899/224 885/900/224 883/898/223
f 886/899/224 888/901/225 887/902/225 885/900/224
f 888/901/225 890/903/226 889/904/226 887/902/225
f 890/903/226 892/905/227 891/906/227 889/904/226
f 892/905/227 894/907/228 893/908/228 891/906/227
f 894/907/228 896/909/229 895/910/229 893/908/228
f 896/909/229 898/911/230 897/912/230 895/910/229
f 898/911/230 900/913/231 899/914/231 897/912/230
f 900/913/231 902/915/232 901/916/232 899/914/231
f 902/915/232 904/917/233 903/918/233 901/916/232
f 904/917/233 906/919/234 905/920/234 903/918/233
f 906/919/234 908/921/235 907/922/235 905/920/234
f 908/921/235 910/923/236 909/924/236 907/922/235
f 910/923/236 912/925/237 911/926/237 909/924/236
f 912/925/237 914/927/238 913/928/238 911/926/237
f 914/927/238 916/929/239 915/930/239 913/928/238
f 916/929/239 918/931/240 917/932/240 915/930/239
f 918/931/240 920/933/241 919/934/241 917/932/240
f 920/933/241 922/935/242 921/936/242 919/934/241
f 922/935/242 924/937/243 923/938/243 921/936/242
f 924/937/243 926/939/244 925/940/244 923/938/243
f 926/939/244 928/941/245 927/942/245 925/940/244
f 928/941/245 930/943/246 929/944/246 927/942/245
f 930/943/246 932/945/247 931/946/247 929/944/246
f 932/945/247 766/947/164 765/948/164 931/946/247
