# Blender v2.90.1 OBJ File: 'buttons.blend'
# www.blender.org
mtllib button2.mtl
o Cube
v 1.088764 -0.010000 -1.242224
v 1.088764 -0.510000 -1.242224
v 1.088764 -0.010000 1.157776
v 1.088764 -0.510000 1.157776
v -1.311236 -0.010000 -1.242224
v -1.311236 -0.510000 -1.242224
v -1.311236 -0.010000 1.157776
v -1.311236 -0.510000 1.157776
vt 0.625000 0.500000
vt 0.875000 0.500000
vt 0.875000 0.750000
vt 0.625000 0.750000
vt 0.375000 0.750000
vt 0.625000 1.000000
vt 0.375000 1.000000
vt 0.375000 0.000000
vt 0.625000 0.000000
vt 0.625000 0.250000
vt 0.375000 0.250000
vt 0.125000 0.500000
vt 0.375000 0.500000
vt 0.125000 0.750000
vn 0.0000 1.0000 0.0000
vn 0.0000 0.0000 1.0000
vn -1.0000 0.0000 0.0000
vn 0.0000 -1.0000 0.0000
vn 1.0000 0.0000 0.0000
vn 0.0000 0.0000 -1.0000
usemtl Button2
s off
f 1/1/1 5/2/1 7/3/1 3/4/1
f 4/5/2 3/4/2 7/6/2 8/7/2
f 8/8/3 7/9/3 5/10/3 6/11/3
f 6/12/4 2/13/4 4/5/4 8/14/4
f 2/13/5 1/1/5 3/4/5 4/5/5
f 6/11/6 5/10/6 1/1/6 2/13/6
o Cube.001
v 0.888764 0.500000 -1.042224
v 0.888764 -0.500000 -1.042224
v 0.888764 0.500000 0.957776
v 0.888764 -0.500000 0.957776
v -1.111236 0.500000 -1.042224
v -1.111236 -0.500000 -1.042224
v -1.111236 0.500000 0.957776
v -1.111236 -0.500000 0.957776
vt 0.625000 0.500000
vt 0.875000 0.500000
vt 0.875000 0.750000
vt 0.625000 0.750000
vt 0.375000 0.750000
vt 0.625000 1.000000
vt 0.375000 1.000000
vt 0.375000 0.000000
vt 0.625000 0.000000
vt 0.625000 0.250000
vt 0.375000 0.250000
vt 0.125000 0.500000
vt 0.375000 0.500000
vt 0.125000 0.750000
vn 0.0000 1.0000 0.0000
vn 0.0000 0.0000 1.0000
vn -1.0000 0.0000 0.0000
vn 0.0000 -1.0000 0.0000
vn 1.0000 0.0000 0.0000
vn 0.0000 0.0000 -1.0000
usemtl Button
s off
f 9/15/7 13/16/7 15/17/7 11/18/7
f 12/19/8 11/18/8 15/20/8 16/21/8
f 16/22/9 15/23/9 13/24/9 14/25/9
f 14/26/10 10/27/10 12/19/10 16/28/10
f 10/27/11 9/15/11 11/18/11 12/19/11
f 14/25/12 13/24/12 9/15/12 10/27/12
o Text
v -0.183864 0.690054 -0.216645
v -0.262981 0.690054 -0.236884
v -0.258419 0.690054 -0.257098
v -0.253117 0.690054 -0.276443
v -0.247073 0.690054 -0.294919
v -0.240288 0.690054 -0.312526
v -0.232763 0.690054 -0.329264
v -0.224496 0.690054 -0.345133
v -0.215488 0.690054 -0.360134
v -0.205739 0.690054 -0.374265
v -0.195249 0.690054 -0.387528
v -0.184017 0.690054 -0.399922
v -0.172045 0.690054 -0.411447
v -0.159332 0.690054 -0.422103
v -0.148079 0.690054 -0.430430
v -0.136401 0.690054 -0.438032
v -0.124296 0.690054 -0.444911
v -0.111766 0.690054 -0.451065
v -0.098810 0.690054 -0.456496
v -0.085428 0.690054 -0.461202
v -0.071620 0.690054 -0.465184
v -0.057386 0.690054 -0.468442
v -0.042726 0.690054 -0.470976
v -0.027641 0.690054 -0.472787
v -0.012129 0.690054 -0.473873
v 0.003808 0.690054 -0.474235
v 0.022693 0.690054 -0.473753
v 0.040914 0.690054 -0.472310
v 0.058470 0.690054 -0.469903
v 0.075361 0.690054 -0.466534
v 0.091588 0.690054 -0.462203
v 0.107151 0.690054 -0.456909
v 0.122049 0.690054 -0.450652
v 0.136283 0.690054 -0.443433
v 0.149853 0.690054 -0.435251
v 0.162758 0.690054 -0.426107
v 0.174998 0.690054 -0.416000
v 0.186575 0.690054 -0.404931
v 0.196272 0.690054 -0.394343
v 0.205127 0.690054 -0.383226
v 0.213138 0.690054 -0.371582
v 0.220306 0.690054 -0.359410
v 0.226631 0.690054 -0.346709
v 0.232113 0.690054 -0.333480
v 0.236751 0.690054 -0.319723
v 0.240546 0.690054 -0.305438
v 0.243497 0.690054 -0.290625
v 0.245605 0.690054 -0.275284
v 0.246870 0.690054 -0.259415
v 0.247292 0.690054 -0.243017
v 0.246990 0.690054 -0.229716
v 0.246082 0.690054 -0.216594
v 0.244570 0.690054 -0.203650
v 0.242454 0.690054 -0.190886
v 0.239732 0.690054 -0.178300
v 0.236406 0.690054 -0.165894
v 0.232475 0.690054 -0.153666
v 0.227939 0.690054 -0.141617
v 0.222798 0.690054 -0.129747
v 0.217053 0.690054 -0.118056
v 0.210702 0.690054 -0.106543
v 0.203747 0.690054 -0.095210
v 0.196456 0.690054 -0.084562
v 0.188278 0.690054 -0.073471
v 0.179215 0.690054 -0.061938
v 0.169266 0.690054 -0.049961
v 0.158430 0.690054 -0.037542
v 0.146709 0.690054 -0.024679
v 0.134103 0.690054 -0.011374
v 0.120610 0.690054 0.002375
v 0.106231 0.690054 0.016566
v 0.090966 0.690054 0.031200
v 0.074816 0.690054 0.046277
v 0.057780 0.690054 0.061797
v 0.028971 0.690054 0.087658
v 0.001628 0.690054 0.113520
v -0.024250 0.690054 0.139381
v -0.048664 0.690054 0.165242
v -0.071611 0.690054 0.191103
v -0.093094 0.690054 0.216964
v -0.113112 0.690054 0.242826
v -0.131665 0.690054 0.268687
v -0.148752 0.690054 0.294548
v -0.164374 0.690054 0.320409
v -0.178532 0.690054 0.346270
v -0.191224 0.690054 0.372132
v 0.248519 0.690054 0.372132
v 0.248519 0.690054 0.441435
v -0.270341 0.690054 0.441435
v -0.270341 0.690054 0.379491
v -0.256554 0.690054 0.348481
v -0.241157 0.690054 0.317598
v -0.224151 0.690054 0.286843
v -0.205534 0.690054 0.256216
v -0.185308 0.690054 0.225717
v -0.163471 0.690054 0.195345
v -0.140025 0.690054 0.165101
v -0.114969 0.690054 0.134985
v -0.088303 0.690054 0.104997
v -0.060027 0.690054 0.075137
v -0.030141 0.690054 0.045404
v 0.001355 0.690054 0.015799
v 0.018038 0.690054 0.000028
v 0.033741 0.690054 -0.015190
v 0.048465 0.690054 -0.029854
v 0.062209 0.690054 -0.043964
v 0.074974 0.690054 -0.057521
v 0.086758 0.690054 -0.070524
v 0.097564 0.690054 -0.082973
v 0.107390 0.690054 -0.094869
v 0.116236 0.690054 -0.106211
v 0.124102 0.690054 -0.116999
v 0.130989 0.690054 -0.127234
v 0.136896 0.690054 -0.136915
v 0.141305 0.690054 -0.144960
v 0.145329 0.690054 -0.153150
v 0.148971 0.690054 -0.161485
v 0.152229 0.690054 -0.169965
v 0.155104 0.690054 -0.178590
v 0.157596 0.690054 -0.187359
v 0.159704 0.690054 -0.196274
v 0.161429 0.690054 -0.205333
v 0.162771 0.690054 -0.214537
v 0.163729 0.690054 -0.223885
v 0.164304 0.690054 -0.233379
v 0.164495 0.690054 -0.243017
v 0.164142 0.690054 -0.256157
v 0.163081 0.690054 -0.268793
v 0.161314 0.690054 -0.280927
v 0.158839 0.690054 -0.292559
v 0.155658 0.690054 -0.303688
v 0.151769 0.690054 -0.314314
v 0.147174 0.690054 -0.324438
v 0.141871 0.690054 -0.334059
v 0.135861 0.690054 -0.343178
v 0.129145 0.690054 -0.351794
v 0.121721 0.690054 -0.359908
v 0.113591 0.690054 -0.367519
v 0.106167 0.690054 -0.373494
v 0.098411 0.690054 -0.378950
v 0.090323 0.690054 -0.383887
v 0.081903 0.690054 -0.388303
v 0.073151 0.690054 -0.392200
v 0.064066 0.690054 -0.395578
v 0.054649 0.690054 -0.398436
v 0.044900 0.690054 -0.400774
v 0.034819 0.690054 -0.402592
v 0.024405 0.690054 -0.403891
v 0.013660 0.690054 -0.404671
v 0.002582 0.690054 -0.404931
v -0.022325 0.690054 -0.403623
v -0.045529 0.690054 -0.399701
v -0.067029 0.690054 -0.393163
v -0.086825 0.690054 -0.384010
v -0.104918 0.690054 -0.372242
v -0.121306 0.690054 -0.357859
v -0.135992 0.690054 -0.340861
v -0.148974 0.690054 -0.321248
v -0.160252 0.690054 -0.299020
v -0.169826 0.690054 -0.274177
v -0.177697 0.690054 -0.246718
v -0.183864 0.370054 -0.216645
v -0.262981 0.370054 -0.236884
v -0.258419 0.370054 -0.257098
v -0.253117 0.370054 -0.276443
v -0.247073 0.370054 -0.294919
v -0.240288 0.370054 -0.312526
v -0.232763 0.370054 -0.329264
v -0.224496 0.370054 -0.345133
v -0.215488 0.370054 -0.360134
v -0.205739 0.370054 -0.374265
v -0.195249 0.370054 -0.387528
v -0.184017 0.370054 -0.399922
v -0.172045 0.370054 -0.411447
v -0.159332 0.370054 -0.422103
v -0.148079 0.370054 -0.430430
v -0.136401 0.370054 -0.438032
v -0.124296 0.370054 -0.444911
v -0.111766 0.370054 -0.451065
v -0.098810 0.370054 -0.456496
v -0.085428 0.370054 -0.461202
v -0.071620 0.370054 -0.465184
v -0.057386 0.370054 -0.468442
v -0.042726 0.370054 -0.470976
v -0.027641 0.370054 -0.472787
v -0.012129 0.370054 -0.473873
v 0.003808 0.370054 -0.474235
v 0.022693 0.370054 -0.473753
v 0.040914 0.370054 -0.472310
v 0.058470 0.370054 -0.469903
v 0.075361 0.370054 -0.466534
v 0.091588 0.370054 -0.462203
v 0.107151 0.370054 -0.456909
v 0.122049 0.370054 -0.450652
v 0.136283 0.370054 -0.443433
v 0.149853 0.370054 -0.435251
v 0.162758 0.370054 -0.426107
v 0.174998 0.370054 -0.416000
v 0.186575 0.370054 -0.404931
v 0.196272 0.370054 -0.394343
v 0.205127 0.370054 -0.383226
v 0.213138 0.370054 -0.371582
v 0.220306 0.370054 -0.359410
v 0.226631 0.370054 -0.346709
v 0.232113 0.370054 -0.333480
v 0.236751 0.370054 -0.319723
v 0.240546 0.370054 -0.305438
v 0.243497 0.370054 -0.290625
v 0.245605 0.370054 -0.275284
v 0.246870 0.370054 -0.259415
v 0.247292 0.370054 -0.243017
v 0.246990 0.370054 -0.229716
v 0.246082 0.370054 -0.216594
v 0.244570 0.370054 -0.203650
v 0.242454 0.370054 -0.190886
v 0.239732 0.370054 -0.178300
v 0.236406 0.370054 -0.165894
v 0.232475 0.370054 -0.153666
v 0.227939 0.370054 -0.141617
v 0.222798 0.370054 -0.129747
v 0.217053 0.370054 -0.118056
v 0.210702 0.370054 -0.106543
v 0.203747 0.370054 -0.095210
v 0.196456 0.370054 -0.084562
v 0.188278 0.370054 -0.073471
v 0.179215 0.370054 -0.061938
v 0.169266 0.370054 -0.049961
v 0.158430 0.370054 -0.037542
v 0.146709 0.370054 -0.024679
v 0.134103 0.370054 -0.011374
v 0.120610 0.370054 0.002375
v 0.106231 0.370054 0.016566
v 0.090966 0.370054 0.031200
v 0.074816 0.370054 0.046277
v 0.057780 0.370054 0.061797
v 0.028971 0.370054 0.087658
v 0.001628 0.370054 0.113520
v -0.024250 0.370054 0.139381
v -0.048664 0.370054 0.165242
v -0.071611 0.370054 0.191103
v -0.093094 0.370054 0.216964
v -0.113112 0.370054 0.242826
v -0.131665 0.370054 0.268687
v -0.148752 0.370054 0.294548
v -0.164374 0.370054 0.320409
v -0.178532 0.370054 0.346270
v -0.191224 0.370054 0.372132
v 0.248519 0.370054 0.372132
v 0.248519 0.370054 0.441435
v -0.270341 0.370054 0.441435
v -0.270341 0.370054 0.379491
v -0.256554 0.370054 0.348481
v -0.241157 0.370054 0.317598
v -0.224151 0.370054 0.286843
v -0.205534 0.370054 0.256216
v -0.185308 0.370054 0.225717
v -0.163471 0.370054 0.195345
v -0.140025 0.370054 0.165101
v -0.114969 0.370054 0.134985
v -0.088303 0.370054 0.104997
v -0.060027 0.370054 0.075137
v -0.030141 0.370054 0.045404
v 0.001355 0.370054 0.015799
v 0.018038 0.370054 0.000028
v 0.033741 0.370054 -0.015190
v 0.048465 0.370054 -0.029854
v 0.062209 0.370054 -0.043964
v 0.074974 0.370054 -0.057521
v 0.086758 0.370054 -0.070524
v 0.097564 0.370054 -0.082973
v 0.107390 0.370054 -0.094869
v 0.116236 0.370054 -0.106211
v 0.124102 0.370054 -0.116999
v 0.130989 0.370054 -0.127234
v 0.136896 0.370054 -0.136915
v 0.141305 0.370054 -0.144960
v 0.145329 0.370054 -0.153150
v 0.148971 0.370054 -0.161485
v 0.152229 0.370054 -0.169965
v 0.155104 0.370054 -0.178590
v 0.157596 0.370054 -0.187359
v 0.159704 0.370054 -0.196274
v 0.161429 0.370054 -0.205333
v 0.162771 0.370054 -0.214537
v 0.163729 0.370054 -0.223885
v 0.164304 0.370054 -0.233379
v 0.164495 0.370054 -0.243017
v 0.164142 0.370054 -0.256157
v 0.163081 0.370054 -0.268793
v 0.161314 0.370054 -0.280927
v 0.158839 0.370054 -0.292559
v 0.155658 0.370054 -0.303688
v 0.151769 0.370054 -0.314314
v 0.147174 0.370054 -0.324438
v 0.141871 0.370054 -0.334059
v 0.135861 0.370054 -0.343178
v 0.129145 0.370054 -0.351794
v 0.121721 0.370054 -0.359908
v 0.113591 0.370054 -0.367519
v 0.106167 0.370054 -0.373494
v 0.098411 0.370054 -0.378950
v 0.090323 0.370054 -0.383887
v 0.081903 0.370054 -0.388303
v 0.073151 0.370054 -0.392200
v 0.064066 0.370054 -0.395578
v 0.054649 0.370054 -0.398436
v 0.044900 0.370054 -0.400774
v 0.034819 0.370054 -0.402592
v 0.024405 0.370054 -0.403891
v 0.013660 0.370054 -0.404671
v 0.002582 0.370054 -0.404931
v -0.022325 0.370054 -0.403623
v -0.045529 0.370054 -0.399701
v -0.067029 0.370054 -0.393163
v -0.086825 0.370054 -0.384010
v -0.104918 0.370054 -0.372242
v -0.121306 0.370054 -0.357859
v -0.135992 0.370054 -0.340861
v -0.148974 0.370054 -0.321248
v -0.160252 0.370054 -0.299020
v -0.169826 0.370054 -0.274177
v -0.177697 0.370054 -0.246718
v -0.183864 0.370054 -0.216645
v -0.183864 0.690054 -0.216645
v -0.262981 0.370054 -0.236884
v -0.262981 0.690054 -0.236884
v -0.258419 0.370054 -0.257098
v -0.258419 0.690054 -0.257098
v -0.253117 0.370054 -0.276443
v -0.253117 0.690054 -0.276443
v -0.247073 0.370054 -0.294919
v -0.247073 0.690054 -0.294919
v -0.240288 0.370054 -0.312526
v -0.240288 0.690054 -0.312526
v -0.232763 0.370054 -0.329264
v -0.232763 0.690054 -0.329264
v -0.224496 0.370054 -0.345133
v -0.224496 0.690054 -0.345133
v -0.215488 0.370054 -0.360134
v -0.215488 0.690054 -0.360134
v -0.205739 0.370054 -0.374265
v -0.205739 0.690054 -0.374265
v -0.195249 0.370054 -0.387528
v -0.195249 0.690054 -0.387528
v -0.184017 0.370054 -0.399922
v -0.184017 0.690054 -0.399922
v -0.172045 0.370054 -0.411447
v -0.172045 0.690054 -0.411447
v -0.159332 0.370054 -0.422103
v -0.159332 0.690054 -0.422103
v -0.148079 0.370054 -0.430430
v -0.148079 0.690054 -0.430430
v -0.136401 0.370054 -0.438032
v -0.136401 0.690054 -0.438032
v -0.124296 0.370054 -0.444911
v -0.124296 0.690054 -0.444911
v -0.111766 0.370054 -0.451065
v -0.111766 0.690054 -0.451065
v -0.098810 0.370054 -0.456496
v -0.098810 0.690054 -0.456496
v -0.085428 0.370054 -0.461202
v -0.085428 0.690054 -0.461202
v -0.071620 0.370054 -0.465184
v -0.071620 0.690054 -0.465184
v -0.057386 0.370054 -0.468442
v -0.057386 0.690054 -0.468442
v -0.042726 0.370054 -0.470976
v -0.042726 0.690054 -0.470976
v -0.027641 0.370054 -0.472787
v -0.027641 0.690054 -0.472787
v -0.012129 0.370054 -0.473873
v -0.012129 0.690054 -0.473873
v 0.003808 0.370054 -0.474235
v 0.003808 0.690054 -0.474235
v 0.022693 0.370054 -0.473753
v 0.022693 0.690054 -0.473753
v 0.040914 0.370054 -0.472310
v 0.040914 0.690054 -0.472310
v 0.058470 0.370054 -0.469903
v 0.058470 0.690054 -0.469903
v 0.075361 0.370054 -0.466534
v 0.075361 0.690054 -0.466534
v 0.091588 0.370054 -0.462203
v 0.091588 0.690054 -0.462203
v 0.107151 0.370054 -0.456909
v 0.107151 0.690054 -0.456909
v 0.122049 0.370054 -0.450652
v 0.122049 0.690054 -0.450652
v 0.136283 0.370054 -0.443433
v 0.136283 0.690054 -0.443433
v 0.149853 0.370054 -0.435251
v 0.149853 0.690054 -0.435251
v 0.162758 0.370054 -0.426107
v 0.162758 0.690054 -0.426107
v 0.174998 0.370054 -0.416000
v 0.174998 0.690054 -0.416000
v 0.186575 0.370054 -0.404931
v 0.186575 0.690054 -0.404931
v 0.196272 0.370054 -0.394343
v 0.196272 0.690054 -0.394343
v 0.205127 0.370054 -0.383226
v 0.205127 0.690054 -0.383226
v 0.213138 0.370054 -0.371582
v 0.213138 0.690054 -0.371582
v 0.220306 0.370054 -0.359410
v 0.220306 0.690054 -0.359410
v 0.226631 0.370054 -0.346709
v 0.226631 0.690054 -0.346709
v 0.232113 0.370054 -0.333480
v 0.232113 0.690054 -0.333480
v 0.236751 0.370054 -0.319723
v 0.236751 0.690054 -0.319723
v 0.240546 0.370054 -0.305438
v 0.240546 0.690054 -0.305438
v 0.243497 0.370054 -0.290625
v 0.243497 0.690054 -0.290625
v 0.245605 0.370054 -0.275284
v 0.245605 0.690054 -0.275284
v 0.246870 0.370054 -0.259415
v 0.246870 0.690054 -0.259415
v 0.247292 0.370054 -0.243017
v 0.247292 0.690054 -0.243017
v 0.246990 0.370054 -0.229716
v 0.246990 0.690054 -0.229716
v 0.246082 0.370054 -0.216594
v 0.246082 0.690054 -0.216594
v 0.244570 0.370054 -0.203650
v 0.244570 0.690054 -0.203650
v 0.242454 0.370054 -0.190886
v 0.242454 0.690054 -0.190886
v 0.239732 0.370054 -0.178300
v 0.239732 0.690054 -0.178300
v 0.236406 0.370054 -0.165894
v 0.236406 0.690054 -0.165894
v 0.232475 0.370054 -0.153666
v 0.232475 0.690054 -0.153666
v 0.227939 0.370054 -0.141617
v 0.227939 0.690054 -0.141617
v 0.222798 0.370054 -0.129747
v 0.222798 0.690054 -0.129747
v 0.217053 0.370054 -0.118056
v 0.217053 0.690054 -0.118056
v 0.210702 0.370054 -0.106543
v 0.210702 0.690054 -0.106543
v 0.203747 0.370054 -0.095210
v 0.203747 0.690054 -0.095210
v 0.196456 0.370054 -0.084562
v 0.196456 0.690054 -0.084562
v 0.188278 0.370054 -0.073471
v 0.188278 0.690054 -0.073471
v 0.179215 0.370054 -0.061938
v 0.179215 0.690054 -0.061938
v 0.169266 0.370054 -0.049961
v 0.169266 0.690054 -0.049961
v 0.158430 0.370054 -0.037542
v 0.158430 0.690054 -0.037542
v 0.146709 0.370054 -0.024679
v 0.146709 0.690054 -0.024679
v 0.134103 0.370054 -0.011374
v 0.134103 0.690054 -0.011374
v 0.120610 0.370054 0.002375
v 0.120610 0.690054 0.002375
v 0.106231 0.370054 0.016566
v 0.106231 0.690054 0.016566
v 0.090966 0.370054 0.031200
v 0.090966 0.690054 0.031200
v 0.074816 0.370054 0.046277
v 0.074816 0.690054 0.046277
v 0.057780 0.370054 0.061797
v 0.057780 0.690054 0.061797
v 0.028971 0.370054 0.087658
v 0.028971 0.690054 0.087658
v 0.001628 0.370054 0.113520
v 0.001628 0.690054 0.113520
v -0.024250 0.370054 0.139381
v -0.024250 0.690054 0.139381
v -0.048664 0.370054 0.165242
v -0.048664 0.690054 0.165242
v -0.071611 0.370054 0.191103
v -0.071611 0.690054 0.191103
v -0.093094 0.370054 0.216964
v -0.093094 0.690054 0.216964
v -0.113112 0.370054 0.242826
v -0.113112 0.690054 0.242826
v -0.131665 0.370054 0.268687
v -0.131665 0.690054 0.268687
v -0.148752 0.370054 0.294548
v -0.148752 0.690054 0.294548
v -0.164374 0.370054 0.320409
v -0.164374 0.690054 0.320409
v -0.178532 0.370054 0.346270
v -0.178532 0.690054 0.346270
v -0.191224 0.370054 0.372132
v -0.191224 0.690054 0.372132
v 0.248519 0.370054 0.372132
v 0.248519 0.690054 0.372132
v 0.248519 0.370054 0.441435
v 0.248519 0.690054 0.441435
v -0.270341 0.370054 0.441435
v -0.270341 0.690054 0.441435
v -0.270341 0.370054 0.379491
v -0.270341 0.690054 0.379491
v -0.256554 0.370054 0.348481
v -0.256554 0.690054 0.348481
v -0.241157 0.370054 0.317598
v -0.241157 0.690054 0.317598
v -0.224151 0.370054 0.286843
v -0.224151 0.690054 0.286843
v -0.205534 0.370054 0.256216
v -0.205534 0.690054 0.256216
v -0.185308 0.370054 0.225717
v -0.185308 0.690054 0.225717
v -0.163471 0.370054 0.195345
v -0.163471 0.690054 0.195345
v -0.140025 0.370054 0.165101
v -0.140025 0.690054 0.165101
v -0.114969 0.370054 0.134985
v -0.114969 0.690054 0.134985
v -0.088303 0.370054 0.104997
v -0.088303 0.690054 0.104997
v -0.060027 0.370054 0.075137
v -0.060027 0.690054 0.075137
v -0.030141 0.370054 0.045404
v -0.030141 0.690054 0.045404
v 0.001355 0.370054 0.015799
v 0.001355 0.690054 0.015799
v 0.018038 0.370054 0.000028
v 0.018038 0.690054 0.000028
v 0.033741 0.370054 -0.015190
v 0.033741 0.690054 -0.015190
v 0.048465 0.370054 -0.029854
v 0.048465 0.690054 -0.029854
v 0.062209 0.370054 -0.043964
v 0.062209 0.690054 -0.043964
v 0.074974 0.370054 -0.057521
v 0.074974 0.690054 -0.057521
v 0.086758 0.370054 -0.070524
v 0.086758 0.690054 -0.070524
v 0.097564 0.370054 -0.082973
v 0.097564 0.690054 -0.082973
v 0.107390 0.370054 -0.094869
v 0.107390 0.690054 -0.094869
v 0.116236 0.370054 -0.106211
v 0.116236 0.690054 -0.106211
v 0.124102 0.370054 -0.116999
v 0.124102 0.690054 -0.116999
v 0.130989 0.370054 -0.127234
v 0.130989 0.690054 -0.127234
v 0.136896 0.370054 -0.136915
v 0.136896 0.690054 -0.136915
v 0.141305 0.370054 -0.144960
v 0.141305 0.690054 -0.144960
v 0.145329 0.370054 -0.153150
v 0.145329 0.690054 -0.153150
v 0.148971 0.370054 -0.161485
v 0.148971 0.690054 -0.161485
v 0.152229 0.370054 -0.169965
v 0.152229 0.690054 -0.169965
v 0.155104 0.370054 -0.178590
v 0.155104 0.690054 -0.178590
v 0.157596 0.370054 -0.187359
v 0.157596 0.690054 -0.187359
v 0.159704 0.370054 -0.196274
v 0.159704 0.690054 -0.196274
v 0.161429 0.370054 -0.205333
v 0.161429 0.690054 -0.205333
v 0.162771 0.370054 -0.214537
v 0.162771 0.690054 -0.214537
v 0.163729 0.370054 -0.223885
v 0.163729 0.690054 -0.223885
v 0.164304 0.370054 -0.233379
v 0.164304 0.690054 -0.233379
v 0.164495 0.370054 -0.243017
v 0.164495 0.690054 -0.243017
v 0.164142 0.370054 -0.256157
v 0.164142 0.690054 -0.256157
v 0.163081 0.370054 -0.268793
v 0.163081 0.690054 -0.268793
v 0.161314 0.370054 -0.280927
v 0.161314 0.690054 -0.280927
v 0.158839 0.370054 -0.292559
v 0.158839 0.690054 -0.292559
v 0.155658 0.370054 -0.303688
v 0.155658 0.690054 -0.303688
v 0.151769 0.370054 -0.314314
v 0.151769 0.690054 -0.314314
v 0.147174 0.370054 -0.324438
v 0.147174 0.690054 -0.324438
v 0.141871 0.370054 -0.334059
v 0.141871 0.690054 -0.334059
v 0.135861 0.370054 -0.343178
v 0.135861 0.690054 -0.343178
v 0.129145 0.370054 -0.351794
v 0.129145 0.690054 -0.351794
v 0.121721 0.370054 -0.359908
v 0.121721 0.690054 -0.359908
v 0.113591 0.370054 -0.367519
v 0.113591 0.690054 -0.367519
v 0.106167 0.370054 -0.373494
v 0.106167 0.690054 -0.373494
v 0.098411 0.370054 -0.378950
v 0.098411 0.690054 -0.378950
v 0.090323 0.370054 -0.383887
v 0.090323 0.690054 -0.383887
v 0.081903 0.370054 -0.388303
v 0.081903 0.690054 -0.388303
v 0.073151 0.370054 -0.392200
v 0.073151 0.690054 -0.392200
v 0.064066 0.370054 -0.395578
v 0.064066 0.690054 -0.395578
v 0.054649 0.370054 -0.398436
v 0.054649 0.690054 -0.398436
v 0.044900 0.370054 -0.400774
v 0.044900 0.690054 -0.400774
v 0.034819 0.370054 -0.402592
v 0.034819 0.690054 -0.402592
v 0.024405 0.370054 -0.403891
v 0.024405 0.690054 -0.403891
v 0.013660 0.370054 -0.404671
v 0.013660 0.690054 -0.404671
v 0.002582 0.370054 -0.404931
v 0.002582 0.690054 -0.404931
v -0.022325 0.370054 -0.403623
v -0.022325 0.690054 -0.403623
v -0.045529 0.370054 -0.399701
v -0.045529 0.690054 -0.399701
v -0.067029 0.370054 -0.393163
v -0.067029 0.690054 -0.393163
v -0.086825 0.370054 -0.384010
v -0.086825 0.690054 -0.384010
v -0.104918 0.370054 -0.372242
v -0.104918 0.690054 -0.372242
v -0.121306 0.370054 -0.357859
v -0.121306 0.690054 -0.357859
v -0.135992 0.370054 -0.340861
v -0.135992 0.690054 -0.340861
v -0.148974 0.370054 -0.321248
v -0.148974 0.690054 -0.321248
v -0.160252 0.370054 -0.299020
v -0.160252 0.690054 -0.299020
v -0.169826 0.370054 -0.274177
v -0.169826 0.690054 -0.274177
v -0.177697 0.370054 -0.246718
v -0.177697 0.690054 -0.246718
vt 0.150000 0.000000
vt 0.162500 0.000000
vt 0.156250 0.000000
vt 0.143750 0.000000
vt 0.168750 0.000000
vt 0.137500 0.000000
vt 0.175000 0.000000
vt 0.131250 0.000000
vt 0.181250 0.000000
vt 0.125000 0.000000
vt 0.187500 0.000000
vt 0.118750 0.000000
vt 0.193750 0.000000
vt 0.112500 0.000000
vt 0.200000 0.000000
vt 0.106250 0.000000
vt 0.100000 0.000000
vt 0.206250 0.000000
vt 0.093750 0.000000
vt 0.212500 0.000000
vt 0.087500 0.000000
vt 0.218750 0.000000
vt 0.081250 0.000000
vt 0.225000 0.000000
vt 0.075000 0.000000
vt 0.231250 0.000000
vt 0.068750 0.000000
vt 0.931250 0.000000
vt 0.937500 0.000000
vt 0.925000 0.000000
vt 0.237500 0.000000
vt 0.918750 0.000000
vt 0.912500 0.000000
vt 0.943750 0.000000
vt 0.906250 0.000000
vt 0.900000 0.000000
vt 0.062500 0.000000
vt 0.950000 0.000000
vt 0.893750 0.000000
vt 0.887500 0.000000
vt 0.243750 0.000000
vt 0.956250 0.000000
vt 0.881250 0.000000
vt 0.875000 0.000000
vt 0.056250 0.000000
vt 0.962500 0.000000
vt 0.868750 0.000000
vt 0.250000 0.000000
vt 0.862500 0.000000
vt 0.050000 0.000000
vt 0.856250 0.000000
vt 0.968750 0.000000
vt 0.256250 0.000000
vt 0.850000 0.000000
vt 0.043750 0.000000
vt 0.843750 0.000000
vt 0.262500 0.000000
vt 0.975000 0.000000
vt 0.837500 0.000000
vt 0.268750 0.000000
vt 0.037500 0.000000
vt 0.831250 0.000000
vt 0.981250 0.000000
vt 0.825000 0.000000
vt 0.275000 0.000000
vt 0.031250 0.000000
vt 0.818750 0.000000
vt 0.987500 0.000000
vt 0.281250 0.000000
vt 0.812500 0.000000
vt 0.025000 0.000000
vt 0.287500 0.000000
vt 0.806250 0.000000
vt 0.993750 0.000000
vt 0.018750 0.000000
vt 0.800000 0.000000
vt 0.293750 0.000000
vt 0.793750 0.000000
vt 0.012500 0.000000
vt 0.300000 0.000000
vt 1.000000 0.000000
vt 0.787500 0.000000
vt 0.306250 0.000000
vt 0.006250 0.000000
vt 0.781250 0.000000
vt 0.000000 0.000000
vt 0.775000 0.000000
vt 0.312500 0.000000
vt 0.768750 0.000000
vt 0.318750 0.000000
vt 0.762500 0.000000
vt 0.325000 0.000000
vt 0.756250 0.000000
vt 0.750000 0.000000
vt 0.331250 0.000000
vt 0.743750 0.000000
vt 0.337500 0.000000
vt 0.737500 0.000000
vt 0.731250 0.000000
vt 0.343750 0.000000
vt 0.725000 0.000000
vt 0.350000 0.000000
vt 0.718750 0.000000
vt 0.356250 0.000000
vt 0.712500 0.000000
vt 0.706250 0.000000
vt 0.362500 0.000000
vt 0.700000 0.000000
vt 0.368750 0.000000
vt 0.693750 0.000000
vt 0.375000 0.000000
vt 0.687500 0.000000
vt 0.381250 0.000000
vt 0.681250 0.000000
vt 0.387500 0.000000
vt 0.675000 0.000000
vt 0.393750 0.000000
vt 0.668750 0.000000
vt 0.400000 0.000000
vt 0.662500 0.000000
vt 0.406250 0.000000
vt 0.656250 0.000000
vt 0.412500 0.000000
vt 0.650000 0.000000
vt 0.418750 0.000000
vt 0.643750 0.000000
vt 0.425000 0.000000
vt 0.637500 0.000000
vt 0.431250 0.000000
vt 0.631250 0.000000
vt 0.437500 0.000000
vt 0.625000 0.000000
vt 0.443750 0.000000
vt 0.450000 0.000000
vt 0.618750 0.000000
vt 0.456250 0.000000
vt 0.462500 0.000000
vt 0.612500 0.000000
vt 0.468750 0.000000
vt 0.606250 0.000000
vt 0.475000 0.000000
vt 0.600000 0.000000
vt 0.481250 0.000000
vt 0.593750 0.000000
vt 0.487500 0.000000
vt 0.493750 0.000000
vt 0.587500 0.000000
vt 0.500000 0.000000
vt 0.581250 0.000000
vt 0.506250 0.000000
vt 0.575000 0.000000
vt 0.512500 0.000000
vt 0.568750 0.000000
vt 0.518750 0.000000
vt 0.562500 0.000000
vt 0.525000 0.000000
vt 0.531250 0.000000
vt 0.556250 0.000000
vt 0.537500 0.000000
vt 0.543750 0.000000
vt 0.550000 0.000000
vt 0.162500 0.000000
vt 0.150000 0.000000
vt 0.156250 0.000000
vt 0.143750 0.000000
vt 0.168750 0.000000
vt 0.137500 0.000000
vt 0.175000 0.000000
vt 0.131250 0.000000
vt 0.181250 0.000000
vt 0.125000 0.000000
vt 0.187500 0.000000
vt 0.118750 0.000000
vt 0.193750 0.000000
vt 0.112500 0.000000
vt 0.200000 0.000000
vt 0.106250 0.000000
vt 0.100000 0.000000
vt 0.206250 0.000000
vt 0.093750 0.000000
vt 0.212500 0.000000
vt 0.087500 0.000000
vt 0.218750 0.000000
vt 0.081250 0.000000
vt 0.225000 0.000000
vt 0.075000 0.000000
vt 0.231250 0.000000
vt 0.931250 0.000000
vt 0.068750 0.000000
vt 0.937500 0.000000
vt 0.925000 0.000000
vt 0.237500 0.000000
vt 0.918750 0.000000
vt 0.912500 0.000000
vt 0.943750 0.000000
vt 0.906250 0.000000
vt 0.900000 0.000000
vt 0.062500 0.000000
vt 0.950000 0.000000
vt 0.893750 0.000000
vt 0.887500 0.000000
vt 0.243750 0.000000
vt 0.956250 0.000000
vt 0.881250 0.000000
vt 0.875000 0.000000
vt 0.056250 0.000000
vt 0.962500 0.000000
vt 0.868750 0.000000
vt 0.250000 0.000000
vt 0.862500 0.000000
vt 0.050000 0.000000
vt 0.856250 0.000000
vt 0.968750 0.000000
vt 0.256250 0.000000
vt 0.850000 0.000000
vt 0.043750 0.000000
vt 0.843750 0.000000
vt 0.262500 0.000000
vt 0.975000 0.000000
vt 0.837500 0.000000
vt 0.268750 0.000000
vt 0.037500 0.000000
vt 0.831250 0.000000
vt 0.981250 0.000000
vt 0.825000 0.000000
vt 0.275000 0.000000
vt 0.031250 0.000000
vt 0.818750 0.000000
vt 0.987500 0.000000
vt 0.281250 0.000000
vt 0.812500 0.000000
vt 0.025000 0.000000
vt 0.287500 0.000000
vt 0.806250 0.000000
vt 0.993750 0.000000
vt 0.018750 0.000000
vt 0.800000 0.000000
vt 0.293750 0.000000
vt 0.793750 0.000000
vt 0.012500 0.000000
vt 0.300000 0.000000
vt 1.000000 0.000000
vt 0.787500 0.000000
vt 0.306250 0.000000
vt 0.006250 0.000000
vt 0.781250 0.000000
vt 0.000000 0.000000
vt 0.775000 0.000000
vt 0.312500 0.000000
vt 0.768750 0.000000
vt 0.318750 0.000000
vt 0.762500 0.000000
vt 0.325000 0.000000
vt 0.756250 0.000000
vt 0.750000 0.000000
vt 0.331250 0.000000
vt 0.743750 0.000000
vt 0.337500 0.000000
vt 0.737500 0.000000
vt 0.731250 0.000000
vt 0.343750 0.000000
vt 0.725000 0.000000
vt 0.350000 0.000000
vt 0.718750 0.000000
vt 0.356250 0.000000
vt 0.712500 0.000000
vt 0.706250 0.000000
vt 0.362500 0.000000
vt 0.700000 0.000000
vt 0.368750 0.000000
vt 0.693750 0.000000
vt 0.375000 0.000000
vt 0.687500 0.000000
vt 0.381250 0.000000
vt 0.681250 0.000000
vt 0.387500 0.000000
vt 0.675000 0.000000
vt 0.393750 0.000000
vt 0.668750 0.000000
vt 0.400000 0.000000
vt 0.662500 0.000000
vt 0.406250 0.000000
vt 0.656250 0.000000
vt 0.412500 0.000000
vt 0.650000 0.000000
vt 0.418750 0.000000
vt 0.643750 0.000000
vt 0.425000 0.000000
vt 0.637500 0.000000
vt 0.431250 0.000000
vt 0.631250 0.000000
vt 0.437500 0.000000
vt 0.625000 0.000000
vt 0.443750 0.000000
vt 0.450000 0.000000
vt 0.618750 0.000000
vt 0.456250 0.000000
vt 0.462500 0.000000
vt 0.612500 0.000000
vt 0.468750 0.000000
vt 0.606250 0.000000
vt 0.475000 0.000000
vt 0.600000 0.000000
vt 0.481250 0.000000
vt 0.593750 0.000000
vt 0.487500 0.000000
vt 0.493750 0.000000
vt 0.587500 0.000000
vt 0.500000 0.000000
vt 0.581250 0.000000
vt 0.506250 0.000000
vt 0.575000 0.000000
vt 0.512500 0.000000
vt 0.568750 0.000000
vt 0.518750 0.000000
vt 0.562500 0.000000
vt 0.525000 0.000000
vt 0.531250 0.000000
vt 0.556250 0.000000
vt 0.537500 0.000000
vt 0.543750 0.000000
vt 0.550000 0.000000
vt 0.000000 1.000000
vt 0.006211 1.000000
vt 0.006211 0.000000
vt 0.000000 0.000000
vt 0.012422 1.000000
vt 0.012422 0.000000
vt 0.018634 1.000000
vt 0.018634 0.000000
vt 0.024845 1.000000
vt 0.024845 0.000000
vt 0.031056 1.000000
vt 0.031056 0.000000
vt 0.037267 1.000000
vt 0.037267 0.000000
vt 0.043478 1.000000
vt 0.043478 0.000000
vt 0.049689 1.000000
vt 0.049689 0.000000
vt 0.055901 1.000000
vt 0.055901 0.000000
vt 0.062112 1.000000
vt 0.062112 0.000000
vt 0.068323 1.000000
vt 0.068323 0.000000
vt 0.074534 1.000000
vt 0.074534 0.000000
vt 0.080745 1.000000
vt 0.080745 0.000000
vt 0.086957 1.000000
vt 0.086957 0.000000
vt 0.093168 1.000000
vt 0.093168 0.000000
vt 0.099379 1.000000
vt 0.099379 0.000000
vt 0.105590 1.000000
vt 0.105590 0.000000
vt 0.111801 1.000000
vt 0.111801 0.000000
vt 0.118012 1.000000
vt 0.118012 0.000000
vt 0.124224 1.000000
vt 0.124224 0.000000
vt 0.130435 1.000000
vt 0.130435 0.000000
vt 0.136646 1.000000
vt 0.136646 0.000000
vt 0.142857 1.000000
vt 0.142857 0.000000
vt 0.149068 1.000000
vt 0.149068 0.000000
vt 0.155280 1.000000
vt 0.155280 0.000000
vt 0.161491 1.000000
vt 0.161491 0.000000
vt 0.167702 1.000000
vt 0.167702 0.000000
vt 0.173913 1.000000
vt 0.173913 0.000000
vt 0.180124 1.000000
vt 0.180124 0.000000
vt 0.186335 1.000000
vt 0.186335 0.000000
vt 0.192547 1.000000
vt 0.192547 0.000000
vt 0.198758 1.000000
vt 0.198758 0.000000
vt 0.204969 1.000000
vt 0.204969 0.000000
vt 0.211180 1.000000
vt 0.211180 0.000000
vt 0.217391 1.000000
vt 0.217391 0.000000
vt 0.223602 1.000000
vt 0.223602 0.000000
vt 0.229814 1.000000
vt 0.229814 0.000000
vt 0.236025 1.000000
vt 0.236025 0.000000
vt 0.242236 1.000000
vt 0.242236 0.000000
vt 0.248447 1.000000
vt 0.248447 0.000000
vt 0.254658 1.000000
vt 0.254658 0.000000
vt 0.260870 1.000000
vt 0.260870 0.000000
vt 0.267081 1.000000
vt 0.267081 0.000000
vt 0.273292 1.000000
vt 0.273292 0.000000
vt 0.279503 1.000000
vt 0.279503 0.000000
vt 0.285714 1.000000
vt 0.285714 0.000000
vt 0.291925 1.000000
vt 0.291925 0.000000
vt 0.298137 1.000000
vt 0.298137 0.000000
vt 0.304348 1.000000
vt 0.304348 0.000000
vt 0.310559 1.000000
vt 0.310559 0.000000
vt 0.316770 1.000000
vt 0.316770 0.000000
vt 0.322981 1.000000
vt 0.322981 0.000000
vt 0.329193 1.000000
vt 0.329193 0.000000
vt 0.335404 1.000000
vt 0.335404 0.000000
vt 0.341615 1.000000
vt 0.341615 0.000000
vt 0.347826 1.000000
vt 0.347826 0.000000
vt 0.354037 1.000000
vt 0.354037 0.000000
vt 0.360248 1.000000
vt 0.360248 0.000000
vt 0.366460 1.000000
vt 0.366460 0.000000
vt 0.372671 1.000000
vt 0.372671 0.000000
vt 0.378882 1.000000
vt 0.378882 0.000000
vt 0.385093 1.000000
vt 0.385093 0.000000
vt 0.391304 1.000000
vt 0.391304 0.000000
vt 0.397516 1.000000
vt 0.397516 0.000000
vt 0.403727 1.000000
vt 0.403727 0.000000
vt 0.409938 1.000000
vt 0.409938 0.000000
vt 0.416149 1.000000
vt 0.416149 0.000000
vt 0.422360 1.000000
vt 0.422360 0.000000
vt 0.428571 1.000000
vt 0.428571 0.000000
vt 0.434783 1.000000
vt 0.434783 0.000000
vt 0.440994 1.000000
vt 0.440994 0.000000
vt 0.447205 1.000000
vt 0.447205 0.000000
vt 0.453416 1.000000
vt 0.453416 0.000000
vt 0.459627 1.000000
vt 0.459627 0.000000
vt 0.465839 1.000000
vt 0.465839 0.000000
vt 0.472050 1.000000
vt 0.472050 0.000000
vt 0.478261 1.000000
vt 0.478261 0.000000
vt 0.484472 1.000000
vt 0.484472 0.000000
vt 0.490683 1.000000
vt 0.490683 0.000000
vt 0.496894 1.000000
vt 0.496894 0.000000
vt 0.503106 1.000000
vt 0.503106 0.000000
vt 0.509317 1.000000
vt 0.509317 0.000000
vt 0.515528 1.000000
vt 0.515528 0.000000
vt 0.521739 1.000000
vt 0.521739 0.000000
vt 0.527950 1.000000
vt 0.527950 0.000000
vt 0.534162 1.000000
vt 0.534162 0.000000
vt 0.540373 1.000000
vt 0.540373 0.000000
vt 0.546584 1.000000
vt 0.546584 0.000000
vt 0.552795 1.000000
vt 0.552795 0.000000
vt 0.559006 1.000000
vt 0.559006 0.000000
vt 0.565217 1.000000
vt 0.565217 0.000000
vt 0.571429 1.000000
vt 0.571429 0.000000
vt 0.577640 1.000000
vt 0.577640 0.000000
vt 0.583851 1.000000
vt 0.583851 0.000000
vt 0.590062 1.000000
vt 0.590062 0.000000
vt 0.596273 1.000000
vt 0.596273 0.000000
vt 0.602484 1.000000
vt 0.602484 0.000000
vt 0.608696 1.000000
vt 0.608696 0.000000
vt 0.614907 1.000000
vt 0.614907 0.000000
vt 0.621118 1.000000
vt 0.621118 0.000000
vt 0.627329 1.000000
vt 0.627329 0.000000
vt 0.633540 1.000000
vt 0.633540 0.000000
vt 0.639752 1.000000
vt 0.639752 0.000000
vt 0.645963 1.000000
vt 0.645963 0.000000
vt 0.652174 1.000000
vt 0.652174 0.000000
vt 0.658385 1.000000
vt 0.658385 0.000000
vt 0.664596 1.000000
vt 0.664596 0.000000
vt 0.670807 1.000000
vt 0.670807 0.000000
vt 0.677019 1.000000
vt 0.677019 0.000000
vt 0.683230 1.000000
vt 0.683230 0.000000
vt 0.689441 1.000000
vt 0.689441 0.000000
vt 0.695652 1.000000
vt 0.695652 0.000000
vt 0.701863 1.000000
vt 0.701863 0.000000
vt 0.708075 1.000000
vt 0.708075 0.000000
vt 0.714286 1.000000
vt 0.714286 0.000000
vt 0.720497 1.000000
vt 0.720497 0.000000
vt 0.726708 1.000000
vt 0.726708 0.000000
vt 0.732919 1.000000
vt 0.732919 0.000000
vt 0.739130 1.000000
vt 0.739130 0.000000
vt 0.745342 1.000000
vt 0.745342 0.000000
vt 0.751553 1.000000
vt 0.751553 0.000000
vt 0.757764 1.000000
vt 0.757764 0.000000
vt 0.763975 1.000000
vt 0.763975 0.000000
vt 0.770186 1.000000
vt 0.770186 0.000000
vt 0.776398 1.000000
vt 0.776398 0.000000
vt 0.782609 1.000000
vt 0.782609 0.000000
vt 0.788820 1.000000
vt 0.788820 0.000000
vt 0.795031 1.000000
vt 0.795031 0.000000
vt 0.801242 1.000000
vt 0.801242 0.000000
vt 0.807453 1.000000
vt 0.807453 0.000000
vt 0.813665 1.000000
vt 0.813665 0.000000
vt 0.819876 1.000000
vt 0.819876 0.000000
vt 0.826087 1.000000
vt 0.826087 0.000000
vt 0.832298 1.000000
vt 0.832298 0.000000
vt 0.838509 1.000000
vt 0.838509 0.000000
vt 0.844720 1.000000
vt 0.844720 0.000000
vt 0.850932 1.000000
vt 0.850932 0.000000
vt 0.857143 1.000000
vt 0.857143 0.000000
vt 0.863354 1.000000
vt 0.863354 0.000000
vt 0.869565 1.000000
vt 0.869565 0.000000
vt 0.875776 1.000000
vt 0.875776 0.000000
vt 0.881988 1.000000
vt 0.881988 0.000000
vt 0.888199 1.000000
vt 0.888199 0.000000
vt 0.894410 1.000000
vt 0.894410 0.000000
vt 0.900621 1.000000
vt 0.900621 0.000000
vt 0.906832 1.000000
vt 0.906832 0.000000
vt 0.913043 1.000000
vt 0.913043 0.000000
vt 0.919255 1.000000
vt 0.919255 0.000000
vt 0.925466 1.000000
vt 0.925466 0.000000
vt 0.931677 1.000000
vt 0.931677 0.000000
vt 0.937888 1.000000
vt 0.937888 0.000000
vt 0.944099 1.000000
vt 0.944099 0.000000
vt 0.950311 1.000000
vt 0.950311 0.000000
vt 0.956522 1.000000
vt 0.956522 0.000000
vt 0.962733 1.000000
vt 0.962733 0.000000
vt 0.968944 1.000000
vt 0.968944 0.000000
vt 0.975155 1.000000
vt 0.975155 0.000000
vt 0.981366 1.000000
vt 0.981366 0.000000
vt 0.987578 1.000000
vt 0.987578 0.000000
vt 0.993789 1.000000
vt 0.993789 0.000000
vt 1.000000 1.000000
vt 1.000000 0.000000
vn 0.0000 1.0000 -0.0001
vn 0.0000 1.0000 0.0000
vn 0.0000 1.0000 0.0001
vn 0.0000 -1.0000 -0.0001
vn 0.0000 -1.0000 0.0000
vn 0.0000 -1.0000 0.0001
vn 0.0000 -1.0000 0.0002
vn 0.5304 0.0000 0.8477
vn -0.8529 0.0000 0.5220
vn -0.9702 0.0000 -0.2423
vn -0.9577 0.0000 -0.2877
vn -0.9421 0.0000 -0.3353
vn -0.9229 0.0000 -0.3850
vn -0.8998 0.0000 -0.4362
vn -0.8725 0.0000 -0.4886
vn -0.8406 0.0000 -0.5416
vn -0.8041 0.0000 -0.5944
vn -0.7631 0.0000 -0.6463
vn -0.7177 0.0000 -0.6963
vn -0.6683 0.0000 -0.7438
vn -0.6189 0.0000 -0.7855
vn -0.5705 0.0000 -0.8213
vn -0.5200 0.0000 -0.8541
vn -0.4677 0.0000 -0.8839
vn -0.4139 0.0000 -0.9103
vn -0.3593 0.0000 -0.9332
vn -0.3045 0.0000 -0.9525
vn -0.2502 0.0000 -0.9682
vn -0.1968 0.0000 -0.9804
vn -0.1448 0.0000 -0.9894
vn -0.0945 0.0000 -0.9955
vn -0.0463 0.0000 -0.9989
vn 0.0014 0.0000 -1.0000
vn 0.0522 0.0000 -0.9986
vn 0.1074 0.0000 -0.9942
vn 0.1657 0.0000 -0.9861
vn 0.2268 0.0000 -0.9739
vn 0.2901 0.0000 -0.9570
vn 0.3548 0.0000 -0.9349
vn 0.4200 0.0000 -0.9075
vn 0.4847 0.0000 -0.8747
vn 0.5476 0.0000 -0.8367
vn 0.6078 0.0000 -0.7941
vn 0.6643 0.0000 -0.7474
vn 0.7147 0.0000 -0.6995
vn 0.7602 0.0000 -0.6496
vn 0.8035 0.0000 -0.5953
vn 0.8433 0.0000 -0.5374
vn 0.8789 0.0000 -0.4769
vn 0.9100 0.0000 -0.4145
vn 0.9362 0.0000 -0.3513
vn 0.9575 0.0000 -0.2882
vn 0.9741 0.0000 -0.2262
vn 0.9861 0.0000 -0.1658
vn 0.9941 0.0000 -0.1078
vn 0.9986 0.0000 -0.0526
vn 1.0000 0.0000 -0.0015
vn 0.9989 0.0000 0.0458
vn 0.9957 0.0000 0.0925
vn 0.9901 0.0000 0.1398
vn 0.9822 0.0000 0.1875
vn 0.9719 0.0000 0.2352
vn 0.9592 0.0000 0.2826
vn 0.9442 0.0000 0.3293
vn 0.9270 0.0000 0.3750
vn 0.9078 0.0000 0.4194
vn 0.8868 0.0000 0.4621
vn 0.8642 0.0000 0.5031
vn 0.8390 0.0000 0.5442
vn 0.8151 0.0000 0.5793
vn 0.7956 0.0000 0.6057
vn 0.7778 0.0000 0.6285
vn 0.7614 0.0000 0.6482
vn 0.7464 0.0000 0.6655
vn 0.7325 0.0000 0.6807
vn 0.7198 0.0000 0.6941
vn 0.7081 0.0000 0.7061
vn 0.6973 0.0000 0.7168
vn 0.6872 0.0000 0.7264
vn 0.6779 0.0000 0.7351
vn 0.6707 0.0000 0.7417
vn 0.6776 0.0000 0.7354
vn 0.6971 0.0000 0.7170
vn 0.7171 0.0000 0.6970
vn 0.7377 0.0000 0.6752
vn 0.7587 0.0000 0.6514
vn 0.7801 0.0000 0.6256
vn 0.8018 0.0000 0.5976
vn 0.8236 0.0000 0.5672
vn 0.8453 0.0000 0.5343
vn 0.8667 0.0000 0.4987
vn 0.8876 0.0000 0.4605
vn 0.8487 0.0000 -0.5289
vn 0.7071 0.0000 -0.7071
vn 0.7071 0.0000 0.7071
vn -0.7071 0.0000 0.7071
vn -0.9782 0.0000 -0.2076
vn -0.9046 0.0000 -0.4263
vn -0.8852 0.0000 -0.4651
vn -0.8650 0.0000 -0.5018
vn -0.8441 0.0000 -0.5361
vn -0.8228 0.0000 -0.5683
vn -0.8012 0.0000 -0.5983
vn -0.7796 0.0000 -0.6262
vn -0.7581 0.0000 -0.6521
vn -0.7368 0.0000 -0.6761
vn -0.7158 0.0000 -0.6983
vn -0.6952 0.0000 -0.7188
vn -0.6859 0.0000 -0.7277
vn -0.6915 0.0000 -0.7224
vn -0.7008 0.0000 -0.7133
vn -0.7110 0.0000 -0.7031
vn -0.7222 0.0000 -0.6916
vn -0.7345 0.0000 -0.6785
vn -0.7481 0.0000 -0.6635
vn -0.7631 0.0000 -0.6462
vn -0.7798 0.0000 -0.6260
vn -0.7984 0.0000 -0.6022
vn -0.8190 0.0000 -0.5738
vn -0.8418 0.0000 -0.5397
vn -0.8655 0.0000 -0.5008
vn -0.8874 0.0000 -0.4609
vn -0.9071 0.0000 -0.4208
vn -0.9251 0.0000 -0.3796
vn -0.9413 0.0000 -0.3375
vn -0.9555 0.0000 -0.2948
vn -0.9678 0.0000 -0.2518
vn -0.9780 0.0000 -0.2086
vn -0.9862 0.0000 -0.1657
vn -0.9924 0.0000 -0.1231
vn -0.9967 0.0000 -0.0812
vn -0.9992 0.0000 -0.0402
vn -1.0000 0.0000 0.0035
vn -0.9984 0.0000 0.0553
vn -0.9935 0.0000 0.1139
vn -0.9843 0.0000 0.1762
vn -0.9704 0.0000 0.2416
vn -0.9509 0.0000 0.3094
vn -0.9255 0.0000 0.3787
vn -0.8939 0.0000 0.4483
vn -0.8560 0.0000 0.5169
vn -0.8125 0.0000 0.5830
vn -0.7638 0.0000 0.6454
vn -0.7111 0.0000 0.7031
vn -0.6557 0.0000 0.7550
vn -0.6015 0.0000 0.7989
vn -0.5484 0.0000 0.8362
vn -0.4930 0.0000 0.8700
vn -0.4358 0.0000 0.9000
vn -0.3778 0.0000 0.9259
vn -0.3196 0.0000 0.9475
vn -0.2619 0.0000 0.9651
vn -0.2055 0.0000 0.9786
vn -0.1507 0.0000 0.9886
vn -0.0981 0.0000 0.9951
vn -0.0479 0.0000 0.9988
vn 0.0145 0.0000 0.9999
vn 0.1097 0.0000 0.9940
vn 0.2293 0.0000 0.9734
vn 0.3561 0.0000 0.9344
vn 0.4837 0.0000 0.8752
vn 0.6040 0.0000 0.7970
vn 0.7098 0.0000 0.7043
vn 0.7969 0.0000 0.6041
vn 0.8643 0.0000 0.5030
vn 0.9136 0.0000 0.4065
vn 0.9481 0.0000 0.3179
vn 0.9712 0.0000 0.2384
usemtl Number
s off
f 41/29/13 43/30/13 42/31/13
f 40/32/14 43/30/14 41/29/14
f 40/32/14 44/33/14 43/30/14
f 39/34/14 44/33/14 40/32/14
f 39/34/14 45/35/14 44/33/14
f 38/36/13 45/35/13 39/34/13
f 38/36/14 46/37/14 45/35/14
f 37/38/14 46/37/14 38/36/14
f 37/38/14 47/39/14 46/37/14
f 36/40/14 47/39/14 37/38/14
f 36/40/14 48/41/14 47/39/14
f 35/42/14 48/41/14 36/40/14
f 35/42/14 49/43/14 48/41/14
f 34/44/14 49/43/14 35/42/14
f 33/45/14 49/43/14 34/44/14
f 33/45/14 50/46/14 49/43/14
f 32/47/14 50/46/14 33/45/14
f 32/47/14 51/48/14 50/46/14
f 31/49/14 51/48/14 32/47/14
f 31/49/14 52/50/14 51/48/14
f 30/51/14 52/50/14 31/49/14
f 30/51/14 53/52/14 52/50/14
f 29/53/14 53/52/14 30/51/14
f 29/53/14 54/54/14 53/52/14
f 28/55/14 166/56/14 29/53/14
f 166/56/14 54/54/14 29/53/14
f 28/55/14 167/57/14 166/56/14
f 165/58/14 54/54/14 166/56/14
f 165/58/14 55/59/14 54/54/14
f 164/60/14 55/59/14 165/58/14
f 163/61/14 55/59/14 164/60/14
f 28/55/14 168/62/14 167/57/14
f 162/63/14 55/59/14 163/61/14
f 161/64/15 55/59/15 162/63/15
f 27/65/14 168/62/14 28/55/14
f 27/65/14 169/66/14 168/62/14
f 160/67/14 55/59/14 161/64/14
f 159/68/14 55/59/14 160/67/14
f 159/68/14 56/69/14 55/59/14
f 27/65/14 170/70/14 169/66/14
f 158/71/14 56/69/14 159/68/14
f 157/72/14 56/69/14 158/71/14
f 26/73/14 170/70/14 27/65/14
f 26/73/14 171/74/14 170/70/14
f 156/75/14 56/69/14 157/72/14
f 156/75/14 57/76/14 56/69/14
f 155/77/14 57/76/14 156/75/14
f 25/78/14 171/74/14 26/73/14
f 154/79/14 57/76/14 155/77/14
f 25/78/14 172/80/14 171/74/14
f 154/79/14 58/81/14 57/76/14
f 153/82/14 58/81/14 154/79/14
f 24/83/14 172/80/14 25/78/14
f 152/84/14 58/81/14 153/82/14
f 152/84/14 59/85/14 58/81/14
f 24/83/14 173/86/14 172/80/14
f 151/87/14 59/85/14 152/84/14
f 151/87/14 60/88/14 59/85/14
f 23/89/14 173/86/14 24/83/14
f 150/90/14 60/88/14 151/87/14
f 23/89/14 174/91/14 173/86/14
f 149/92/14 60/88/14 150/90/14
f 149/92/14 61/93/14 60/88/14
f 22/94/14 174/91/14 23/89/14
f 148/95/14 61/93/14 149/92/14
f 22/94/14 175/96/14 174/91/14
f 148/95/14 62/97/14 61/93/14
f 147/98/14 62/97/14 148/95/14
f 21/99/14 175/96/14 22/94/14
f 147/98/14 63/100/14 62/97/14
f 146/101/14 63/100/14 147/98/14
f 21/99/14 176/102/14 175/96/14
f 20/103/14 176/102/14 21/99/14
f 145/104/14 63/100/14 146/101/14
f 145/104/14 64/105/14 63/100/14
f 144/106/14 64/105/14 145/104/14
f 19/107/14 176/102/14 20/103/14
f 144/106/14 65/108/14 64/105/14
f 19/107/14 177/109/14 176/102/14
f 143/110/14 65/108/14 144/106/14
f 143/110/14 66/111/14 65/108/14
f 18/112/14 177/109/14 19/107/14
f 142/113/14 66/111/14 143/110/14
f 18/112/14 17/114/14 177/109/14
f 141/115/14 66/111/14 142/113/14
f 141/115/14 67/116/14 66/111/14
f 140/117/14 67/116/14 141/115/14
f 140/117/14 68/118/14 67/116/14
f 139/119/14 68/118/14 140/117/14
f 139/119/14 69/120/14 68/118/14
f 138/121/14 69/120/14 139/119/14
f 137/122/14 69/120/14 138/121/14
f 137/122/14 70/123/14 69/120/14
f 136/124/14 70/123/14 137/122/14
f 136/124/14 71/125/14 70/123/14
f 135/126/14 71/125/14 136/124/14
f 134/127/14 71/125/14 135/126/14
f 134/127/14 72/128/14 71/125/14
f 133/129/14 72/128/14 134/127/14
f 133/129/14 73/130/14 72/128/14
f 132/131/14 73/130/14 133/129/14
f 132/131/14 74/132/14 73/130/14
f 131/133/14 74/132/14 132/131/14
f 130/134/14 74/132/14 131/133/14
f 130/134/14 75/135/14 74/132/14
f 129/136/14 75/135/14 130/134/14
f 129/136/14 76/137/14 75/135/14
f 128/138/14 76/137/14 129/136/14
f 128/138/14 77/139/14 76/137/14
f 127/140/14 77/139/14 128/138/14
f 127/140/14 78/141/14 77/139/14
f 126/142/14 78/141/14 127/140/14
f 126/142/14 79/143/14 78/141/14
f 125/144/14 79/143/14 126/142/14
f 125/144/14 80/145/14 79/143/14
f 124/146/14 80/145/14 125/144/14
f 124/146/14 81/147/14 80/145/14
f 123/148/14 81/147/14 124/146/14
f 123/148/14 82/149/14 81/147/14
f 122/150/14 82/149/14 123/148/14
f 122/150/14 83/151/14 82/149/14
f 121/152/14 83/151/14 122/150/14
f 121/152/14 84/153/14 83/151/14
f 120/154/14 84/153/14 121/152/14
f 120/154/14 85/155/14 84/153/14
f 119/156/14 85/155/14 120/154/14
f 119/156/14 86/157/14 85/155/14
f 118/158/14 86/157/14 119/156/14
f 118/158/14 87/159/14 86/157/14
f 117/160/14 87/159/14 118/158/14
f 117/160/14 88/161/14 87/159/14
f 117/160/14 89/162/14 88/161/14
f 116/163/14 89/162/14 117/160/14
f 116/163/14 90/164/14 89/162/14
f 116/163/14 91/165/14 90/164/14
f 115/166/14 91/165/14 116/163/14
f 115/166/14 92/167/14 91/165/14
f 114/168/14 92/167/14 115/166/14
f 114/168/14 93/169/14 92/167/14
f 113/170/14 93/169/14 114/168/14
f 113/170/14 94/171/14 93/169/14
f 112/172/14 94/171/14 113/170/14
f 112/172/14 95/173/14 94/171/14
f 112/172/14 96/174/14 95/173/14
f 111/175/14 96/174/14 112/172/14
f 111/175/14 97/176/14 96/174/14
f 110/177/14 97/176/14 111/175/14
f 110/177/14 98/178/14 97/176/14
f 109/179/14 98/178/14 110/177/14
f 109/179/14 99/180/14 98/178/14
f 108/181/14 99/180/14 109/179/14
f 108/181/14 100/182/14 99/180/14
f 107/183/14 100/182/14 108/181/14
f 107/183/14 101/184/14 100/182/14
f 107/183/14 102/185/14 101/184/14
f 106/186/14 102/185/14 107/183/14
f 106/186/14 103/187/14 102/185/14
f 106/186/14 104/188/14 103/187/14
f 105/189/14 104/188/14 106/186/14
f 204/190/16 202/191/16 203/192/16
f 204/190/17 201/193/17 202/191/17
f 205/194/17 201/193/17 204/190/17
f 205/194/17 200/195/17 201/193/17
f 206/196/17 200/195/17 205/194/17
f 206/196/17 199/197/17 200/195/17
f 207/198/17 199/197/17 206/196/17
f 207/198/17 198/199/17 199/197/17
f 208/200/17 198/199/17 207/198/17
f 208/200/17 197/201/17 198/199/17
f 209/202/17 197/201/17 208/200/17
f 209/202/17 196/203/17 197/201/17
f 210/204/17 196/203/17 209/202/17
f 210/204/17 195/205/17 196/203/17
f 210/204/17 194/206/17 195/205/17
f 211/207/17 194/206/17 210/204/17
f 211/207/17 193/208/17 194/206/17
f 212/209/17 193/208/17 211/207/17
f 212/209/17 192/210/17 193/208/17
f 213/211/17 192/210/17 212/209/17
f 213/211/17 191/212/17 192/210/17
f 214/213/17 191/212/17 213/211/17
f 214/213/17 190/214/17 191/212/17
f 215/215/17 190/214/17 214/213/17
f 327/216/17 189/217/17 190/214/17
f 215/215/17 327/216/17 190/214/17
f 328/218/17 189/217/17 327/216/17
f 215/215/18 326/219/18 327/216/18
f 216/220/17 326/219/17 215/215/17
f 216/220/19 325/221/19 326/219/19
f 216/220/16 324/222/16 325/221/16
f 329/223/17 189/217/17 328/218/17
f 216/220/17 323/224/17 324/222/17
f 216/220/17 322/225/17 323/224/17
f 329/223/17 188/226/17 189/217/17
f 330/227/17 188/226/17 329/223/17
f 216/220/17 321/228/17 322/225/17
f 216/220/17 320/229/17 321/228/17
f 217/230/17 320/229/17 216/220/17
f 331/231/17 188/226/17 330/227/17
f 217/230/17 319/232/17 320/229/17
f 217/230/17 318/233/17 319/232/17
f 331/231/17 187/234/17 188/226/17
f 332/235/17 187/234/17 331/231/17
f 217/230/17 317/236/17 318/233/17
f 218/237/17 317/236/17 217/230/17
f 218/237/17 316/238/17 317/236/17
f 332/235/17 186/239/17 187/234/17
f 218/237/17 315/240/17 316/238/17
f 333/241/17 186/239/17 332/235/17
f 219/242/17 315/240/17 218/237/17
f 219/242/17 314/243/17 315/240/17
f 333/241/17 185/244/17 186/239/17
f 219/242/17 313/245/17 314/243/17
f 220/246/17 313/245/17 219/242/17
f 334/247/17 185/244/17 333/241/17
f 220/246/17 312/248/17 313/245/17
f 221/249/17 312/248/17 220/246/17
f 334/247/17 184/250/17 185/244/17
f 221/249/17 311/251/17 312/248/17
f 335/252/17 184/250/17 334/247/17
f 221/249/17 310/253/17 311/251/17
f 222/254/17 310/253/17 221/249/17
f 335/252/17 183/255/17 184/250/17
f 222/254/17 309/256/17 310/253/17
f 336/257/17 183/255/17 335/252/17
f 223/258/17 309/256/17 222/254/17
f 223/258/17 308/259/17 309/256/17
f 336/257/17 182/260/17 183/255/17
f 224/261/17 308/259/17 223/258/17
f 224/261/17 307/262/17 308/259/17
f 337/263/17 182/260/17 336/257/17
f 337/263/17 181/264/17 182/260/17
f 224/261/17 306/265/17 307/262/17
f 225/266/17 306/265/17 224/261/17
f 225/266/17 305/267/17 306/265/17
f 337/263/17 180/268/17 181/264/17
f 226/269/17 305/267/17 225/266/17
f 338/270/17 180/268/17 337/263/17
f 226/269/17 304/271/17 305/267/17
f 227/272/17 304/271/17 226/269/17
f 338/270/17 179/273/17 180/268/17
f 227/272/17 303/274/17 304/271/17
f 178/275/17 179/273/17 338/270/17
f 227/272/17 302/276/17 303/274/17
f 228/277/17 302/276/17 227/272/17
f 228/277/17 301/278/17 302/276/17
f 229/279/17 301/278/17 228/277/17
f 229/279/17 300/280/17 301/278/17
f 230/281/17 300/280/17 229/279/17
f 230/281/17 299/282/17 300/280/17
f 230/281/17 298/283/17 299/282/17
f 231/284/17 298/283/17 230/281/17
f 231/284/17 297/285/17 298/283/17
f 232/286/17 297/285/17 231/284/17
f 232/286/17 296/287/17 297/285/17
f 232/286/17 295/288/17 296/287/17
f 233/289/17 295/288/17 232/286/17
f 233/289/17 294/290/17 295/288/17
f 234/291/17 294/290/17 233/289/17
f 234/291/17 293/292/17 294/290/17
f 235/293/17 293/292/17 234/291/17
f 235/293/17 292/294/17 293/292/17
f 235/293/17 291/295/17 292/294/17
f 236/296/17 291/295/17 235/293/17
f 236/296/17 290/297/17 291/295/17
f 237/298/17 290/297/17 236/296/17
f 237/298/17 289/299/17 290/297/17
f 238/300/17 289/299/17 237/298/17
f 238/300/17 288/301/17 289/299/17
f 239/302/17 288/301/17 238/300/17
f 239/302/17 287/303/17 288/301/17
f 240/304/17 287/303/17 239/302/17
f 240/304/17 286/305/17 287/303/17
f 241/306/17 286/305/17 240/304/17
f 241/306/17 285/307/17 286/305/17
f 242/308/17 285/307/17 241/306/17
f 242/308/17 284/309/17 285/307/17
f 243/310/17 284/309/17 242/308/17
f 243/310/17 283/311/17 284/309/17
f 244/312/17 283/311/17 243/310/17
f 244/312/17 282/313/17 283/311/17
f 245/314/17 282/313/17 244/312/17
f 245/314/17 281/315/17 282/313/17
f 246/316/17 281/315/17 245/314/17
f 246/316/17 280/317/17 281/315/17
f 247/318/17 280/317/17 246/316/17
f 247/318/17 279/319/17 280/317/17
f 248/320/17 279/319/17 247/318/17
f 248/320/17 278/321/17 279/319/17
f 249/322/17 278/321/17 248/320/17
f 250/323/17 278/321/17 249/322/17
f 250/323/17 277/324/17 278/321/17
f 251/325/17 277/324/17 250/323/17
f 252/326/17 277/324/17 251/325/17
f 252/326/17 276/327/17 277/324/17
f 253/328/17 276/327/17 252/326/17
f 253/328/17 275/329/17 276/327/17
f 254/330/17 275/329/17 253/328/17
f 254/330/17 274/331/17 275/329/17
f 255/332/17 274/331/17 254/330/17
f 255/332/17 273/333/17 274/331/17
f 256/334/17 273/333/17 255/332/17
f 257/335/17 273/333/17 256/334/17
f 257/335/17 272/336/17 273/333/17
f 258/337/17 272/336/17 257/335/17
f 258/337/17 271/338/17 272/336/17
f 259/339/17 271/338/17 258/337/17
f 259/339/17 270/340/17 271/338/17
f 260/341/17 270/340/17 259/339/17
f 260/341/17 269/342/17 270/340/17
f 261/343/17 269/342/17 260/341/17
f 261/343/17 268/344/17 269/342/17
f 262/345/17 268/344/17 261/343/17
f 263/346/17 268/344/17 262/345/17
f 263/346/17 267/347/17 268/344/17
f 264/348/17 267/347/17 263/346/17
f 265/349/17 267/347/17 264/348/17
f 265/349/17 266/350/17 267/347/17
s 1
f 340/351/20 342/352/21 341/353/21 339/354/20
f 342/352/21 344/355/22 343/356/22 341/353/21
f 344/355/22 346/357/23 345/358/23 343/356/22
f 346/357/23 348/359/24 347/360/24 345/358/23
f 348/359/24 350/361/25 349/362/25 347/360/24
f 350/361/25 352/363/26 351/364/26 349/362/25
f 352/363/26 354/365/27 353/366/27 351/364/26
f 354/365/27 356/367/28 355/368/28 353/366/27
f 356/367/28 358/369/29 357/370/29 355/368/28
f 358/369/29 360/371/30 359/372/30 357/370/29
f 360/371/30 362/373/31 361/374/31 359/372/30
f 362/373/31 364/375/32 363/376/32 361/374/31
f 364/375/32 366/377/33 365/378/33 363/376/32
f 366/377/33 368/379/34 367/380/34 365/378/33
f 368/379/34 370/381/35 369/382/35 367/380/34
f 370/381/35 372/383/36 371/384/36 369/382/35
f 372/383/36 374/385/37 373/386/37 371/384/36
f 374/385/37 376/387/38 375/388/38 373/386/37
f 376/387/38 378/389/39 377/390/39 375/388/38
f 378/389/39 380/391/40 379/392/40 377/390/39
f 380/391/40 382/393/41 381/394/41 379/392/40
f 382/393/41 384/395/42 383/396/42 381/394/41
f 384/395/42 386/397/43 385/398/43 383/396/42
f 386/397/43 388/399/44 387/400/44 385/398/43
f 388/399/44 390/401/45 389/402/45 387/400/44
f 390/401/45 392/403/46 391/404/46 389/402/45
f 392/403/46 394/405/47 393/406/47 391/404/46
f 394/405/47 396/407/48 395/408/48 393/406/47
f 396/407/48 398/409/49 397/410/49 395/408/48
f 398/409/49 400/411/50 399/412/50 397/410/49
f 400/411/50 402/413/51 401/414/51 399/412/50
f 402/413/51 404/415/52 403/416/52 401/414/51
f 404/415/52 406/417/53 405/418/53 403/416/52
f 406/417/53 408/419/54 407/420/54 405/418/53
f 408/419/54 410/421/55 409/422/55 407/420/54
f 410/421/55 412/423/56 411/424/56 409/422/55
f 412/423/56 414/425/57 413/426/57 411/424/56
f 414/425/57 416/427/58 415/428/58 413/426/57
f 416/427/58 418/429/59 417/430/59 415/428/58
f 418/429/59 420/431/60 419/432/60 417/430/59
f 420/431/60 422/433/61 421/434/61 419/432/60
f 422/433/61 424/435/62 423/436/62 421/434/61
f 424/435/62 426/437/63 425/438/63 423/436/62
f 426/437/63 428/439/64 427/440/64 425/438/63
f 428/439/64 430/441/65 429/442/65 427/440/64
f 430/441/65 432/443/66 431/444/66 429/442/65
f 432/443/66 434/445/67 433/446/67 431/444/66
f 434/445/67 436/447/68 435/448/68 433/446/67
f 436/447/68 438/449/69 437/450/69 435/448/68
f 438/449/69 440/451/70 439/452/70 437/450/69
f 440/451/70 442/453/71 441/454/71 439/452/70
f 442/453/71 444/455/72 443/456/72 441/454/71
f 444/455/72 446/457/73 445/458/73 443/456/72
f 446/457/73 448/459/74 447/460/74 445/458/73
f 448/459/74 450/461/75 449/462/75 447/460/74
f 450/461/75 452/463/76 451/464/76 449/462/75
f 452/463/76 454/465/77 453/466/77 451/464/76
f 454/465/77 456/467/78 455/468/78 453/466/77
f 456/467/78 458/469/79 457/470/79 455/468/78
f 458/469/79 460/471/80 459/472/80 457/470/79
f 460/471/80 462/473/81 461/474/81 459/472/80
f 462/473/81 464/475/82 463/476/82 461/474/81
f 464/475/82 466/477/83 465/478/83 463/476/82
f 466/477/83 468/479/84 467/480/84 465/478/83
f 468/479/84 470/481/85 469/482/85 467/480/84
f 470/481/85 472/483/86 471/484/86 469/482/85
f 472/483/86 474/485/87 473/486/87 471/484/86
f 474/485/87 476/487/88 475/488/88 473/486/87
f 476/487/88 478/489/89 477/490/89 475/488/88
f 478/489/89 480/491/90 479/492/90 477/490/89
f 480/491/90 482/493/91 481/494/91 479/492/90
f 482/493/91 484/495/92 483/496/92 481/494/91
f 484/495/92 486/497/93 485/498/93 483/496/92
f 486/497/93 488/499/94 487/500/94 485/498/93
f 488/499/94 490/501/95 489/502/95 487/500/94
f 490/501/95 492/503/96 491/504/96 489/502/95
f 492/503/96 494/505/97 493/506/97 491/504/96
f 494/505/97 496/507/98 495/508/98 493/506/97
f 496/507/98 498/509/99 497/510/99 495/508/98
f 498/509/99 500/511/100 499/512/100 497/510/99
f 500/511/100 502/513/101 501/514/101 499/512/100
f 502/513/101 504/515/102 503/516/102 501/514/101
f 504/515/102 506/517/103 505/518/103 503/516/102
f 506/517/103 508/519/104 507/520/104 505/518/103
f 508/519/104 510/521/105 509/522/105 507/520/104
f 510/521/105 512/523/106 511/524/106 509/522/105
f 512/523/106 514/525/107 513/526/107 511/524/106
f 514/525/107 516/527/108 515/528/108 513/526/107
f 516/527/108 518/529/109 517/530/109 515/528/108
f 518/529/109 520/531/110 519/532/110 517/530/109
f 520/531/110 522/533/111 521/534/111 519/532/110
f 522/533/111 524/535/112 523/536/112 521/534/111
f 524/535/112 526/537/113 525/538/113 523/536/112
f 526/537/113 528/539/114 527/540/114 525/538/113
f 528/539/114 530/541/115 529/542/115 527/540/114
f 530/541/115 532/543/116 531/544/116 529/542/115
f 532/543/116 534/545/117 533/546/117 531/544/116
f 534/545/117 536/547/118 535/548/118 533/546/117
f 536/547/118 538/549/119 537/550/119 535/548/118
f 538/549/119 540/551/120 539/552/120 537/550/119
f 540/551/120 542/553/121 541/554/121 539/552/120
f 542/553/121 544/555/122 543/556/122 541/554/121
f 544/555/122 546/557/123 545/558/123 543/556/122
f 546/557/123 548/559/124 547/560/124 545/558/123
f 548/559/124 550/561/125 549/562/125 547/560/124
f 550/561/125 552/563/126 551/564/126 549/562/125
f 552/563/126 554/565/127 553/566/127 551/564/126
f 554/565/127 556/567/128 555/568/128 553/566/127
f 556/567/128 558/569/129 557/570/129 555/568/128
f 558/569/129 560/571/130 559/572/130 557/570/129
f 560/571/130 562/573/131 561/574/131 559/572/130
f 562/573/131 564/575/132 563/576/132 561/574/131
f 564/575/132 566/577/133 565/578/133 563/576/132
f 566/577/133 568/579/134 567/580/134 565/578/133
f 568/579/134 570/581/135 569/582/135 567/580/134
f 570/581/135 572/583/136 571/584/136 569/582/135
f 572/583/136 574/585/137 573/586/137 571/584/136
f 574/585/137 576/587/138 575/588/138 573/586/137
f 576/587/138 578/589/139 577/590/139 575/588/138
f 578/589/139 580/591/140 579/592/140 577/590/139
f 580/591/140 582/593/141 581/594/141 579/592/140
f 582/593/141 584/595/142 583/596/142 581/594/141
f 584/595/142 586/597/143 585/598/143 583/596/142
f 586/597/143 588/599/144 587/600/144 585/598/143
f 588/599/144 590/601/145 589/602/145 587/600/144
f 590/601/145 592/603/146 591/604/146 589/602/145
f 592/603/146 594/605/147 593/606/147 591/604/146
f 594/605/147 596/607/148 595/608/148 593/606/147
f 596/607/148 598/609/149 597/610/149 595/608/148
f 598/609/149 600/611/150 599/612/150 597/610/149
f 600/611/150 602/613/151 601/614/151 599/612/150
f 602/613/151 604/615/152 603/616/152 601/614/151
f 604/615/152 606/617/153 605/618/153 603/616/152
f 606/617/153 608/619/154 607/620/154 605/618/153
f 608/619/154 610/621/155 609/622/155 607/620/154
f 610/621/155 612/623/156 611/624/156 609/622/155
f 612/623/156 614/625/157 613/626/157 611/624/156
f 614/625/157 616/627/158 615/628/158 613/626/157
f 616/627/158 618/629/159 617/630/159 615/628/158
f 618/629/159 620/631/160 619/632/160 617/630/159
f 620/631/160 622/633/161 621/634/161 619/632/160
f 622/633/161 624/635/162 623/636/162 621/634/161
f 624/635/162 626/637/163 625/638/163 623/636/162
f 626/637/163 628/639/164 627/640/164 625/638/163
f 628/639/164 630/641/165 629/642/165 627/640/164
f 630/641/165 632/643/166 631/644/166 629/642/165
f 632/643/166 634/645/167 633/646/167 631/644/166
f 634/645/167 636/647/168 635/648/168 633/646/167
f 636/647/168 638/649/169 637/650/169 635/648/168
f 638/649/169 640/651/170 639/652/170 637/650/169
f 640/651/170 642/653/171 641/654/171 639/652/170
f 642/653/171 644/655/172 643/656/172 641/654/171
f 644/655/172 646/657/173 645/658/173 643/656/172
f 646/657/173 648/659/174 647/660/174 645/658/173
f 648/659/174 650/661/175 649/662/175 647/660/174
f 650/661/175 652/663/176 651/664/176 649/662/175
f 652/663/176 654/665/177 653/666/177 651/664/176
f 654/665/177 656/667/178 655/668/178 653/666/177
f 656/667/178 658/669/179 657/670/179 655/668/178
f 658/669/179 660/671/180 659/672/180 657/670/179
f 660/671/180 340/673/20 339/674/20 659/672/180
